{
    "16": [
        [
            0.01,
            0.11227825798751417
        ],
        [
            0.02,
            0.07390825776055555
        ],
        [
            0.03,
            0.04915129243907619
        ],
        [
            0.04,
            0.04727951862624604
        ],
        [
            0.05,
            0.05930123143636187
        ],
        [
            0.06,
            0.05410176940690472
        ],
        [
            0.07,
            0.06267667472249148
        ],
        [
            0.08,
            0.045955353989092985
        ],
        [
            0.09,
            0.0568457238294935
        ],
        [
            0.1,
            0.06316586397995559
        ],
        [
            0.11,
            0.04361329048753307
        ],
        [
            0.12,
            0.05259592683666529
        ],
        [
            0.13,
            0.05210755594655048
        ],
        [
            0.14,
            0.050221177298397486
        ],
        [
            0.15,
            0.044862558515574184
        ],
        [
            0.16,
            0.05105275984975175
        ],
        [
            0.17,
            0.04743628449204064
        ],
        [
            0.18,
            0.051553271740911184
        ],
        [
            0.19,
            0.05604402814085003
        ],
        [
            0.2,
            0.040137958923944124
        ],
        [
            0.21,
            0.053796675518595384
        ],
        [
            0.22,
            0.056409936083436696
        ],
        [
            0.23,
            0.04592145831627726
        ],
        [
            0.24,
            0.055895559769665766
        ],
        [
            0.25,
            0.05083469854493761
        ],
        [
            0.26,
            0.05251610615410055
        ],
        [
            0.27,
            0.0483823035533455
        ],
        [
            0.28,
            0.04359813922818879
        ],
        [
            0.29,
            0.05261166666029103
        ],
        [
            0.3,
            0.04181871644719416
        ],
        [
            0.31,
            0.04123093546538221
        ],
        [
            0.32,
            0.04271958129709894
        ],
        [
            0.33,
            0.040976170718882036
        ],
        [
            0.34,
            0.04637913193675502
        ],
        [
            0.35,
            0.048625511948951546
        ],
        [
            0.36,
            0.041909108086112874
        ],
        [
            0.37,
            0.04281276028819232
        ],
        [
            0.38,
            0.047343189322369965
        ],
        [
            0.39,
            0.04621488471031359
        ],
        [
            0.4,
            0.03963150610136757
        ],
        [
            0.41,
            0.04218387802182235
        ],
        [
            0.42,
            0.037667191951224116
        ],
        [
            0.43,
            0.04357963115687699
        ],
        [
            0.44,
            0.040960340574218136
        ],
        [
            0.45,
            0.043837269083811164
        ],
        [
            0.46,
            0.04549142064275918
        ],
        [
            0.47,
            0.04338478877521878
        ],
        [
            0.48,
            0.04028338111496847
        ],
        [
            0.49,
            0.03975494794276823
        ],
        [
            0.5,
            0.0390180018069774
        ],
        [
            0.51,
            0.03955132422711369
        ],
        [
            0.52,
            0.039100114837443994
        ],
        [
            0.53,
            0.035929147850749826
        ],
        [
            0.54,
            0.03790913776832845
        ],
        [
            0.55,
            0.03801569671390239
        ],
        [
            0.56,
            0.036486725552622015
        ],
        [
            0.57,
            0.03484884088274187
        ],
        [
            0.58,
            0.03144747022528199
        ],
        [
            0.59,
            0.03436788883716231
        ],
        [
            0.6,
            0.032736481869264526
        ],
        [
            0.61,
            0.03365334056835548
        ],
        [
            0.62,
            0.03491571700215121
        ],
        [
            0.63,
            0.03232910765888603
        ],
        [
            0.64,
            0.03066565372105598
        ],
        [
            0.65,
            0.03255945892997643
        ],
        [
            0.66,
            0.034438366451605675
        ],
        [
            0.67,
            0.030359132156455367
        ],
        [
            0.68,
            0.03415609123836154
        ],
        [
            0.69,
            0.03161996595744503
        ],
        [
            0.7,
            0.03165821191407359
        ],
        [
            0.71,
            0.032341250932213246
        ],
        [
            0.72,
            0.02964379020185402
        ],
        [
            0.73,
            0.029226552242415858
        ],
        [
            0.74,
            0.030155031423310583
        ],
        [
            0.75,
            0.029260453819191498
        ],
        [
            0.76,
            0.030130846236952637
        ],
        [
            0.77,
            0.02869785659900987
        ],
        [
            0.78,
            0.03050168040205755
        ],
        [
            0.79,
            0.029072306286173383
        ],
        [
            0.8,
            0.03124557613513846
        ],
        [
            0.81,
            0.029439915765138536
        ],
        [
            0.82,
            0.02908082540762645
        ],
        [
            0.83,
            0.028929875247770243
        ],
        [
            0.84,
            0.027835559348558372
        ],
        [
            0.85,
            0.027036512929070413
        ],
        [
            0.86,
            0.028132716514228554
        ],
        [
            0.87,
            0.02824841391478076
        ],
        [
            0.88,
            0.02750687493871076
        ],
        [
            0.89,
            0.026729474765318804
        ],
        [
            0.9,
            0.027968973497044792
        ],
        [
            0.91,
            0.027109140642410563
        ],
        [
            0.92,
            0.027617705069938138
        ],
        [
            0.93,
            0.02701554503503191
        ],
        [
            0.94,
            0.02649443562793544
        ],
        [
            0.95,
            0.0258166121219263
        ],
        [
            0.96,
            0.021621388407492996
        ],
        [
            0.97,
            0.02302036708898065
        ],
        [
            0.98,
            0.021966226917469436
        ],
        [
            0.99,
            0.017312296178459134
        ],
        [
            1.0,
            0.012911802507568584
        ]
    ],
    "64": [
        [
            0.01,
            0.12225743068743791
        ],
        [
            0.02,
            0.09375922270354077
        ],
        [
            0.03,
            0.06040175842559789
        ],
        [
            0.04,
            0.06959992012409465
        ],
        [
            0.05,
            0.07053886954965234
        ],
        [
            0.06,
            0.062001778067266596
        ],
        [
            0.07,
            0.07402527491840304
        ],
        [
            0.08,
            0.06866002787144253
        ],
        [
            0.09,
            0.059691880732217775
        ],
        [
            0.1,
            0.06333501268605488
        ],
        [
            0.11,
            0.054001640153988
        ],
        [
            0.12,
            0.06193086366436353
        ],
        [
            0.13,
            0.0488301332396405
        ],
        [
            0.14,
            0.05797369252078352
        ],
        [
            0.15,
            0.05363444521435473
        ],
        [
            0.16,
            0.05565644217164622
        ],
        [
            0.17,
            0.0608507490267079
        ],
        [
            0.18,
            0.05281641425232932
        ],
        [
            0.19,
            0.047582061618476335
        ],
        [
            0.2,
            0.04968149793879917
        ],
        [
            0.21,
            0.053824127269149355
        ],
        [
            0.22,
            0.0627365056623157
        ],
        [
            0.23,
            0.05961933394605491
        ],
        [
            0.24,
            0.055046505497191686
        ],
        [
            0.25,
            0.05944793512436118
        ],
        [
            0.26,
            0.048758740186622684
        ],
        [
            0.27,
            0.057352049084633004
        ],
        [
            0.28,
            0.04792235247426472
        ],
        [
            0.29,
            0.04429072763937384
        ],
        [
            0.3,
            0.05105645380150259
        ],
        [
            0.31,
            0.046561928095609224
        ],
        [
            0.32,
            0.03968625016664006
        ],
        [
            0.33,
            0.04651625999389281
        ],
        [
            0.34,
            0.0466561074826528
        ],
        [
            0.35,
            0.048660311617498814
        ],
        [
            0.36,
            0.04774418777685392
        ],
        [
            0.37,
            0.04472924608778742
        ],
        [
            0.38,
            0.04465961785085936
        ],
        [
            0.39,
            0.04470231873122593
        ],
        [
            0.4,
            0.04355133362081957
        ],
        [
            0.41,
            0.0507401796233413
        ],
        [
            0.42,
            0.046097693135694784
        ],
        [
            0.43,
            0.040557457150931446
        ],
        [
            0.44,
            0.0446560172723314
        ],
        [
            0.45,
            0.03829683994487435
        ],
        [
            0.46,
            0.045358143797602425
        ],
        [
            0.47,
            0.043689465077568816
        ],
        [
            0.48,
            0.040909691895459545
        ],
        [
            0.49,
            0.03907353042555947
        ],
        [
            0.5,
            0.03993478822601219
        ],
        [
            0.51,
            0.04014653802362082
        ],
        [
            0.52,
            0.03597396532975528
        ],
        [
            0.53,
            0.03663239543491704
        ],
        [
            0.54,
            0.038115957130512315
        ],
        [
            0.55,
            0.036827718781143444
        ],
        [
            0.56,
            0.03742910667419536
        ],
        [
            0.57,
            0.03358882973343542
        ],
        [
            0.58,
            0.033361676785776846
        ],
        [
            0.59,
            0.03246057706476872
        ],
        [
            0.6,
            0.034716966921713534
        ],
        [
            0.61,
            0.033619233363531724
        ],
        [
            0.62,
            0.033116433044169905
        ],
        [
            0.63,
            0.03469577447937755
        ],
        [
            0.64,
            0.031370419287956794
        ],
        [
            0.65,
            0.03531314431811259
        ],
        [
            0.66,
            0.037656847956706596
        ],
        [
            0.67,
            0.03422382752369008
        ],
        [
            0.68,
            0.03209005216400908
        ],
        [
            0.69,
            0.030271249164155162
        ],
        [
            0.7,
            0.03301928939367083
        ],
        [
            0.71,
            0.030106158574398845
        ],
        [
            0.72,
            0.032017285594091366
        ],
        [
            0.73,
            0.032080212491683135
        ],
        [
            0.74,
            0.030705387715286282
        ],
        [
            0.75,
            0.027753516538881577
        ],
        [
            0.76,
            0.031193796012735597
        ],
        [
            0.77,
            0.030823732962678208
        ],
        [
            0.78,
            0.027288701862881064
        ],
        [
            0.79,
            0.03229388338836494
        ],
        [
            0.8,
            0.028480353360466434
        ],
        [
            0.81,
            0.027856142729315886
        ],
        [
            0.82,
            0.02894185762339587
        ],
        [
            0.83,
            0.029764953953054684
        ],
        [
            0.84,
            0.029676562974230936
        ],
        [
            0.85,
            0.03019859511446741
        ],
        [
            0.86,
            0.028653006280018177
        ],
        [
            0.87,
            0.026839251715674344
        ],
        [
            0.88,
            0.02747384603702704
        ],
        [
            0.89,
            0.026570133046143928
        ],
        [
            0.9,
            0.02740551639243178
        ],
        [
            0.91,
            0.02571808644685585
        ],
        [
            0.92,
            0.024790394657518623
        ],
        [
            0.93,
            0.023435028164067815
        ],
        [
            0.94,
            0.022561906943762207
        ],
        [
            0.95,
            0.02030607676137431
        ],
        [
            0.96,
            0.019050276915417545
        ],
        [
            0.97,
            0.017954914451127676
        ],
        [
            0.98,
            0.017804427136156945
        ],
        [
            0.99,
            0.01705881561996696
        ],
        [
            1.0,
            0.01251332665531611
        ]
    ],
    "256": [
        [
            0.01,
            0.1297302854926126
        ],
        [
            0.02,
            0.09116052584073779
        ],
        [
            0.03,
            0.06796530974721898
        ],
        [
            0.04,
            0.07639364853004509
        ],
        [
            0.05,
            0.07558322755277117
        ],
        [
            0.06,
            0.06739331906979107
        ],
        [
            0.07,
            0.07894681313423685
        ],
        [
            0.08,
            0.07101020093857784
        ],
        [
            0.09,
            0.06367722343618873
        ],
        [
            0.1,
            0.07321673646281358
        ],
        [
            0.11,
            0.06045529322194981
        ],
        [
            0.12,
            0.06079703789055481
        ],
        [
            0.13,
            0.05220675633484471
        ],
        [
            0.14,
            0.05632859994693271
        ],
        [
            0.15,
            0.054021314189690015
        ],
        [
            0.16,
            0.06677211718754074
        ],
        [
            0.17,
            0.06361186977344681
        ],
        [
            0.18,
            0.05223666991881691
        ],
        [
            0.19,
            0.04987625725266256
        ],
        [
            0.2,
            0.048452655180395994
        ],
        [
            0.21,
            0.062453300530328854
        ],
        [
            0.22,
            0.06581181176896102
        ],
        [
            0.23,
            0.05747199560693804
        ],
        [
            0.24,
            0.06053853342092382
        ],
        [
            0.25,
            0.05807672637843201
        ],
        [
            0.26,
            0.05141920699176676
        ],
        [
            0.27,
            0.06178458237155626
        ],
        [
            0.28,
            0.050290329050105304
        ],
        [
            0.29,
            0.04911501063458905
        ],
        [
            0.3,
            0.05296733078937156
        ],
        [
            0.31,
            0.04281704678067455
        ],
        [
            0.32,
            0.044459573719408715
        ],
        [
            0.33,
            0.04921067137790367
        ],
        [
            0.34,
            0.04892688236144467
        ],
        [
            0.35,
            0.04840022429274781
        ],
        [
            0.36,
            0.04815822758151207
        ],
        [
            0.37,
            0.04661309162215451
        ],
        [
            0.38,
            0.0474736518364774
        ],
        [
            0.39,
            0.049670882371629484
        ],
        [
            0.4,
            0.042373897158420895
        ],
        [
            0.41,
            0.052363532173886874
        ],
        [
            0.42,
            0.040253691591714075
        ],
        [
            0.43,
            0.048617459179392745
        ],
        [
            0.44,
            0.04283788087615687
        ],
        [
            0.45,
            0.04383748518468016
        ],
        [
            0.46,
            0.04732067745882851
        ],
        [
            0.47,
            0.039958291941633355
        ],
        [
            0.48,
            0.0378309030741626
        ],
        [
            0.49,
            0.04487334356807681
        ],
        [
            0.5,
            0.03852959168370325
        ],
        [
            0.51,
            0.04123065681930499
        ],
        [
            0.52,
            0.0357338981682029
        ],
        [
            0.53,
            0.04055716846709547
        ],
        [
            0.54,
            0.03823803284295819
        ],
        [
            0.55,
            0.037216104464453593
        ],
        [
            0.56,
            0.04076515575152907
        ],
        [
            0.57,
            0.03424305362422218
        ],
        [
            0.58,
            0.03412320586215579
        ],
        [
            0.59,
            0.0344971743180133
        ],
        [
            0.6,
            0.03568952083861616
        ],
        [
            0.61,
            0.03344683050046855
        ],
        [
            0.62,
            0.03583462404992424
        ],
        [
            0.63,
            0.036212946897740586
        ],
        [
            0.64,
            0.03556098634448003
        ],
        [
            0.65,
            0.03588339285627141
        ],
        [
            0.66,
            0.03747092325331602
        ],
        [
            0.67,
            0.03358723262636051
        ],
        [
            0.68,
            0.03472264953016477
        ],
        [
            0.69,
            0.03164082552993783
        ],
        [
            0.7,
            0.03354564382894861
        ],
        [
            0.71,
            0.03349879378593616
        ],
        [
            0.72,
            0.031018971341351505
        ],
        [
            0.73,
            0.032103817079837255
        ],
        [
            0.74,
            0.033707721923339616
        ],
        [
            0.75,
            0.02995763204885028
        ],
        [
            0.76,
            0.030620873082865496
        ],
        [
            0.77,
            0.030651052806595188
        ],
        [
            0.78,
            0.02902396384664671
        ],
        [
            0.79,
            0.03123119996395369
        ],
        [
            0.8,
            0.029176003398635485
        ],
        [
            0.81,
            0.02949030561751105
        ],
        [
            0.82,
            0.030293963105257244
        ],
        [
            0.83,
            0.031053768602924022
        ],
        [
            0.84,
            0.030625543461776764
        ],
        [
            0.85,
            0.029989460488868178
        ],
        [
            0.86,
            0.027813715628563208
        ],
        [
            0.87,
            0.028580394262898937
        ],
        [
            0.88,
            0.029854390052242677
        ],
        [
            0.89,
            0.028112643081016204
        ],
        [
            0.9,
            0.02684820314532918
        ],
        [
            0.91,
            0.024638926261138006
        ],
        [
            0.92,
            0.025040624825537122
        ],
        [
            0.93,
            0.023688133507837095
        ],
        [
            0.94,
            0.02160301273413874
        ],
        [
            0.95,
            0.021910451920872445
        ],
        [
            0.96,
            0.018194871803854786
        ],
        [
            0.97,
            0.01844681598734481
        ],
        [
            0.98,
            0.01787989693490632
        ],
        [
            0.99,
            0.017304574571950015
        ],
        [
            1.0,
            0.012451523452454673
        ]
    ]
}