{
    "2": [
        [
            0.01,
            0.08779440247593294
        ],
        [
            0.02,
            0.19714619623962715
        ],
        [
            0.03,
            0.11386358431191555
        ],
        [
            0.04,
            0.13268218394851738
        ],
        [
            0.05,
            0.27366056677548367
        ],
        [
            0.06,
            0.2605261069126758
        ],
        [
            0.07,
            0.3091928699835265
        ],
        [
            0.08,
            0.16353572849852205
        ],
        [
            0.09,
            0.21481260983514244
        ],
        [
            0.1,
            0.18882300772407087
        ],
        [
            0.11,
            0.18659375215247628
        ],
        [
            0.12,
            0.2508966635861848
        ],
        [
            0.13,
            0.1768520237832635
        ],
        [
            0.14,
            0.2365619177051883
        ],
        [
            0.15,
            0.19579039422278008
        ],
        [
            0.16,
            0.20259776075580485
        ],
        [
            0.17,
            0.17295550554227596
        ],
        [
            0.18,
            0.18730400943308867
        ],
        [
            0.19,
            0.20701622018698182
        ],
        [
            0.2,
            0.1649513399698274
        ],
        [
            0.21,
            0.16429376685663782
        ],
        [
            0.22,
            0.23910071869249874
        ],
        [
            0.23,
            0.19951804877260543
        ],
        [
            0.24,
            0.20175141066128768
        ],
        [
            0.25,
            0.19308886731461422
        ],
        [
            0.26,
            0.1870814278858304
        ],
        [
            0.27,
            0.2187684393818993
        ],
        [
            0.28,
            0.23593539227290694
        ],
        [
            0.29,
            0.17938260794320576
        ],
        [
            0.3,
            0.20906415275188917
        ],
        [
            0.31,
            0.20015107212971456
        ],
        [
            0.32,
            0.19239183040396393
        ],
        [
            0.33,
            0.17080484146845332
        ],
        [
            0.34,
            0.21094351577914694
        ],
        [
            0.35,
            0.1904064079734518
        ],
        [
            0.36,
            0.20435650708944791
        ],
        [
            0.37,
            0.20559059375666053
        ],
        [
            0.38,
            0.18754861670794584
        ],
        [
            0.39,
            0.1872836544066497
        ],
        [
            0.4,
            0.20188928356000818
        ],
        [
            0.41,
            0.18384804517497116
        ],
        [
            0.42,
            0.18969617902029687
        ],
        [
            0.43,
            0.20102105606267137
        ],
        [
            0.44,
            0.20698547522874752
        ],
        [
            0.45,
            0.2181023344932504
        ],
        [
            0.46,
            0.1893283805141708
        ],
        [
            0.47,
            0.18608773797284534
        ],
        [
            0.48,
            0.2011620866034056
        ],
        [
            0.49,
            0.184940728301222
        ],
        [
            0.5,
            0.16681415958422735
        ],
        [
            0.51,
            0.1969226444740578
        ],
        [
            0.52,
            0.18188520155450097
        ],
        [
            0.53,
            0.20015051315792207
        ],
        [
            0.54,
            0.15557028949508467
        ],
        [
            0.55,
            0.1557211401046057
        ],
        [
            0.56,
            0.17251112650289438
        ],
        [
            0.57,
            0.17065615662366443
        ],
        [
            0.58,
            0.17947666752880273
        ],
        [
            0.59,
            0.1949694793919193
        ],
        [
            0.6,
            0.14146681270360723
        ],
        [
            0.61,
            0.18326018172195133
        ],
        [
            0.62,
            0.1662034853886681
        ],
        [
            0.63,
            0.16873336994169386
        ],
        [
            0.64,
            0.1919570993652491
        ],
        [
            0.65,
            0.18806457114223085
        ],
        [
            0.66,
            0.1521313513812268
        ],
        [
            0.67,
            0.16602809619694642
        ],
        [
            0.68,
            0.18459110425629133
        ],
        [
            0.69,
            0.18824214279029267
        ],
        [
            0.7,
            0.19220806367435045
        ],
        [
            0.71,
            0.17054686880943284
        ],
        [
            0.72,
            0.1725633163305918
        ],
        [
            0.73,
            0.18920997222109492
        ],
        [
            0.74,
            0.17294723407124335
        ],
        [
            0.75,
            0.17205964474846966
        ],
        [
            0.76,
            0.168822969755809
        ],
        [
            0.77,
            0.15204500434595136
        ],
        [
            0.78,
            0.15949276721750977
        ],
        [
            0.79,
            0.1844586649932004
        ],
        [
            0.8,
            0.1632714068158939
        ],
        [
            0.81,
            0.17271992284022836
        ],
        [
            0.82,
            0.13937301824054588
        ],
        [
            0.83,
            0.16344009392366135
        ],
        [
            0.84,
            0.134829182696005
        ],
        [
            0.85,
            0.1445828619479663
        ],
        [
            0.86,
            0.1362128371992182
        ],
        [
            0.87,
            0.16552000989008056
        ],
        [
            0.88,
            0.16156973812526929
        ],
        [
            0.89,
            0.15074309325600446
        ],
        [
            0.9,
            0.13616447603184897
        ],
        [
            0.91,
            0.13658986907521645
        ],
        [
            0.92,
            0.1139475421319168
        ],
        [
            0.93,
            0.1359296005684477
        ],
        [
            0.94,
            0.16420514242631107
        ],
        [
            0.95,
            0.1538176189940825
        ],
        [
            0.96,
            0.15151766934165106
        ],
        [
            0.97,
            0.1415543908494661
        ],
        [
            0.98,
            0.10856893001687842
        ],
        [
            0.99,
            0.07410862522802367
        ],
        [
            1.0,
            0.022044642515583284
        ]
    ],
    "4": [
        [
            0.01,
            0.07760251333504223
        ],
        [
            0.02,
            0.06302226907767466
        ],
        [
            0.03,
            0.12157157262413876
        ],
        [
            0.04,
            0.06291865928712186
        ],
        [
            0.05,
            0.6520416103791912
        ],
        [
            0.06,
            0.23014289077120276
        ],
        [
            0.07,
            0.2633859996991805
        ],
        [
            0.08,
            0.5722192032252365
        ],
        [
            0.09,
            0.5051933791798957
        ],
        [
            0.1,
            0.19604524795408795
        ],
        [
            0.11,
            0.29178172065529645
        ],
        [
            0.12,
            0.7569686800041684
        ],
        [
            0.13,
            0.16053252900565199
        ],
        [
            0.14,
            0.5515749431502336
        ],
        [
            0.15,
            0.6589367320623508
        ],
        [
            0.16,
            0.5203995740785949
        ],
        [
            0.17,
            0.395597985916131
        ],
        [
            0.18,
            0.35550696361430245
        ],
        [
            0.19,
            0.41028995549028024
        ],
        [
            0.2,
            0.5749399291937789
        ],
        [
            0.21,
            0.33794432926731294
        ],
        [
            0.22,
            0.47360242255884033
        ],
        [
            0.23,
            0.46610704220532173
        ],
        [
            0.24,
            0.2608865360504519
        ],
        [
            0.25,
            0.4662918498074908
        ],
        [
            0.26,
            0.40861383461257994
        ],
        [
            0.27,
            0.4008620725453386
        ],
        [
            0.28,
            0.31415680260642403
        ],
        [
            0.29,
            0.3958445484037517
        ],
        [
            0.3,
            0.5098358326723134
        ],
        [
            0.31,
            0.3779650292060152
        ],
        [
            0.32,
            0.5129919788743414
        ],
        [
            0.33,
            0.4429236711141569
        ],
        [
            0.34,
            0.3256190992676335
        ],
        [
            0.35,
            0.45902119023609145
        ],
        [
            0.36,
            0.3869278151815968
        ],
        [
            0.37,
            0.41838009258493025
        ],
        [
            0.38,
            0.4218112200536939
        ],
        [
            0.39,
            0.45947860232635945
        ],
        [
            0.4,
            0.41393728369076044
        ],
        [
            0.41,
            0.3876724753326911
        ],
        [
            0.42,
            0.2920802019540553
        ],
        [
            0.43,
            0.4161934179818296
        ],
        [
            0.44,
            0.3902623376143101
        ],
        [
            0.45,
            0.3603359491446263
        ],
        [
            0.46,
            0.34554423998206313
        ],
        [
            0.47,
            0.31605518449777625
        ],
        [
            0.48,
            0.29740928009718526
        ],
        [
            0.49,
            0.27031888537725157
        ],
        [
            0.5,
            0.2764020916452512
        ],
        [
            0.51,
            0.32711310793084125
        ],
        [
            0.52,
            0.2943229254323903
        ],
        [
            0.53,
            0.2530354819955338
        ],
        [
            0.54,
            0.35074607481488185
        ],
        [
            0.55,
            0.32613866935741737
        ],
        [
            0.56,
            0.2718744735112612
        ],
        [
            0.57,
            0.3350276119039545
        ],
        [
            0.58,
            0.30308072626459986
        ],
        [
            0.59,
            0.2611976290440542
        ],
        [
            0.6,
            0.27520971646850345
        ],
        [
            0.61,
            0.28541982361578383
        ],
        [
            0.62,
            0.3021050307529692
        ],
        [
            0.63,
            0.29461923481285895
        ],
        [
            0.64,
            0.35468414501485634
        ],
        [
            0.65,
            0.3185848037594566
        ],
        [
            0.66,
            0.30177528599370124
        ],
        [
            0.67,
            0.32092292837421293
        ],
        [
            0.68,
            0.32658773185875895
        ],
        [
            0.69,
            0.23620600178963164
        ],
        [
            0.7,
            0.29199780796151065
        ],
        [
            0.71,
            0.30026082713676866
        ],
        [
            0.72,
            0.2379513670658484
        ],
        [
            0.73,
            0.36004178447774665
        ],
        [
            0.74,
            0.2929998859166597
        ],
        [
            0.75,
            0.30101466913854874
        ],
        [
            0.76,
            0.2917135205620414
        ],
        [
            0.77,
            0.2762051411495439
        ],
        [
            0.78,
            0.31792283531845483
        ],
        [
            0.79,
            0.2983376305805351
        ],
        [
            0.8,
            0.25896386276938815
        ],
        [
            0.81,
            0.2861602056858969
        ],
        [
            0.82,
            0.23691341175517167
        ],
        [
            0.83,
            0.2097784926584328
        ],
        [
            0.84,
            0.21068859395868803
        ],
        [
            0.85,
            0.20120125062214494
        ],
        [
            0.86,
            0.21998868797824112
        ],
        [
            0.87,
            0.20320724066136314
        ],
        [
            0.88,
            0.24209407883097864
        ],
        [
            0.89,
            0.25338369650724424
        ],
        [
            0.9,
            0.1580041066708957
        ],
        [
            0.91,
            0.18087346045504343
        ],
        [
            0.92,
            0.13355317709000725
        ],
        [
            0.93,
            0.18061869681030226
        ],
        [
            0.94,
            0.16568422384538686
        ],
        [
            0.95,
            0.18674727939613858
        ],
        [
            0.96,
            0.15224185608740817
        ],
        [
            0.97,
            0.11761585837283585
        ],
        [
            0.98,
            0.07797884184117837
        ],
        [
            0.99,
            0.0865950395418425
        ],
        [
            1.0,
            0.019819482901011078
        ]
    ],
    "6": [
        [
            0.01,
            0.14339771584642555
        ],
        [
            0.02,
            0.21998621956824227
        ],
        [
            0.03,
            0.10736454270052927
        ],
        [
            0.04,
            0.15053188527722222
        ],
        [
            0.05,
            0.3074828756283755
        ],
        [
            0.06,
            0.2959173457793435
        ],
        [
            0.07,
            0.2943234214598021
        ],
        [
            0.08,
            0.13128268849718128
        ],
        [
            0.09,
            0.11301857593157942
        ],
        [
            0.1,
            0.491445440363627
        ],
        [
            0.11,
            0.49144137964527074
        ],
        [
            0.12,
            0.20338525892711318
        ],
        [
            0.13,
            0.0794944973619024
        ],
        [
            0.14,
            0.12665935030903416
        ],
        [
            0.15,
            0.12090409823921089
        ],
        [
            0.16,
            0.2964283828831915
        ],
        [
            0.17,
            0.12447396363071603
        ],
        [
            0.18,
            0.38503805322390916
        ],
        [
            0.19,
            0.33961939326236806
        ],
        [
            0.2,
            0.20155474323177117
        ],
        [
            0.21,
            0.4096849911242013
        ],
        [
            0.22,
            0.19292828046834104
        ],
        [
            0.23,
            0.27213200470832793
        ],
        [
            0.24,
            0.3914941557277241
        ],
        [
            0.25,
            0.4500718719157895
        ],
        [
            0.26,
            0.317590985120782
        ],
        [
            0.27,
            0.358724412464032
        ],
        [
            0.28,
            0.3573311760028133
        ],
        [
            0.29,
            0.42685490739940085
        ],
        [
            0.3,
            0.3616794059562918
        ],
        [
            0.31,
            0.3451922132819477
        ],
        [
            0.32,
            0.34557159501257234
        ],
        [
            0.33,
            0.31630061709791757
        ],
        [
            0.34,
            0.4254419384729424
        ],
        [
            0.35,
            0.29273289263129054
        ],
        [
            0.36,
            0.3907341433911158
        ],
        [
            0.37,
            0.3615616243843498
        ],
        [
            0.38,
            0.30413714259752866
        ],
        [
            0.39,
            0.34972615923254674
        ],
        [
            0.4,
            0.3795828988266093
        ],
        [
            0.41,
            0.3274649655294726
        ],
        [
            0.42,
            0.4095310955662693
        ],
        [
            0.43,
            0.37782923412253056
        ],
        [
            0.44,
            0.2298081984861078
        ],
        [
            0.45,
            0.28246504710758386
        ],
        [
            0.46,
            0.23477612030844905
        ],
        [
            0.47,
            0.29578055223853544
        ],
        [
            0.48,
            0.3490626927404369
        ],
        [
            0.49,
            0.2984908564983247
        ],
        [
            0.5,
            0.22563197598241777
        ],
        [
            0.51,
            0.2967050128543359
        ],
        [
            0.52,
            0.27047955971938337
        ],
        [
            0.53,
            0.3459808047715203
        ],
        [
            0.54,
            0.27953539235264385
        ],
        [
            0.55,
            0.1417082475929851
        ],
        [
            0.56,
            0.15795711655227002
        ],
        [
            0.57,
            0.16849669871739767
        ],
        [
            0.58,
            0.24409447134139478
        ],
        [
            0.59,
            0.3456349679925332
        ],
        [
            0.6,
            0.16340894692390426
        ],
        [
            0.61,
            0.07583680075389802
        ],
        [
            0.62,
            0.07096150189005669
        ],
        [
            0.63,
            0.11394041933847943
        ],
        [
            0.64,
            0.2754896924093973
        ],
        [
            0.65,
            0.13427439081937528
        ],
        [
            0.66,
            0.1147314565802017
        ],
        [
            0.67,
            0.1628970038975667
        ],
        [
            0.68,
            0.2151997818645036
        ],
        [
            0.69,
            0.22533013830207374
        ],
        [
            0.7,
            0.1509324615247449
        ],
        [
            0.71,
            0.15990885269999794
        ],
        [
            0.72,
            0.19890938752722334
        ],
        [
            0.73,
            0.1332149016247029
        ],
        [
            0.74,
            0.14953203466285195
        ],
        [
            0.75,
            0.1069506468905177
        ],
        [
            0.76,
            0.21279159138733303
        ],
        [
            0.77,
            0.20103650741207674
        ],
        [
            0.78,
            0.17363731343426905
        ],
        [
            0.79,
            0.13144196226913005
        ],
        [
            0.8,
            0.22031127043714024
        ],
        [
            0.81,
            0.1661046886966617
        ],
        [
            0.82,
            0.15532697985128843
        ],
        [
            0.83,
            0.22307896681059255
        ],
        [
            0.84,
            0.20353033261701417
        ],
        [
            0.85,
            0.12930386177709075
        ],
        [
            0.86,
            0.15348744355789884
        ],
        [
            0.87,
            0.1929890387461491
        ],
        [
            0.88,
            0.1516576591026374
        ],
        [
            0.89,
            0.14034460453391695
        ],
        [
            0.9,
            0.13411833854583488
        ],
        [
            0.91,
            0.15665922736258467
        ],
        [
            0.92,
            0.1798694556323346
        ],
        [
            0.93,
            0.12452722990442718
        ],
        [
            0.94,
            0.18331341600667786
        ],
        [
            0.95,
            0.18744645393492956
        ],
        [
            0.96,
            0.11498588456257222
        ],
        [
            0.97,
            0.0490353597473649
        ],
        [
            0.98,
            0.06655714725539032
        ],
        [
            0.99,
            0.04553113050014758
        ],
        [
            1.0,
            0.017166555203558354
        ]
    ]
}