{
    "16": [
        [
            0.01,
            0.08155615072553475
        ],
        [
            0.02,
            0.038974976811852406
        ],
        [
            0.03,
            0.03620335452551864
        ],
        [
            0.04,
            0.03100865442622402
        ],
        [
            0.05,
            0.027253908043103615
        ],
        [
            0.06,
            0.029037806507402085
        ],
        [
            0.07,
            0.023689361086469466
        ],
        [
            0.08,
            0.027754469532948637
        ],
        [
            0.09,
            0.028680973563181958
        ],
        [
            0.1,
            0.025279912968307134
        ],
        [
            0.11,
            0.02739059655271076
        ],
        [
            0.12,
            0.022288712996082496
        ],
        [
            0.13,
            0.02077268814244924
        ],
        [
            0.14,
            0.02168464010465113
        ],
        [
            0.15,
            0.021626397408738677
        ],
        [
            0.16,
            0.021532331164138892
        ],
        [
            0.17,
            0.022220880981087345
        ],
        [
            0.18,
            0.019260805551658086
        ],
        [
            0.19,
            0.017373140450940024
        ],
        [
            0.2,
            0.020129234461287972
        ],
        [
            0.21,
            0.02198426604208623
        ],
        [
            0.22,
            0.01681808082106334
        ],
        [
            0.23,
            0.023211789431514907
        ],
        [
            0.24,
            0.01810539728788504
        ],
        [
            0.25,
            0.020477227994440277
        ],
        [
            0.26,
            0.018815568585594713
        ],
        [
            0.27,
            0.02119025343638381
        ],
        [
            0.28,
            0.0172080523069795
        ],
        [
            0.29,
            0.017253800531529813
        ],
        [
            0.3,
            0.018090251892618547
        ],
        [
            0.31,
            0.017443918892700076
        ],
        [
            0.32,
            0.018784608942926582
        ],
        [
            0.33,
            0.01745065169050284
        ],
        [
            0.34,
            0.017960206756513268
        ],
        [
            0.35,
            0.016799938967936755
        ],
        [
            0.36,
            0.0172234398520451
        ],
        [
            0.37,
            0.01824795225939007
        ],
        [
            0.38,
            0.01708745568877254
        ],
        [
            0.39,
            0.016920672992277064
        ],
        [
            0.4,
            0.01881488120830092
        ],
        [
            0.41,
            0.01655012387624504
        ],
        [
            0.42,
            0.018520801413369883
        ],
        [
            0.43,
            0.0196514704199063
        ],
        [
            0.44,
            0.018296315440037167
        ],
        [
            0.45,
            0.016974549532377804
        ],
        [
            0.46,
            0.01862020200714791
        ],
        [
            0.47,
            0.018276352863738358
        ],
        [
            0.48,
            0.01821323554673505
        ],
        [
            0.49,
            0.017030487382435067
        ],
        [
            0.5,
            0.016839098042455862
        ],
        [
            0.51,
            0.01715835422191553
        ],
        [
            0.52,
            0.017132659618099753
        ],
        [
            0.53,
            0.014581026778348386
        ],
        [
            0.54,
            0.016569791005196094
        ],
        [
            0.55,
            0.0170178652516311
        ],
        [
            0.56,
            0.014947406805782526
        ],
        [
            0.57,
            0.015100218634942044
        ],
        [
            0.58,
            0.015826998803798738
        ],
        [
            0.59,
            0.014815018767363
        ],
        [
            0.6,
            0.015599475093409535
        ],
        [
            0.61,
            0.01478830635048183
        ],
        [
            0.62,
            0.014761270464561702
        ],
        [
            0.63,
            0.015084986788266233
        ],
        [
            0.64,
            0.01629034887637809
        ],
        [
            0.65,
            0.015660438803301386
        ],
        [
            0.66,
            0.014281458150895265
        ],
        [
            0.67,
            0.014282407222463466
        ],
        [
            0.68,
            0.015156079939514656
        ],
        [
            0.69,
            0.014255893491025963
        ],
        [
            0.7,
            0.013853775978776545
        ],
        [
            0.71,
            0.014366051332694984
        ],
        [
            0.72,
            0.014784263316545948
        ],
        [
            0.73,
            0.014793943796254507
        ],
        [
            0.74,
            0.014758009606202565
        ],
        [
            0.75,
            0.013305265343788463
        ],
        [
            0.76,
            0.014871434113898704
        ],
        [
            0.77,
            0.013018692521404657
        ],
        [
            0.78,
            0.01228714065393197
        ],
        [
            0.79,
            0.012659767594871857
        ],
        [
            0.8,
            0.012171893633099088
        ],
        [
            0.81,
            0.012477513847881518
        ],
        [
            0.82,
            0.011803759795718408
        ],
        [
            0.83,
            0.01187961661492989
        ],
        [
            0.84,
            0.011757342084597744
        ],
        [
            0.85,
            0.011446199321725746
        ],
        [
            0.86,
            0.011264842218899654
        ],
        [
            0.87,
            0.011153813114247374
        ],
        [
            0.88,
            0.011551185511598387
        ],
        [
            0.89,
            0.011367941380823633
        ],
        [
            0.9,
            0.011083462247192059
        ],
        [
            0.91,
            0.01121911268226418
        ],
        [
            0.92,
            0.011058586372225006
        ],
        [
            0.93,
            0.011369114725841597
        ],
        [
            0.94,
            0.011268540404692174
        ],
        [
            0.95,
            0.01119127418719424
        ],
        [
            0.96,
            0.01095062447530262
        ],
        [
            0.97,
            0.010791809727058588
        ],
        [
            0.98,
            0.010771495754068371
        ],
        [
            0.99,
            0.010636872727946929
        ],
        [
            1.0,
            0.010228118216305891
        ]
    ],
    "64": [
        [
            0.01,
            0.08199431863862387
        ],
        [
            0.02,
            0.03993101786236898
        ],
        [
            0.03,
            0.030953764060541955
        ],
        [
            0.04,
            0.03017679268426682
        ],
        [
            0.05,
            0.02911025081807703
        ],
        [
            0.06,
            0.026687402393263802
        ],
        [
            0.07,
            0.02681718201949131
        ],
        [
            0.08,
            0.024906320747651662
        ],
        [
            0.09,
            0.0230086751030203
        ],
        [
            0.1,
            0.019686181183138134
        ],
        [
            0.11,
            0.017954196933314296
        ],
        [
            0.12,
            0.018822842088283786
        ],
        [
            0.13,
            0.017567237045795756
        ],
        [
            0.14,
            0.018059806291544054
        ],
        [
            0.15,
            0.019213016246313316
        ],
        [
            0.16,
            0.017518745295236407
        ],
        [
            0.17,
            0.015488516396728241
        ],
        [
            0.18,
            0.016205789001276054
        ],
        [
            0.19,
            0.017320020743748905
        ],
        [
            0.2,
            0.015954389556288053
        ],
        [
            0.21,
            0.01576667526060278
        ],
        [
            0.22,
            0.015966504718008454
        ],
        [
            0.23,
            0.015924607953019712
        ],
        [
            0.24,
            0.015477134782716688
        ],
        [
            0.25,
            0.016537490223014303
        ],
        [
            0.26,
            0.017576017194947856
        ],
        [
            0.27,
            0.01738202302590875
        ],
        [
            0.28,
            0.015450740387552297
        ],
        [
            0.29,
            0.014968260116074507
        ],
        [
            0.3,
            0.013707518113765232
        ],
        [
            0.31,
            0.014685457474814902
        ],
        [
            0.32,
            0.015899782124487595
        ],
        [
            0.33,
            0.014477655136792411
        ],
        [
            0.34,
            0.012850031959505829
        ],
        [
            0.35,
            0.013536696255750132
        ],
        [
            0.36,
            0.013482106188258023
        ],
        [
            0.37,
            0.014440408037322425
        ],
        [
            0.38,
            0.015423475761542979
        ],
        [
            0.39,
            0.013891246157691866
        ],
        [
            0.4,
            0.014981740087452082
        ],
        [
            0.41,
            0.013873827659560984
        ],
        [
            0.42,
            0.014363009986405623
        ],
        [
            0.43,
            0.015195769859851351
        ],
        [
            0.44,
            0.014200721826684843
        ],
        [
            0.45,
            0.014323256331251415
        ],
        [
            0.46,
            0.016345819473077824
        ],
        [
            0.47,
            0.014150953419150066
        ],
        [
            0.48,
            0.014668284231996424
        ],
        [
            0.49,
            0.014950834022948119
        ],
        [
            0.5,
            0.01400363550377405
        ],
        [
            0.51,
            0.014688531961549567
        ],
        [
            0.52,
            0.013917321336907809
        ],
        [
            0.53,
            0.013942347740503347
        ],
        [
            0.54,
            0.013215448523587227
        ],
        [
            0.55,
            0.01350194628936162
        ],
        [
            0.56,
            0.012974248417509007
        ],
        [
            0.57,
            0.013249137656366239
        ],
        [
            0.58,
            0.013246777893257369
        ],
        [
            0.59,
            0.013201093396082449
        ],
        [
            0.6,
            0.012720722453398293
        ],
        [
            0.61,
            0.012360654058971679
        ],
        [
            0.62,
            0.012809020807290478
        ],
        [
            0.63,
            0.011777123235388202
        ],
        [
            0.64,
            0.011683018245393575
        ],
        [
            0.65,
            0.01180718649120919
        ],
        [
            0.66,
            0.01237698149421901
        ],
        [
            0.67,
            0.011596014963246533
        ],
        [
            0.68,
            0.01232761182435396
        ],
        [
            0.69,
            0.012709000254442262
        ],
        [
            0.7,
            0.012467217671093064
        ],
        [
            0.71,
            0.011253249042127057
        ],
        [
            0.72,
            0.011277020188695001
        ],
        [
            0.73,
            0.010946998869333861
        ],
        [
            0.74,
            0.010796646928230492
        ],
        [
            0.75,
            0.01087597836834204
        ],
        [
            0.76,
            0.010494395572376492
        ],
        [
            0.77,
            0.010941403326402315
        ],
        [
            0.78,
            0.010674780311848568
        ],
        [
            0.79,
            0.010676196353880067
        ],
        [
            0.8,
            0.010519703183271887
        ],
        [
            0.81,
            0.010626358764904526
        ],
        [
            0.82,
            0.010455288569129764
        ],
        [
            0.83,
            0.010504808576237186
        ],
        [
            0.84,
            0.010215351216110165
        ],
        [
            0.85,
            0.010099392283371459
        ],
        [
            0.86,
            0.010169506488778228
        ],
        [
            0.87,
            0.010054277377911576
        ],
        [
            0.88,
            0.009944020777151646
        ],
        [
            0.89,
            0.009802762426245967
        ],
        [
            0.9,
            0.009996386120182714
        ],
        [
            0.91,
            0.009944703238582632
        ],
        [
            0.92,
            0.009923477308179865
        ],
        [
            0.93,
            0.009975799065211703
        ],
        [
            0.94,
            0.009994085657100912
        ],
        [
            0.95,
            0.010049919224415222
        ],
        [
            0.96,
            0.01005053401717942
        ],
        [
            0.97,
            0.010102345345945996
        ],
        [
            0.98,
            0.010121988266326418
        ],
        [
            0.99,
            0.010163371849328934
        ],
        [
            1.0,
            0.010123845465492947
        ]
    ],
    "256": [
        [
            0.01,
            0.08193241256778752
        ],
        [
            0.02,
            0.0417979502186734
        ],
        [
            0.03,
            0.03228903621448117
        ],
        [
            0.04,
            0.030372819371171516
        ],
        [
            0.05,
            0.0294717333067185
        ],
        [
            0.06,
            0.024699461120899466
        ],
        [
            0.07,
            0.024341002194546504
        ],
        [
            0.08,
            0.020239340962190818
        ],
        [
            0.09,
            0.019887257320496
        ],
        [
            0.1,
            0.021442374353589297
        ],
        [
            0.11,
            0.01844596079830192
        ],
        [
            0.12,
            0.01906487895047708
        ],
        [
            0.13,
            0.016967689498424816
        ],
        [
            0.14,
            0.018927156384990613
        ],
        [
            0.15,
            0.017274513167858014
        ],
        [
            0.16,
            0.01708679429794798
        ],
        [
            0.17,
            0.01648269481761513
        ],
        [
            0.18,
            0.016554360625447188
        ],
        [
            0.19,
            0.016497268005315032
        ],
        [
            0.2,
            0.018356217159800892
        ],
        [
            0.21,
            0.014985037998162195
        ],
        [
            0.22,
            0.014408820390602182
        ],
        [
            0.23,
            0.014409311604377207
        ],
        [
            0.24,
            0.01645685219885537
        ],
        [
            0.25,
            0.01645827357795853
        ],
        [
            0.26,
            0.015109099337049573
        ],
        [
            0.27,
            0.015576475985293405
        ],
        [
            0.28,
            0.015696719528975472
        ],
        [
            0.29,
            0.013673992605824178
        ],
        [
            0.3,
            0.013917634641785989
        ],
        [
            0.31,
            0.013059525380398713
        ],
        [
            0.32,
            0.014339208926559373
        ],
        [
            0.33,
            0.013841993782258791
        ],
        [
            0.34,
            0.012885546433472086
        ],
        [
            0.35,
            0.013049516873544314
        ],
        [
            0.36,
            0.012356445288351864
        ],
        [
            0.37,
            0.013506280569249506
        ],
        [
            0.38,
            0.013668509471069316
        ],
        [
            0.39,
            0.013399965044223593
        ],
        [
            0.4,
            0.012805416120972885
        ],
        [
            0.41,
            0.012920135177111929
        ],
        [
            0.42,
            0.014115276776098952
        ],
        [
            0.43,
            0.013359399992300834
        ],
        [
            0.44,
            0.013059771549686182
        ],
        [
            0.45,
            0.01356390590075448
        ],
        [
            0.46,
            0.01315563230414468
        ],
        [
            0.47,
            0.014032216370307174
        ],
        [
            0.48,
            0.013668797409334939
        ],
        [
            0.49,
            0.01333570158343593
        ],
        [
            0.5,
            0.013059500377440959
        ],
        [
            0.51,
            0.012943363878381747
        ],
        [
            0.52,
            0.013197301978280583
        ],
        [
            0.53,
            0.012423893661569917
        ],
        [
            0.54,
            0.012223304894213756
        ],
        [
            0.55,
            0.011477498977178657
        ],
        [
            0.56,
            0.011017717139029704
        ],
        [
            0.57,
            0.011548108733814781
        ],
        [
            0.58,
            0.011783380041551205
        ],
        [
            0.59,
            0.011811591858952487
        ],
        [
            0.6,
            0.012324352770457715
        ],
        [
            0.61,
            0.011859963238375546
        ],
        [
            0.62,
            0.011786948326507885
        ],
        [
            0.63,
            0.011365687471350557
        ],
        [
            0.64,
            0.011082568150872227
        ],
        [
            0.65,
            0.011339316361657557
        ],
        [
            0.66,
            0.011197461064204961
        ],
        [
            0.67,
            0.011419795749099607
        ],
        [
            0.68,
            0.010896208976098377
        ],
        [
            0.69,
            0.010815649785838597
        ],
        [
            0.7,
            0.010760013792177399
        ],
        [
            0.71,
            0.010463008200741919
        ],
        [
            0.72,
            0.01046923154139455
        ],
        [
            0.73,
            0.010330443500069427
        ],
        [
            0.74,
            0.010223170599054764
        ],
        [
            0.75,
            0.010383120125958371
        ],
        [
            0.76,
            0.010210357412044978
        ],
        [
            0.77,
            0.010340971978947561
        ],
        [
            0.78,
            0.010018698275966074
        ],
        [
            0.79,
            0.009862623810094418
        ],
        [
            0.8,
            0.009918156718229675
        ],
        [
            0.81,
            0.010106484119002229
        ],
        [
            0.82,
            0.009679986210487105
        ],
        [
            0.83,
            0.009779338254747253
        ],
        [
            0.84,
            0.009629734126991056
        ],
        [
            0.85,
            0.00965890548064733
        ],
        [
            0.86,
            0.00966164857200619
        ],
        [
            0.87,
            0.009697866899030348
        ],
        [
            0.88,
            0.009656025533690145
        ],
        [
            0.89,
            0.009714881930431232
        ],
        [
            0.9,
            0.009758975876975289
        ],
        [
            0.91,
            0.009814381897681345
        ],
        [
            0.92,
            0.009878311758975602
        ],
        [
            0.93,
            0.009930183103541379
        ],
        [
            0.94,
            0.009981210592522487
        ],
        [
            0.95,
            0.010014830914797095
        ],
        [
            0.96,
            0.010074030491651032
        ],
        [
            0.97,
            0.010099685456205145
        ],
        [
            0.98,
            0.010147946781536342
        ],
        [
            0.99,
            0.010202862429537283
        ],
        [
            1.0,
            0.010134340229796441
        ]
    ]
}