{
    "2": [
        [
            0.01,
            0.06552919937092952
        ],
        [
            0.02,
            0.018889954216868197
        ],
        [
            0.03,
            0.016014134132508198
        ],
        [
            0.04,
            0.01603121015007891
        ],
        [
            0.05,
            0.0134011585747332
        ],
        [
            0.06,
            0.016053106001128265
        ],
        [
            0.07,
            0.018644379006715533
        ],
        [
            0.08,
            0.01260149375520684
        ],
        [
            0.09,
            0.012036830237692914
        ],
        [
            0.1,
            0.014414344066557783
        ],
        [
            0.11,
            0.015687813838800517
        ],
        [
            0.12,
            0.018373643851080416
        ],
        [
            0.13,
            0.012826033573984567
        ],
        [
            0.14,
            0.014100434390409169
        ],
        [
            0.15,
            0.009668923453614371
        ],
        [
            0.16,
            0.015239518249166818
        ],
        [
            0.17,
            0.013397731968282582
        ],
        [
            0.18,
            0.012376341210502923
        ],
        [
            0.19,
            0.016969391838686395
        ],
        [
            0.2,
            0.018051408246365093
        ],
        [
            0.21,
            0.013599302897415552
        ],
        [
            0.22,
            0.01594256091545244
        ],
        [
            0.23,
            0.015019347295445773
        ],
        [
            0.24,
            0.015597674418641922
        ],
        [
            0.25,
            0.016299972096910267
        ],
        [
            0.26,
            0.015189909553292311
        ],
        [
            0.27,
            0.015866862828672876
        ],
        [
            0.28,
            0.01935658757554304
        ],
        [
            0.29,
            0.016181837118969252
        ],
        [
            0.3,
            0.018307741797766335
        ],
        [
            0.31,
            0.016808392788166208
        ],
        [
            0.32,
            0.01610438683084123
        ],
        [
            0.33,
            0.016351609022566375
        ],
        [
            0.34,
            0.019659021566482773
        ],
        [
            0.35,
            0.023586614195236857
        ],
        [
            0.36,
            0.019953535153745042
        ],
        [
            0.37,
            0.017993132982062433
        ],
        [
            0.38,
            0.01999095698356966
        ],
        [
            0.39,
            0.015763918617075424
        ],
        [
            0.4,
            0.015502898675825216
        ],
        [
            0.41,
            0.02047046408622011
        ],
        [
            0.42,
            0.015872897066882264
        ],
        [
            0.43,
            0.019110350916683075
        ],
        [
            0.44,
            0.01737261214960465
        ],
        [
            0.45,
            0.020827595185013464
        ],
        [
            0.46,
            0.021902142338042937
        ],
        [
            0.47,
            0.02214929499791443
        ],
        [
            0.48,
            0.019847878586684648
        ],
        [
            0.49,
            0.020402228900591603
        ],
        [
            0.5,
            0.018419060638101722
        ],
        [
            0.51,
            0.0162642918575817
        ],
        [
            0.52,
            0.01814064240724576
        ],
        [
            0.53,
            0.02025155456281056
        ],
        [
            0.54,
            0.017784820605980273
        ],
        [
            0.55,
            0.019711008243475284
        ],
        [
            0.56,
            0.0205210269666576
        ],
        [
            0.57,
            0.01798675726055353
        ],
        [
            0.58,
            0.019516294522890366
        ],
        [
            0.59,
            0.016241079159094972
        ],
        [
            0.6,
            0.016362710787951446
        ],
        [
            0.61,
            0.016537196729627696
        ],
        [
            0.62,
            0.015926374013748513
        ],
        [
            0.63,
            0.015197440870887102
        ],
        [
            0.64,
            0.015391544873710868
        ],
        [
            0.65,
            0.014490321377688563
        ],
        [
            0.66,
            0.014782935758410453
        ],
        [
            0.67,
            0.013897703213630343
        ],
        [
            0.68,
            0.01329166432215352
        ],
        [
            0.69,
            0.012572541736437013
        ],
        [
            0.7,
            0.012546187949709253
        ],
        [
            0.71,
            0.012556147747237805
        ],
        [
            0.72,
            0.011638616277185182
        ],
        [
            0.73,
            0.012183008697523524
        ],
        [
            0.74,
            0.012067394292580335
        ],
        [
            0.75,
            0.011398314821438608
        ],
        [
            0.76,
            0.011505876346469534
        ],
        [
            0.77,
            0.010993740627511987
        ],
        [
            0.78,
            0.010844661805210726
        ],
        [
            0.79,
            0.010874612789314616
        ],
        [
            0.8,
            0.010526184240075205
        ],
        [
            0.81,
            0.010387539041954944
        ],
        [
            0.82,
            0.010010186175019382
        ],
        [
            0.83,
            0.010050038789509023
        ],
        [
            0.84,
            0.00991635181111347
        ],
        [
            0.85,
            0.010380804250826938
        ],
        [
            0.86,
            0.009850873526074902
        ],
        [
            0.87,
            0.010082149007142584
        ],
        [
            0.88,
            0.00972012543801801
        ],
        [
            0.89,
            0.010004819162246778
        ],
        [
            0.9,
            0.010073962045667413
        ],
        [
            0.91,
            0.009954507531940441
        ],
        [
            0.92,
            0.009696056174104283
        ],
        [
            0.93,
            0.00976318194857656
        ],
        [
            0.94,
            0.009895193148488251
        ],
        [
            0.95,
            0.01001458571397178
        ],
        [
            0.96,
            0.009914143096652292
        ],
        [
            0.97,
            0.00992601567869519
        ],
        [
            0.98,
            0.009983736908496042
        ],
        [
            0.99,
            0.009966973074989267
        ],
        [
            1.0,
            0.010023968511932017
        ]
    ],
    "4": [
        [
            0.01,
            0.056941715613721404
        ],
        [
            0.02,
            0.02207902072881603
        ],
        [
            0.03,
            0.031887884950948145
        ],
        [
            0.04,
            0.013110219592796228
        ],
        [
            0.05,
            0.01563677476586391
        ],
        [
            0.06,
            0.014049195456605178
        ],
        [
            0.07,
            0.024520750473155974
        ],
        [
            0.08,
            0.018759099852342555
        ],
        [
            0.09,
            0.018018310202249737
        ],
        [
            0.1,
            0.01722336917487015
        ],
        [
            0.11,
            0.017276744504954734
        ],
        [
            0.12,
            0.021861122563182924
        ],
        [
            0.13,
            0.01841683566781986
        ],
        [
            0.14,
            0.015309838514870127
        ],
        [
            0.15,
            0.020169127368587007
        ],
        [
            0.16,
            0.015974069644108583
        ],
        [
            0.17,
            0.020155174199621526
        ],
        [
            0.18,
            0.017548125062124813
        ],
        [
            0.19,
            0.018599395849707125
        ],
        [
            0.2,
            0.01889140085994458
        ],
        [
            0.21,
            0.0195944874582985
        ],
        [
            0.22,
            0.01730647804653522
        ],
        [
            0.23,
            0.01642995137906179
        ],
        [
            0.24,
            0.016732288188586856
        ],
        [
            0.25,
            0.01366199813217905
        ],
        [
            0.26,
            0.017162319443564538
        ],
        [
            0.27,
            0.015031806067929714
        ],
        [
            0.28,
            0.01655875972360386
        ],
        [
            0.29,
            0.013039902626121872
        ],
        [
            0.3,
            0.013737973436822272
        ],
        [
            0.31,
            0.016760943614497033
        ],
        [
            0.32,
            0.014340230650496713
        ],
        [
            0.33,
            0.015002945169810007
        ],
        [
            0.34,
            0.013627713177147421
        ],
        [
            0.35,
            0.015431322112299549
        ],
        [
            0.36,
            0.014553231278824042
        ],
        [
            0.37,
            0.014478333304445626
        ],
        [
            0.38,
            0.012914496688977121
        ],
        [
            0.39,
            0.015015575537093283
        ],
        [
            0.4,
            0.014038156678350417
        ],
        [
            0.41,
            0.015001245650042346
        ],
        [
            0.42,
            0.014465299586456898
        ],
        [
            0.43,
            0.01408215390775657
        ],
        [
            0.44,
            0.013984755316047601
        ],
        [
            0.45,
            0.016887795123742663
        ],
        [
            0.46,
            0.014378372788894051
        ],
        [
            0.47,
            0.014821407784552746
        ],
        [
            0.48,
            0.014593837008249483
        ],
        [
            0.49,
            0.014330447159078953
        ],
        [
            0.5,
            0.014522653006109948
        ],
        [
            0.51,
            0.012256437570294014
        ],
        [
            0.52,
            0.011841617935022308
        ],
        [
            0.53,
            0.013026997961618053
        ],
        [
            0.54,
            0.011177402847417394
        ],
        [
            0.55,
            0.011755637676890451
        ],
        [
            0.56,
            0.011876699263710877
        ],
        [
            0.57,
            0.01157606556395538
        ],
        [
            0.58,
            0.012312739368628978
        ],
        [
            0.59,
            0.010794715401706357
        ],
        [
            0.6,
            0.01095514695056217
        ],
        [
            0.61,
            0.011214876892392218
        ],
        [
            0.62,
            0.010972940320270673
        ],
        [
            0.63,
            0.010658160285895328
        ],
        [
            0.64,
            0.010788159048387081
        ],
        [
            0.65,
            0.010450277796308936
        ],
        [
            0.66,
            0.010838747117528266
        ],
        [
            0.67,
            0.010314253513798836
        ],
        [
            0.68,
            0.009926024501222685
        ],
        [
            0.69,
            0.009784897639238132
        ],
        [
            0.7,
            0.009699111173830145
        ],
        [
            0.71,
            0.00958171436551489
        ],
        [
            0.72,
            0.009536499374028852
        ],
        [
            0.73,
            0.009628911089057932
        ],
        [
            0.74,
            0.009504727639864425
        ],
        [
            0.75,
            0.009402443852720615
        ],
        [
            0.76,
            0.009389993991942664
        ],
        [
            0.77,
            0.009337726369395857
        ],
        [
            0.78,
            0.009231854157656037
        ],
        [
            0.79,
            0.009349352715297991
        ],
        [
            0.8,
            0.009281467164057868
        ],
        [
            0.81,
            0.009350916694778734
        ],
        [
            0.82,
            0.009298005752802117
        ],
        [
            0.83,
            0.009312274915588718
        ],
        [
            0.84,
            0.009380340033246268
        ],
        [
            0.85,
            0.009421468255894886
        ],
        [
            0.86,
            0.009477961358661847
        ],
        [
            0.87,
            0.009545731716218465
        ],
        [
            0.88,
            0.00960047009990921
        ],
        [
            0.89,
            0.009612297734889879
        ],
        [
            0.9,
            0.009590488385431301
        ],
        [
            0.91,
            0.009623879356260094
        ],
        [
            0.92,
            0.009679747951503918
        ],
        [
            0.93,
            0.009715254585778816
        ],
        [
            0.94,
            0.009769896989742918
        ],
        [
            0.95,
            0.009827459582169996
        ],
        [
            0.96,
            0.009854251915672753
        ],
        [
            0.97,
            0.009896175163319955
        ],
        [
            0.98,
            0.009953820161250898
        ],
        [
            0.99,
            0.009996856888182649
        ],
        [
            1.0,
            0.010046962703549862
        ]
    ],
    "6": [
        [
            0.01,
            0.05207632253880659
        ],
        [
            0.02,
            0.018337111300592446
        ],
        [
            0.03,
            0.023337669755760414
        ],
        [
            0.04,
            0.01779786807316718
        ],
        [
            0.05,
            0.022420621418365722
        ],
        [
            0.06,
            0.021123286379745004
        ],
        [
            0.07,
            0.020164878111381616
        ],
        [
            0.08,
            0.019848203809536037
        ],
        [
            0.09,
            0.01294156799837065
        ],
        [
            0.1,
            0.021199268755530343
        ],
        [
            0.11,
            0.01625300815328514
        ],
        [
            0.12,
            0.01786157465277382
        ],
        [
            0.13,
            0.020423380438430144
        ],
        [
            0.14,
            0.018514876823798244
        ],
        [
            0.15,
            0.018688368847041257
        ],
        [
            0.16,
            0.017683571982724973
        ],
        [
            0.17,
            0.014936725421971239
        ],
        [
            0.18,
            0.01601887066461252
        ],
        [
            0.19,
            0.018905925659943403
        ],
        [
            0.2,
            0.016610860658645428
        ],
        [
            0.21,
            0.020725305630862362
        ],
        [
            0.22,
            0.01583115635026503
        ],
        [
            0.23,
            0.016214166949288195
        ],
        [
            0.24,
            0.01677885299509979
        ],
        [
            0.25,
            0.013893498495305684
        ],
        [
            0.26,
            0.013987093110146436
        ],
        [
            0.27,
            0.014696713979296625
        ],
        [
            0.28,
            0.014675588635194305
        ],
        [
            0.29,
            0.014268327326823848
        ],
        [
            0.3,
            0.014320572050171171
        ],
        [
            0.31,
            0.013746447486572421
        ],
        [
            0.32,
            0.013329361772702164
        ],
        [
            0.33,
            0.013100300661784576
        ],
        [
            0.34,
            0.013826716204158694
        ],
        [
            0.35,
            0.012978330807016972
        ],
        [
            0.36,
            0.01172819518837399
        ],
        [
            0.37,
            0.011648951779329625
        ],
        [
            0.38,
            0.012027688260623018
        ],
        [
            0.39,
            0.01138136826563624
        ],
        [
            0.4,
            0.011857149909907065
        ],
        [
            0.41,
            0.01176456427779048
        ],
        [
            0.42,
            0.011937423671648503
        ],
        [
            0.43,
            0.01068622810680929
        ],
        [
            0.44,
            0.011651022478250792
        ],
        [
            0.45,
            0.010720327826806864
        ],
        [
            0.46,
            0.010049313156270844
        ],
        [
            0.47,
            0.010631524399989692
        ],
        [
            0.48,
            0.010614129748973232
        ],
        [
            0.49,
            0.010462175826208474
        ],
        [
            0.5,
            0.010773723727988243
        ],
        [
            0.51,
            0.010401344626101124
        ],
        [
            0.52,
            0.009925560151900137
        ],
        [
            0.53,
            0.00988906845482556
        ],
        [
            0.54,
            0.009677907401350314
        ],
        [
            0.55,
            0.010123644381346157
        ],
        [
            0.56,
            0.009447806425078824
        ],
        [
            0.57,
            0.00974742629148634
        ],
        [
            0.58,
            0.009511642610471901
        ],
        [
            0.59,
            0.009320278795292581
        ],
        [
            0.6,
            0.009337434730167045
        ],
        [
            0.61,
            0.009158729504573766
        ],
        [
            0.62,
            0.00909097496828356
        ],
        [
            0.63,
            0.00917051617801457
        ],
        [
            0.64,
            0.009229003313615937
        ],
        [
            0.65,
            0.009219797755294095
        ],
        [
            0.66,
            0.00931326598107498
        ],
        [
            0.67,
            0.009243437292101897
        ],
        [
            0.68,
            0.009283798318913222
        ],
        [
            0.69,
            0.00947028932774472
        ],
        [
            0.7,
            0.00930498160447291
        ],
        [
            0.71,
            0.009368059098163064
        ],
        [
            0.72,
            0.009350294308441287
        ],
        [
            0.73,
            0.009343212278056526
        ],
        [
            0.74,
            0.009353756775707364
        ],
        [
            0.75,
            0.009334320842511219
        ],
        [
            0.76,
            0.009396094979764236
        ],
        [
            0.77,
            0.009379690441098128
        ],
        [
            0.78,
            0.009381297417263842
        ],
        [
            0.79,
            0.00940259696179898
        ],
        [
            0.8,
            0.009394832512191776
        ],
        [
            0.81,
            0.009403411238634373
        ],
        [
            0.82,
            0.00939974794365373
        ],
        [
            0.83,
            0.009468257823116562
        ],
        [
            0.84,
            0.00949185166679677
        ],
        [
            0.85,
            0.009515525516985191
        ],
        [
            0.86,
            0.009525029059835422
        ],
        [
            0.87,
            0.009549952794977421
        ],
        [
            0.88,
            0.009586418959266966
        ],
        [
            0.89,
            0.009643145588232678
        ],
        [
            0.9,
            0.009664961914081073
        ],
        [
            0.91,
            0.009706321930050462
        ],
        [
            0.92,
            0.00971918739618681
        ],
        [
            0.93,
            0.00971908670536594
        ],
        [
            0.94,
            0.009741713803739076
        ],
        [
            0.95,
            0.009786421480926847
        ],
        [
            0.96,
            0.009822631024415367
        ],
        [
            0.97,
            0.00989622390084575
        ],
        [
            0.98,
            0.00993993492890977
        ],
        [
            0.99,
            0.009995251078867555
        ],
        [
            1.0,
            0.010041221774926458
        ]
    ]
}