{
    "16": [
        [
            0.01,
            0.026486931817554214
        ],
        [
            0.02,
            0.015860864364477822
        ],
        [
            0.03,
            0.016101416147105287
        ],
        [
            0.04,
            0.012003125895865963
        ],
        [
            0.05,
            0.012306848313687807
        ],
        [
            0.06,
            0.01062929745641068
        ],
        [
            0.07,
            0.010921083735795707
        ],
        [
            0.08,
            0.010583639614652987
        ],
        [
            0.09,
            0.012789839320439868
        ],
        [
            0.1,
            0.010421969332139978
        ],
        [
            0.11,
            0.01200571895111027
        ],
        [
            0.12,
            0.012217698587913224
        ],
        [
            0.13,
            0.011839549610397387
        ],
        [
            0.14,
            0.013139551013419924
        ],
        [
            0.15,
            0.01236475351303779
        ],
        [
            0.16,
            0.018150331036860444
        ],
        [
            0.17,
            0.012738901434853353
        ],
        [
            0.18,
            0.015676759798591913
        ],
        [
            0.19,
            0.01606946279124628
        ],
        [
            0.2,
            0.015174984769041298
        ],
        [
            0.21,
            0.018380334236763125
        ],
        [
            0.22,
            0.022010107726830718
        ],
        [
            0.23,
            0.01842222123248713
        ],
        [
            0.24,
            0.016635576432794834
        ],
        [
            0.25,
            0.02124086179968552
        ],
        [
            0.26,
            0.017984320182459084
        ],
        [
            0.27,
            0.018387493636925215
        ],
        [
            0.28,
            0.01975722995337091
        ],
        [
            0.29,
            0.018320118866145898
        ],
        [
            0.3,
            0.01842960885133243
        ],
        [
            0.31,
            0.01891799069549483
        ],
        [
            0.32,
            0.020813539439123264
        ],
        [
            0.33,
            0.022143836027936827
        ],
        [
            0.34,
            0.022673067099829164
        ],
        [
            0.35,
            0.02486553207377299
        ],
        [
            0.36,
            0.024249208163397935
        ],
        [
            0.37,
            0.022720842473703408
        ],
        [
            0.38,
            0.025616742780670835
        ],
        [
            0.39,
            0.026758198220957315
        ],
        [
            0.4,
            0.025319397681285445
        ],
        [
            0.41,
            0.025836507659130797
        ],
        [
            0.42,
            0.02524493886910752
        ],
        [
            0.43,
            0.024897798677624764
        ],
        [
            0.44,
            0.025707116625859693
        ],
        [
            0.45,
            0.02545532274492595
        ],
        [
            0.46,
            0.022087762243403322
        ],
        [
            0.47,
            0.02856656571576749
        ],
        [
            0.48,
            0.026934072232080514
        ],
        [
            0.49,
            0.025760914445940454
        ],
        [
            0.5,
            0.02671513921950708
        ],
        [
            0.51,
            0.02373051929940924
        ],
        [
            0.52,
            0.022211575525710063
        ],
        [
            0.53,
            0.024367071485941996
        ],
        [
            0.54,
            0.02388717114692212
        ],
        [
            0.55,
            0.024725608332409277
        ],
        [
            0.56,
            0.025589731611126643
        ],
        [
            0.57,
            0.02267239554986546
        ],
        [
            0.58,
            0.02111735140009494
        ],
        [
            0.59,
            0.02106709723950405
        ],
        [
            0.6,
            0.02067258279333723
        ],
        [
            0.61,
            0.02138444864796439
        ],
        [
            0.62,
            0.020246112516603163
        ],
        [
            0.63,
            0.019709700508053367
        ],
        [
            0.64,
            0.019969029510422915
        ],
        [
            0.65,
            0.02004978885193272
        ],
        [
            0.66,
            0.01876724951465358
        ],
        [
            0.67,
            0.017688393177034217
        ],
        [
            0.68,
            0.01895043127618792
        ],
        [
            0.69,
            0.01722928693553997
        ],
        [
            0.7,
            0.017504055876163622
        ],
        [
            0.71,
            0.017825612461515133
        ],
        [
            0.72,
            0.017343990937747956
        ],
        [
            0.73,
            0.016326688781472094
        ],
        [
            0.74,
            0.016709369096055676
        ],
        [
            0.75,
            0.017245677376744768
        ],
        [
            0.76,
            0.017947233139269325
        ],
        [
            0.77,
            0.01612857522363425
        ],
        [
            0.78,
            0.01684977641520948
        ],
        [
            0.79,
            0.016108203149202912
        ],
        [
            0.8,
            0.015189257783972402
        ],
        [
            0.81,
            0.014363600811656689
        ],
        [
            0.82,
            0.013999334951559299
        ],
        [
            0.83,
            0.013656542177890137
        ],
        [
            0.84,
            0.013381074152160465
        ],
        [
            0.85,
            0.013184514196396248
        ],
        [
            0.86,
            0.01284485723608706
        ],
        [
            0.87,
            0.012498685291144233
        ],
        [
            0.88,
            0.012133261068199425
        ],
        [
            0.89,
            0.011784812016783565
        ],
        [
            0.9,
            0.011424932215099102
        ],
        [
            0.91,
            0.01120290067428107
        ],
        [
            0.92,
            0.01115654956538101
        ],
        [
            0.93,
            0.01112497960001714
        ],
        [
            0.94,
            0.01105244329558223
        ],
        [
            0.95,
            0.010940000767242938
        ],
        [
            0.96,
            0.011031832886919094
        ],
        [
            0.97,
            0.011189370864829622
        ],
        [
            0.98,
            0.01102134247211765
        ],
        [
            0.99,
            0.011017684431649527
        ],
        [
            1.0,
            0.01048412509496967
        ]
    ],
    "64": [
        [
            0.01,
            0.027415235040883144
        ],
        [
            0.02,
            0.013873632706926436
        ],
        [
            0.03,
            0.011943103094975187
        ],
        [
            0.04,
            0.011009074756941293
        ],
        [
            0.05,
            0.010282533402591233
        ],
        [
            0.06,
            0.01177156452186914
        ],
        [
            0.07,
            0.009133038710158416
        ],
        [
            0.08,
            0.011512627335092071
        ],
        [
            0.09,
            0.013271381738909514
        ],
        [
            0.1,
            0.009497352795484226
        ],
        [
            0.11,
            0.012094630027100168
        ],
        [
            0.12,
            0.012929672383672966
        ],
        [
            0.13,
            0.013039695770180926
        ],
        [
            0.14,
            0.015623260396634343
        ],
        [
            0.15,
            0.013219727867563607
        ],
        [
            0.16,
            0.01242961018255889
        ],
        [
            0.17,
            0.015593086965495079
        ],
        [
            0.18,
            0.017567109603141146
        ],
        [
            0.19,
            0.017845439134789955
        ],
        [
            0.2,
            0.015870102120938204
        ],
        [
            0.21,
            0.019086914114868854
        ],
        [
            0.22,
            0.019475182117208552
        ],
        [
            0.23,
            0.01821423699871705
        ],
        [
            0.24,
            0.01743866444314728
        ],
        [
            0.25,
            0.01998211669009098
        ],
        [
            0.26,
            0.022330467297487656
        ],
        [
            0.27,
            0.01817045273966439
        ],
        [
            0.28,
            0.018319895513922903
        ],
        [
            0.29,
            0.023102040934311386
        ],
        [
            0.3,
            0.02120371537662925
        ],
        [
            0.31,
            0.020987028175709962
        ],
        [
            0.32,
            0.024618530365652855
        ],
        [
            0.33,
            0.022879264410871916
        ],
        [
            0.34,
            0.018598517288200875
        ],
        [
            0.35,
            0.02568870990551479
        ],
        [
            0.36,
            0.021585717355850804
        ],
        [
            0.37,
            0.025517940701995825
        ],
        [
            0.38,
            0.02440936495589969
        ],
        [
            0.39,
            0.02364120128961523
        ],
        [
            0.4,
            0.02670774669290629
        ],
        [
            0.41,
            0.02402311997478949
        ],
        [
            0.42,
            0.022629076835530632
        ],
        [
            0.43,
            0.02567944087595618
        ],
        [
            0.44,
            0.02657272011682333
        ],
        [
            0.45,
            0.02212390715333832
        ],
        [
            0.46,
            0.024694826344338134
        ],
        [
            0.47,
            0.027081456370867965
        ],
        [
            0.48,
            0.0248633324445061
        ],
        [
            0.49,
            0.024281044716200666
        ],
        [
            0.5,
            0.024356245562511383
        ],
        [
            0.51,
            0.022727248186212547
        ],
        [
            0.52,
            0.024232312424087375
        ],
        [
            0.53,
            0.024045796451247253
        ],
        [
            0.54,
            0.02222199995865124
        ],
        [
            0.55,
            0.02208941364560266
        ],
        [
            0.56,
            0.023342438683930353
        ],
        [
            0.57,
            0.021366405473336254
        ],
        [
            0.58,
            0.02089198762817488
        ],
        [
            0.59,
            0.019523789376838283
        ],
        [
            0.6,
            0.020130255550915285
        ],
        [
            0.61,
            0.019493742339375463
        ],
        [
            0.62,
            0.01746848548977035
        ],
        [
            0.63,
            0.01849279606235977
        ],
        [
            0.64,
            0.017602652713512208
        ],
        [
            0.65,
            0.018467398312600906
        ],
        [
            0.66,
            0.016336772787725468
        ],
        [
            0.67,
            0.017120867693626106
        ],
        [
            0.68,
            0.017058714126723256
        ],
        [
            0.69,
            0.01701275488653096
        ],
        [
            0.7,
            0.016736885616048254
        ],
        [
            0.71,
            0.016682451801554823
        ],
        [
            0.72,
            0.01648855673949161
        ],
        [
            0.73,
            0.016428447225771917
        ],
        [
            0.74,
            0.0178318587921513
        ],
        [
            0.75,
            0.016710775822061156
        ],
        [
            0.76,
            0.015743279348131134
        ],
        [
            0.77,
            0.015354485160776506
        ],
        [
            0.78,
            0.015038873277416938
        ],
        [
            0.79,
            0.014087945572926388
        ],
        [
            0.8,
            0.014006458964863267
        ],
        [
            0.81,
            0.0139124701441826
        ],
        [
            0.82,
            0.013622722182673859
        ],
        [
            0.83,
            0.013773884692373617
        ],
        [
            0.84,
            0.013616904103287315
        ],
        [
            0.85,
            0.013145699850076086
        ],
        [
            0.86,
            0.012576180394514308
        ],
        [
            0.87,
            0.012345984446677408
        ],
        [
            0.88,
            0.011931777216480739
        ],
        [
            0.89,
            0.011592741017028535
        ],
        [
            0.9,
            0.011432688272118399
        ],
        [
            0.91,
            0.011320814451152628
        ],
        [
            0.92,
            0.01136105498252767
        ],
        [
            0.93,
            0.011245360056933093
        ],
        [
            0.94,
            0.011346571912975723
        ],
        [
            0.95,
            0.011298994910555386
        ],
        [
            0.96,
            0.011258406285801069
        ],
        [
            0.97,
            0.01114111650340915
        ],
        [
            0.98,
            0.011082833448724438
        ],
        [
            0.99,
            0.01079290945883263
        ],
        [
            1.0,
            0.010307116558646825
        ]
    ],
    "256": [
        [
            0.01,
            0.030211353548247513
        ],
        [
            0.02,
            0.012341999540097813
        ],
        [
            0.03,
            0.011052939865773163
        ],
        [
            0.04,
            0.011426575701037382
        ],
        [
            0.05,
            0.009709417402531948
        ],
        [
            0.06,
            0.012491165159452674
        ],
        [
            0.07,
            0.009928650788631685
        ],
        [
            0.08,
            0.010555243609162338
        ],
        [
            0.09,
            0.012151096750239312
        ],
        [
            0.1,
            0.010761173434508057
        ],
        [
            0.11,
            0.012012904056489918
        ],
        [
            0.12,
            0.0124003914383212
        ],
        [
            0.13,
            0.011518832218295772
        ],
        [
            0.14,
            0.013579923247512221
        ],
        [
            0.15,
            0.014237915641973008
        ],
        [
            0.16,
            0.012850333940447479
        ],
        [
            0.17,
            0.019570547851840724
        ],
        [
            0.18,
            0.017922438996962102
        ],
        [
            0.19,
            0.01828579258008565
        ],
        [
            0.2,
            0.016613130134476572
        ],
        [
            0.21,
            0.019310423244225626
        ],
        [
            0.22,
            0.016853674713191935
        ],
        [
            0.23,
            0.017704940728925693
        ],
        [
            0.24,
            0.01985432619372107
        ],
        [
            0.25,
            0.018362191444801952
        ],
        [
            0.26,
            0.018394265515856628
        ],
        [
            0.27,
            0.01936633899144511
        ],
        [
            0.28,
            0.019275776922578865
        ],
        [
            0.29,
            0.022893419850218314
        ],
        [
            0.3,
            0.02431975496314694
        ],
        [
            0.31,
            0.02352609574595942
        ],
        [
            0.32,
            0.024017809465054173
        ],
        [
            0.33,
            0.02150784264702036
        ],
        [
            0.34,
            0.021340415831621343
        ],
        [
            0.35,
            0.026025012158201296
        ],
        [
            0.36,
            0.02344643988662479
        ],
        [
            0.37,
            0.026580308352014866
        ],
        [
            0.38,
            0.023962253245701785
        ],
        [
            0.39,
            0.023344512451545677
        ],
        [
            0.4,
            0.027571870636209292
        ],
        [
            0.41,
            0.02393624135540467
        ],
        [
            0.42,
            0.02272247504493866
        ],
        [
            0.43,
            0.0243057141383325
        ],
        [
            0.44,
            0.024298137382717938
        ],
        [
            0.45,
            0.025730263535459534
        ],
        [
            0.46,
            0.02354464526052075
        ],
        [
            0.47,
            0.02829103282999383
        ],
        [
            0.48,
            0.023478731807466815
        ],
        [
            0.49,
            0.024424524294282716
        ],
        [
            0.5,
            0.0257816632149729
        ],
        [
            0.51,
            0.02309945390154665
        ],
        [
            0.52,
            0.02404486140551316
        ],
        [
            0.53,
            0.022359951895222864
        ],
        [
            0.54,
            0.021917815305952534
        ],
        [
            0.55,
            0.021646112448295955
        ],
        [
            0.56,
            0.022611492596105662
        ],
        [
            0.57,
            0.020819153220677566
        ],
        [
            0.58,
            0.02116121439231844
        ],
        [
            0.59,
            0.019452409032733795
        ],
        [
            0.6,
            0.019620662861347074
        ],
        [
            0.61,
            0.020012055357407212
        ],
        [
            0.62,
            0.01801914045992636
        ],
        [
            0.63,
            0.017489895302897743
        ],
        [
            0.64,
            0.01855550512241747
        ],
        [
            0.65,
            0.017197095120617345
        ],
        [
            0.66,
            0.017244487235554617
        ],
        [
            0.67,
            0.01683129765930673
        ],
        [
            0.68,
            0.016323484688411438
        ],
        [
            0.69,
            0.016923750583646695
        ],
        [
            0.7,
            0.016623818232012567
        ],
        [
            0.71,
            0.015957018257869868
        ],
        [
            0.72,
            0.016850979745121654
        ],
        [
            0.73,
            0.01671894681139008
        ],
        [
            0.74,
            0.01667274413363023
        ],
        [
            0.75,
            0.016378091063834355
        ],
        [
            0.76,
            0.016271823268951695
        ],
        [
            0.77,
            0.014728406848574859
        ],
        [
            0.78,
            0.014465827449025564
        ],
        [
            0.79,
            0.013854550466864653
        ],
        [
            0.8,
            0.013882334075302394
        ],
        [
            0.81,
            0.01397601238897407
        ],
        [
            0.82,
            0.013889847677732317
        ],
        [
            0.83,
            0.01385836112867533
        ],
        [
            0.84,
            0.013477443124261197
        ],
        [
            0.85,
            0.013377485837662132
        ],
        [
            0.86,
            0.012737967618338326
        ],
        [
            0.87,
            0.012244405511176991
        ],
        [
            0.88,
            0.011849959548944859
        ],
        [
            0.89,
            0.01155352680423488
        ],
        [
            0.9,
            0.011506958359090042
        ],
        [
            0.91,
            0.01147006914517866
        ],
        [
            0.92,
            0.011461710868379077
        ],
        [
            0.93,
            0.011466618320081499
        ],
        [
            0.94,
            0.01148676180932431
        ],
        [
            0.95,
            0.01143058897342929
        ],
        [
            0.96,
            0.011344725120028104
        ],
        [
            0.97,
            0.011186279363076425
        ],
        [
            0.98,
            0.011143247281751345
        ],
        [
            0.99,
            0.010654920185398764
        ],
        [
            1.0,
            0.01019146776493191
        ]
    ]
}