{
    "2": [
        [
            0.01,
            0.08316970832268891
        ],
        [
            0.02,
            0.03618070605894384
        ],
        [
            0.03,
            0.03665401388203571
        ],
        [
            0.04,
            0.025287166026109354
        ],
        [
            0.05,
            0.03468570493243566
        ],
        [
            0.06,
            0.023528067863812896
        ],
        [
            0.07,
            0.029571661045123182
        ],
        [
            0.08,
            0.02323596587676564
        ],
        [
            0.09,
            0.025413744328225008
        ],
        [
            0.1,
            0.030295319022817273
        ],
        [
            0.11,
            0.024403919131831337
        ],
        [
            0.12,
            0.023922682321464845
        ],
        [
            0.13,
            0.022664091107098352
        ],
        [
            0.14,
            0.03238805180098258
        ],
        [
            0.15,
            0.026075291001565918
        ],
        [
            0.16,
            0.03187811450787191
        ],
        [
            0.17,
            0.029306366171198747
        ],
        [
            0.18,
            0.026867363918096816
        ],
        [
            0.19,
            0.0358077379049966
        ],
        [
            0.2,
            0.03185456192020725
        ],
        [
            0.21,
            0.04203974375550508
        ],
        [
            0.22,
            0.03610906626853515
        ],
        [
            0.23,
            0.04228555975812455
        ],
        [
            0.24,
            0.03520406823435205
        ],
        [
            0.25,
            0.0333503339522323
        ],
        [
            0.26,
            0.0407394822588865
        ],
        [
            0.27,
            0.027760812398896707
        ],
        [
            0.28,
            0.03290784356460922
        ],
        [
            0.29,
            0.03861778523283162
        ],
        [
            0.3,
            0.0391471150057346
        ],
        [
            0.31,
            0.03374456641878765
        ],
        [
            0.32,
            0.03231332209349908
        ],
        [
            0.33,
            0.03245574521451441
        ],
        [
            0.34,
            0.038014993756958895
        ],
        [
            0.35,
            0.03911933219158155
        ],
        [
            0.36,
            0.04029193189523399
        ],
        [
            0.37,
            0.040786951491208596
        ],
        [
            0.38,
            0.037588998215412034
        ],
        [
            0.39,
            0.03455500950082769
        ],
        [
            0.4,
            0.032728388030775386
        ],
        [
            0.41,
            0.03610258429877569
        ],
        [
            0.42,
            0.039508884576047926
        ],
        [
            0.43,
            0.039194280172263465
        ],
        [
            0.44,
            0.029769678703375494
        ],
        [
            0.45,
            0.03446160946476743
        ],
        [
            0.46,
            0.03568142544798546
        ],
        [
            0.47,
            0.03798574169745349
        ],
        [
            0.48,
            0.03756578710431272
        ],
        [
            0.49,
            0.038029736455625573
        ],
        [
            0.5,
            0.04135533340866595
        ],
        [
            0.51,
            0.037067488146464135
        ],
        [
            0.52,
            0.04047480252184585
        ],
        [
            0.53,
            0.03577571920097599
        ],
        [
            0.54,
            0.03196967121110561
        ],
        [
            0.55,
            0.035796729223611067
        ],
        [
            0.56,
            0.03934086935310895
        ],
        [
            0.57,
            0.03712984838174673
        ],
        [
            0.58,
            0.04080147573391848
        ],
        [
            0.59,
            0.03880093923908822
        ],
        [
            0.6,
            0.037295447793097784
        ],
        [
            0.61,
            0.03006290866874066
        ],
        [
            0.62,
            0.03397135629885318
        ],
        [
            0.63,
            0.03405940438107132
        ],
        [
            0.64,
            0.035035552069134585
        ],
        [
            0.65,
            0.034516367005295284
        ],
        [
            0.66,
            0.030443958651436596
        ],
        [
            0.67,
            0.03359930692360564
        ],
        [
            0.68,
            0.036088221319282285
        ],
        [
            0.69,
            0.033584798521179425
        ],
        [
            0.7,
            0.035147158590255204
        ],
        [
            0.71,
            0.03432506249723293
        ],
        [
            0.72,
            0.0323143109445648
        ],
        [
            0.73,
            0.031240604677400075
        ],
        [
            0.74,
            0.03036742085929958
        ],
        [
            0.75,
            0.029166545528066783
        ],
        [
            0.76,
            0.029890671185782643
        ],
        [
            0.77,
            0.027852661874271756
        ],
        [
            0.78,
            0.02433225960115619
        ],
        [
            0.79,
            0.025623199516836764
        ],
        [
            0.8,
            0.026448606843344335
        ],
        [
            0.81,
            0.024487741300669115
        ],
        [
            0.82,
            0.022310630722482468
        ],
        [
            0.83,
            0.024211369740358174
        ],
        [
            0.84,
            0.021779961082339566
        ],
        [
            0.85,
            0.01916359425863691
        ],
        [
            0.86,
            0.018420874012070498
        ],
        [
            0.87,
            0.018903385024902523
        ],
        [
            0.88,
            0.014992566804611784
        ],
        [
            0.89,
            0.016089934161390526
        ],
        [
            0.9,
            0.01684115588678054
        ],
        [
            0.91,
            0.015301993540663647
        ],
        [
            0.92,
            0.01426537590788033
        ],
        [
            0.93,
            0.016736545730469076
        ],
        [
            0.94,
            0.012508448021730236
        ],
        [
            0.95,
            0.01390221453534321
        ],
        [
            0.96,
            0.014265694873887716
        ],
        [
            0.97,
            0.013237616861655813
        ],
        [
            0.98,
            0.013003337236492489
        ],
        [
            0.99,
            0.014246134550542792
        ],
        [
            1.0,
            0.011573190070972546
        ]
    ],
    "4": [
        [
            0.01,
            0.22533088893778858
        ],
        [
            0.02,
            0.15278140951968652
        ],
        [
            0.03,
            0.12454689972484055
        ],
        [
            0.04,
            0.09540606387547163
        ],
        [
            0.05,
            0.10011719352701184
        ],
        [
            0.06,
            0.0825155589100254
        ],
        [
            0.07,
            0.09970521276925502
        ],
        [
            0.08,
            0.07394419253556947
        ],
        [
            0.09,
            0.07491726786278761
        ],
        [
            0.1,
            0.08329570700823521
        ],
        [
            0.11,
            0.06521601447333507
        ],
        [
            0.12,
            0.08041046862619719
        ],
        [
            0.13,
            0.06573567804824487
        ],
        [
            0.14,
            0.059716356469261524
        ],
        [
            0.15,
            0.04066017633423763
        ],
        [
            0.16,
            0.048315173794095646
        ],
        [
            0.17,
            0.061985473851058834
        ],
        [
            0.18,
            0.05968652631854911
        ],
        [
            0.19,
            0.047589889566456246
        ],
        [
            0.2,
            0.05624354808081693
        ],
        [
            0.21,
            0.06054821303425445
        ],
        [
            0.22,
            0.05029155366842295
        ],
        [
            0.23,
            0.05427310489291275
        ],
        [
            0.24,
            0.06379328032597513
        ],
        [
            0.25,
            0.04569897126340325
        ],
        [
            0.26,
            0.056081574078307744
        ],
        [
            0.27,
            0.058351864277026724
        ],
        [
            0.28,
            0.051617947833469645
        ],
        [
            0.29,
            0.05362119442431799
        ],
        [
            0.3,
            0.04946795590665772
        ],
        [
            0.31,
            0.04591760056330154
        ],
        [
            0.32,
            0.03916371729294952
        ],
        [
            0.33,
            0.04656763484657553
        ],
        [
            0.34,
            0.04393178300677284
        ],
        [
            0.35,
            0.036315740282998304
        ],
        [
            0.36,
            0.032940694358616705
        ],
        [
            0.37,
            0.051461225705569096
        ],
        [
            0.38,
            0.05286528475383159
        ],
        [
            0.39,
            0.056736126680286166
        ],
        [
            0.4,
            0.06521053504285126
        ],
        [
            0.41,
            0.055316831435832735
        ],
        [
            0.42,
            0.059120058758066994
        ],
        [
            0.43,
            0.03904283943041856
        ],
        [
            0.44,
            0.05448625489287067
        ],
        [
            0.45,
            0.06159575209817397
        ],
        [
            0.46,
            0.06359562127734793
        ],
        [
            0.47,
            0.07221975189397851
        ],
        [
            0.48,
            0.04296367370589947
        ],
        [
            0.49,
            0.05420892866717988
        ],
        [
            0.5,
            0.05400724767565302
        ],
        [
            0.51,
            0.05011741731726154
        ],
        [
            0.52,
            0.04257153135798543
        ],
        [
            0.53,
            0.04790772525950182
        ],
        [
            0.54,
            0.05057426954390997
        ],
        [
            0.55,
            0.05132824582257225
        ],
        [
            0.56,
            0.04513452342267296
        ],
        [
            0.57,
            0.05384266437290132
        ],
        [
            0.58,
            0.04365011674499485
        ],
        [
            0.59,
            0.041596628654965453
        ],
        [
            0.6,
            0.05240698473199769
        ],
        [
            0.61,
            0.03882098144066645
        ],
        [
            0.62,
            0.049494737974582766
        ],
        [
            0.63,
            0.05215139970310881
        ],
        [
            0.64,
            0.050745826621533284
        ],
        [
            0.65,
            0.04524237855348696
        ],
        [
            0.66,
            0.05047265412574597
        ],
        [
            0.67,
            0.04434209968486668
        ],
        [
            0.68,
            0.04258517148602839
        ],
        [
            0.69,
            0.04284414545839133
        ],
        [
            0.7,
            0.04178948558703703
        ],
        [
            0.71,
            0.04732805728071808
        ],
        [
            0.72,
            0.04004946619561461
        ],
        [
            0.73,
            0.037322812946343556
        ],
        [
            0.74,
            0.04155675540548918
        ],
        [
            0.75,
            0.040509387602691835
        ],
        [
            0.76,
            0.03785751554269785
        ],
        [
            0.77,
            0.03903174212150452
        ],
        [
            0.78,
            0.037159079883872285
        ],
        [
            0.79,
            0.03491190200187263
        ],
        [
            0.8,
            0.03643132409842089
        ],
        [
            0.81,
            0.032202551359683876
        ],
        [
            0.82,
            0.03194308612488704
        ],
        [
            0.83,
            0.02922864522191791
        ],
        [
            0.84,
            0.02705147877564851
        ],
        [
            0.85,
            0.026850546400434668
        ],
        [
            0.86,
            0.023797978558960608
        ],
        [
            0.87,
            0.025092012107980684
        ],
        [
            0.88,
            0.020947069573789195
        ],
        [
            0.89,
            0.022152952760356604
        ],
        [
            0.9,
            0.020172135085223347
        ],
        [
            0.91,
            0.02387626491327064
        ],
        [
            0.92,
            0.0240593165510275
        ],
        [
            0.93,
            0.02456023616284333
        ],
        [
            0.94,
            0.019841653640198506
        ],
        [
            0.95,
            0.018936016871961156
        ],
        [
            0.96,
            0.021071424516647317
        ],
        [
            0.97,
            0.01774213819966592
        ],
        [
            0.98,
            0.015926182775110403
        ],
        [
            0.99,
            0.017365911274006367
        ],
        [
            1.0,
            0.01374990742202832
        ]
    ],
    "6": [
        [
            0.01,
            0.3193015563102312
        ],
        [
            0.02,
            0.22235585004265887
        ],
        [
            0.03,
            0.10187413930930404
        ],
        [
            0.04,
            0.10215328273876888
        ],
        [
            0.05,
            0.17290158897393584
        ],
        [
            0.06,
            0.06778847763694015
        ],
        [
            0.07,
            0.12239936590181183
        ],
        [
            0.08,
            0.09452220785858209
        ],
        [
            0.09,
            0.0801944791094845
        ],
        [
            0.1,
            0.03571784196718206
        ],
        [
            0.11,
            0.041785190706288756
        ],
        [
            0.12,
            0.050036053234805894
        ],
        [
            0.13,
            0.0709212842837356
        ],
        [
            0.14,
            0.06573380940153564
        ],
        [
            0.15,
            0.0687574212962037
        ],
        [
            0.16,
            0.06568158947145024
        ],
        [
            0.17,
            0.05514550671824977
        ],
        [
            0.18,
            0.053826069334512325
        ],
        [
            0.19,
            0.042944803585913315
        ],
        [
            0.2,
            0.05348141912446105
        ],
        [
            0.21,
            0.06001812883433565
        ],
        [
            0.22,
            0.04514890213861177
        ],
        [
            0.23,
            0.06802800093953532
        ],
        [
            0.24,
            0.06151521552020616
        ],
        [
            0.25,
            0.05324214607936743
        ],
        [
            0.26,
            0.0640112676115245
        ],
        [
            0.27,
            0.06739427556665752
        ],
        [
            0.28,
            0.05546445156497821
        ],
        [
            0.29,
            0.06337719383385895
        ],
        [
            0.3,
            0.061386560995034124
        ],
        [
            0.31,
            0.06609151869014426
        ],
        [
            0.32,
            0.05356512681641583
        ],
        [
            0.33,
            0.045871449195372595
        ],
        [
            0.34,
            0.053180382437438126
        ],
        [
            0.35,
            0.059046628679873425
        ],
        [
            0.36,
            0.053297271009550735
        ],
        [
            0.37,
            0.06723509888760827
        ],
        [
            0.38,
            0.0645412184597217
        ],
        [
            0.39,
            0.04725467174333906
        ],
        [
            0.4,
            0.051145992213619186
        ],
        [
            0.41,
            0.04785935751746043
        ],
        [
            0.42,
            0.053721055429869755
        ],
        [
            0.43,
            0.04758764040894609
        ],
        [
            0.44,
            0.055858494476297066
        ],
        [
            0.45,
            0.047575722530666865
        ],
        [
            0.46,
            0.04543129867765986
        ],
        [
            0.47,
            0.050560861437054724
        ],
        [
            0.48,
            0.052904222560320846
        ],
        [
            0.49,
            0.04361827182380527
        ],
        [
            0.5,
            0.04402643973123877
        ],
        [
            0.51,
            0.04819695151833432
        ],
        [
            0.52,
            0.04205498228743066
        ],
        [
            0.53,
            0.04506626597048155
        ],
        [
            0.54,
            0.04098697118829922
        ],
        [
            0.55,
            0.04232193820861414
        ],
        [
            0.56,
            0.0471775192640958
        ],
        [
            0.57,
            0.03912436250887299
        ],
        [
            0.58,
            0.04125396344992559
        ],
        [
            0.59,
            0.03812387439121371
        ],
        [
            0.6,
            0.03848497624659539
        ],
        [
            0.61,
            0.046688630016686446
        ],
        [
            0.62,
            0.03702415357234706
        ],
        [
            0.63,
            0.03604139933560933
        ],
        [
            0.64,
            0.034318479848354226
        ],
        [
            0.65,
            0.038115266742843844
        ],
        [
            0.66,
            0.03364034614131169
        ],
        [
            0.67,
            0.0384931501755146
        ],
        [
            0.68,
            0.03226108138503408
        ],
        [
            0.69,
            0.03223574093033427
        ],
        [
            0.7,
            0.03573213323818496
        ],
        [
            0.71,
            0.03521777621532894
        ],
        [
            0.72,
            0.030625428345808503
        ],
        [
            0.73,
            0.034084583101559617
        ],
        [
            0.74,
            0.032766605616471295
        ],
        [
            0.75,
            0.029106715646536253
        ],
        [
            0.76,
            0.031269582056251057
        ],
        [
            0.77,
            0.03012855693799748
        ],
        [
            0.78,
            0.03197296156668571
        ],
        [
            0.79,
            0.030463185475774493
        ],
        [
            0.8,
            0.029613879851306747
        ],
        [
            0.81,
            0.026835091653772628
        ],
        [
            0.82,
            0.02705409779567878
        ],
        [
            0.83,
            0.02681049567060827
        ],
        [
            0.84,
            0.024046232397198906
        ],
        [
            0.85,
            0.025632713274177446
        ],
        [
            0.86,
            0.02526826785583137
        ],
        [
            0.87,
            0.023992576992410312
        ],
        [
            0.88,
            0.023100856405343883
        ],
        [
            0.89,
            0.024671806859106298
        ],
        [
            0.9,
            0.01984581822082958
        ],
        [
            0.91,
            0.022459135527984477
        ],
        [
            0.92,
            0.02347588867510342
        ],
        [
            0.93,
            0.019626939999543448
        ],
        [
            0.94,
            0.02139663827327216
        ],
        [
            0.95,
            0.01825310847683702
        ],
        [
            0.96,
            0.016379858026529612
        ],
        [
            0.97,
            0.01628045192767946
        ],
        [
            0.98,
            0.013482886867363288
        ],
        [
            0.99,
            0.01401352232509172
        ],
        [
            1.0,
            0.011972266555293378
        ]
    ]
}