{
    "2": [
        [
            0.01,
            0.22349417863266094
        ],
        [
            0.02,
            0.19943097442776006
        ],
        [
            0.03,
            0.1905718579300569
        ],
        [
            0.04,
            0.18018758499976
        ],
        [
            0.05,
            0.15009341239256535
        ],
        [
            0.06,
            0.1299439430735274
        ],
        [
            0.07,
            0.10597660479064291
        ],
        [
            0.08,
            0.09129595893737744
        ],
        [
            0.09,
            0.12941700853543073
        ],
        [
            0.1,
            0.15006385648550086
        ],
        [
            0.11,
            0.16499483900518364
        ],
        [
            0.12,
            0.1592453499930428
        ],
        [
            0.13,
            0.14592012529710174
        ],
        [
            0.14,
            0.18150142870188796
        ],
        [
            0.15,
            0.17778260047322295
        ],
        [
            0.16,
            0.1929587388170442
        ],
        [
            0.17,
            0.18377544665147041
        ],
        [
            0.18,
            0.1737665018181392
        ],
        [
            0.19,
            0.15294242778357156
        ],
        [
            0.2,
            0.11754085332186051
        ],
        [
            0.21,
            0.17291207578838522
        ],
        [
            0.22,
            0.17636167227514263
        ],
        [
            0.23,
            0.14815166510529287
        ],
        [
            0.24,
            0.17603753987206316
        ],
        [
            0.25,
            0.18661820377202468
        ],
        [
            0.26,
            0.16757780423800378
        ],
        [
            0.27,
            0.17547617158185577
        ],
        [
            0.28,
            0.16283549785672688
        ],
        [
            0.29,
            0.14187450853738812
        ],
        [
            0.3,
            0.1329092187541323
        ],
        [
            0.31,
            0.154594616388557
        ],
        [
            0.32,
            0.16529199708341222
        ],
        [
            0.33,
            0.13766650213153053
        ],
        [
            0.34,
            0.14885774735677373
        ],
        [
            0.35,
            0.1441343211920608
        ],
        [
            0.36,
            0.12842400903283246
        ],
        [
            0.37,
            0.13272912501342563
        ],
        [
            0.38,
            0.11883569400490482
        ],
        [
            0.39,
            0.11362322689751683
        ],
        [
            0.4,
            0.12424177599356082
        ],
        [
            0.41,
            0.1558915504927114
        ],
        [
            0.42,
            0.12377815156865928
        ],
        [
            0.43,
            0.12183289110951262
        ],
        [
            0.44,
            0.12840546898748412
        ],
        [
            0.45,
            0.14761695916370987
        ],
        [
            0.46,
            0.11917445751024199
        ],
        [
            0.47,
            0.10847858083961823
        ],
        [
            0.48,
            0.1577146098941031
        ],
        [
            0.49,
            0.14313700902166945
        ],
        [
            0.5,
            0.14073372051395844
        ],
        [
            0.51,
            0.14390553207791193
        ],
        [
            0.52,
            0.13964304782145767
        ],
        [
            0.53,
            0.1296937411445302
        ],
        [
            0.54,
            0.13587078798172597
        ],
        [
            0.55,
            0.1222059942122108
        ],
        [
            0.56,
            0.10531467537399171
        ],
        [
            0.57,
            0.10087044450876126
        ],
        [
            0.58,
            0.10723119831347223
        ],
        [
            0.59,
            0.13011792949101447
        ],
        [
            0.6,
            0.13011566782637718
        ],
        [
            0.61,
            0.13960055842227176
        ],
        [
            0.62,
            0.1176725250096376
        ],
        [
            0.63,
            0.11766052905401617
        ],
        [
            0.64,
            0.1346515808379155
        ],
        [
            0.65,
            0.11127651427255567
        ],
        [
            0.66,
            0.11990300936887295
        ],
        [
            0.67,
            0.1281402409252433
        ],
        [
            0.68,
            0.10478714179602433
        ],
        [
            0.69,
            0.13806853387111212
        ],
        [
            0.7,
            0.126086087794048
        ],
        [
            0.71,
            0.13731156095090283
        ],
        [
            0.72,
            0.14942973245409064
        ],
        [
            0.73,
            0.1502022540596458
        ],
        [
            0.74,
            0.14377272393246535
        ],
        [
            0.75,
            0.1379202426946227
        ],
        [
            0.76,
            0.12432225884658567
        ],
        [
            0.77,
            0.1265342807360311
        ],
        [
            0.78,
            0.108892630275906
        ],
        [
            0.79,
            0.10622039499093124
        ],
        [
            0.8,
            0.10021319054488372
        ],
        [
            0.81,
            0.11922626876279231
        ],
        [
            0.82,
            0.09304099356264388
        ],
        [
            0.83,
            0.1224167619580134
        ],
        [
            0.84,
            0.0933228278748841
        ],
        [
            0.85,
            0.12862677106985718
        ],
        [
            0.86,
            0.09714954043026408
        ],
        [
            0.87,
            0.1129509993008853
        ],
        [
            0.88,
            0.11755861038395458
        ],
        [
            0.89,
            0.11097812381925624
        ],
        [
            0.9,
            0.11199355692025265
        ],
        [
            0.91,
            0.10272427590081636
        ],
        [
            0.92,
            0.10264579717906586
        ],
        [
            0.93,
            0.10019583314930304
        ],
        [
            0.94,
            0.0837473242934355
        ],
        [
            0.95,
            0.07195199959446326
        ],
        [
            0.96,
            0.06857518287574914
        ],
        [
            0.97,
            0.07535207707389685
        ],
        [
            0.98,
            0.05689157807225299
        ],
        [
            0.99,
            0.06106696523795482
        ],
        [
            1.0,
            0.022193438051367406
        ]
    ],
    "4": [
        [
            0.01,
            0.34642984328123333
        ],
        [
            0.02,
            0.37644234835921087
        ],
        [
            0.03,
            0.3641446183662194
        ],
        [
            0.04,
            0.13877152360662676
        ],
        [
            0.05,
            0.07665092409917668
        ],
        [
            0.06,
            0.18214115298888295
        ],
        [
            0.07,
            0.1847351518360146
        ],
        [
            0.08,
            0.16306121117149827
        ],
        [
            0.09,
            0.1332587158875403
        ],
        [
            0.1,
            0.16380132966362382
        ],
        [
            0.11,
            0.22264300391525899
        ],
        [
            0.12,
            0.1871706120108128
        ],
        [
            0.13,
            0.1682903515837581
        ],
        [
            0.14,
            0.1689886360985645
        ],
        [
            0.15,
            0.18476709102764835
        ],
        [
            0.16,
            0.176412420039099
        ],
        [
            0.17,
            0.15245142234622752
        ],
        [
            0.18,
            0.1303947067893422
        ],
        [
            0.19,
            0.14458899140567902
        ],
        [
            0.2,
            0.13922930403189515
        ],
        [
            0.21,
            0.157120573614728
        ],
        [
            0.22,
            0.12809919257843033
        ],
        [
            0.23,
            0.16499035570730639
        ],
        [
            0.24,
            0.1517304567095765
        ],
        [
            0.25,
            0.1704866049961141
        ],
        [
            0.26,
            0.20844774464300778
        ],
        [
            0.27,
            0.21004153368969186
        ],
        [
            0.28,
            0.19382222665733173
        ],
        [
            0.29,
            0.14303822722360357
        ],
        [
            0.3,
            0.16906865537286922
        ],
        [
            0.31,
            0.1517614743973221
        ],
        [
            0.32,
            0.19990096959497944
        ],
        [
            0.33,
            0.21725767747874813
        ],
        [
            0.34,
            0.23652385787153682
        ],
        [
            0.35,
            0.21646830509164766
        ],
        [
            0.36,
            0.22229818983348062
        ],
        [
            0.37,
            0.2733361589541512
        ],
        [
            0.38,
            0.21033416612748343
        ],
        [
            0.39,
            0.16545618535627502
        ],
        [
            0.4,
            0.242411358764904
        ],
        [
            0.41,
            0.22732622944846206
        ],
        [
            0.42,
            0.21077541099305433
        ],
        [
            0.43,
            0.20750341945881237
        ],
        [
            0.44,
            0.219487950222556
        ],
        [
            0.45,
            0.21698304455593403
        ],
        [
            0.46,
            0.2071396909552501
        ],
        [
            0.47,
            0.19309677547350243
        ],
        [
            0.48,
            0.19089846402523833
        ],
        [
            0.49,
            0.21552058427880172
        ],
        [
            0.5,
            0.2305146590384137
        ],
        [
            0.51,
            0.15540263257379267
        ],
        [
            0.52,
            0.2571431133716523
        ],
        [
            0.53,
            0.23480263112682137
        ],
        [
            0.54,
            0.18661187170780294
        ],
        [
            0.55,
            0.20385609111068814
        ],
        [
            0.56,
            0.19860652294686676
        ],
        [
            0.57,
            0.22088730426233147
        ],
        [
            0.58,
            0.1980007808564335
        ],
        [
            0.59,
            0.20907634145912823
        ],
        [
            0.6,
            0.24795767585374331
        ],
        [
            0.61,
            0.19419025740951448
        ],
        [
            0.62,
            0.18976067495417756
        ],
        [
            0.63,
            0.18952537521257593
        ],
        [
            0.64,
            0.23854385725451102
        ],
        [
            0.65,
            0.21382620696979582
        ],
        [
            0.66,
            0.199471182027643
        ],
        [
            0.67,
            0.1770553702589577
        ],
        [
            0.68,
            0.15764843627992642
        ],
        [
            0.69,
            0.14224657076379396
        ],
        [
            0.7,
            0.1509775274505762
        ],
        [
            0.71,
            0.13610063232064235
        ],
        [
            0.72,
            0.11409496188779815
        ],
        [
            0.73,
            0.12008440522715252
        ],
        [
            0.74,
            0.09728383549623403
        ],
        [
            0.75,
            0.09824528416871728
        ],
        [
            0.76,
            0.07619691885685115
        ],
        [
            0.77,
            0.07311753168388162
        ],
        [
            0.78,
            0.06311736776185217
        ],
        [
            0.79,
            0.07471546918529469
        ],
        [
            0.8,
            0.063407437056484
        ],
        [
            0.81,
            0.054135405622706564
        ],
        [
            0.82,
            0.030093026938394336
        ],
        [
            0.83,
            0.03818054314829349
        ],
        [
            0.84,
            0.04792285315763962
        ],
        [
            0.85,
            0.048855980070001095
        ],
        [
            0.86,
            0.03757074364091516
        ],
        [
            0.87,
            0.0463828295719356
        ],
        [
            0.88,
            0.03793355564081026
        ],
        [
            0.89,
            0.03215389666056101
        ],
        [
            0.9,
            0.03719211448109457
        ],
        [
            0.91,
            0.028906094025464592
        ],
        [
            0.92,
            0.04117653137663415
        ],
        [
            0.93,
            0.03356135487266502
        ],
        [
            0.94,
            0.02848028056563623
        ],
        [
            0.95,
            0.021402871623038718
        ],
        [
            0.96,
            0.019458171771467418
        ],
        [
            0.97,
            0.025683610033708764
        ],
        [
            0.98,
            0.026878855762217754
        ],
        [
            0.99,
            0.01859715576125382
        ],
        [
            1.0,
            0.014608780923978482
        ]
    ],
    "6": [
        [
            0.01,
            0.4752989668546586
        ],
        [
            0.02,
            0.3993643651185515
        ],
        [
            0.03,
            0.37990947088800225
        ],
        [
            0.04,
            0.22794233050127385
        ],
        [
            0.05,
            0.11538850141895647
        ],
        [
            0.06,
            0.1107328868885206
        ],
        [
            0.07,
            0.28770782799325173
        ],
        [
            0.08,
            0.19367978873828648
        ],
        [
            0.09,
            0.30882772817780124
        ],
        [
            0.1,
            0.2584907637720613
        ],
        [
            0.11,
            0.25078884335582247
        ],
        [
            0.12,
            0.21715608565001707
        ],
        [
            0.13,
            0.2808431835051904
        ],
        [
            0.14,
            0.1870235986909758
        ],
        [
            0.15,
            0.3810128732402745
        ],
        [
            0.16,
            0.2640095913088644
        ],
        [
            0.17,
            0.1682052720392253
        ],
        [
            0.18,
            0.25719815415228925
        ],
        [
            0.19,
            0.25996384542528006
        ],
        [
            0.2,
            0.23982546756621928
        ],
        [
            0.21,
            0.2173638358660234
        ],
        [
            0.22,
            0.23269857728703214
        ],
        [
            0.23,
            0.25224179067089225
        ],
        [
            0.24,
            0.3234113795312238
        ],
        [
            0.25,
            0.2506490306237969
        ],
        [
            0.26,
            0.2645979172422727
        ],
        [
            0.27,
            0.2165986702942823
        ],
        [
            0.28,
            0.22699063900931093
        ],
        [
            0.29,
            0.18282434585249188
        ],
        [
            0.3,
            0.24410906837110813
        ],
        [
            0.31,
            0.2479095673328925
        ],
        [
            0.32,
            0.2528511095267782
        ],
        [
            0.33,
            0.23504531219529157
        ],
        [
            0.34,
            0.3092279970319505
        ],
        [
            0.35,
            0.2676140000010247
        ],
        [
            0.36,
            0.3210858295956975
        ],
        [
            0.37,
            0.24659135144931074
        ],
        [
            0.38,
            0.2329790548921227
        ],
        [
            0.39,
            0.27075092664551415
        ],
        [
            0.4,
            0.29988499900269266
        ],
        [
            0.41,
            0.23859692619120543
        ],
        [
            0.42,
            0.29564602930015493
        ],
        [
            0.43,
            0.2577602037984989
        ],
        [
            0.44,
            0.24112118396331628
        ],
        [
            0.45,
            0.2445556885656662
        ],
        [
            0.46,
            0.270097895948783
        ],
        [
            0.47,
            0.2777367122723122
        ],
        [
            0.48,
            0.2890965090094732
        ],
        [
            0.49,
            0.21753870300032616
        ],
        [
            0.5,
            0.2528594966843903
        ],
        [
            0.51,
            0.23341904948709685
        ],
        [
            0.52,
            0.25114051090406564
        ],
        [
            0.53,
            0.21063397253089763
        ],
        [
            0.54,
            0.2365389180361114
        ],
        [
            0.55,
            0.22623495961884638
        ],
        [
            0.56,
            0.22194896433608632
        ],
        [
            0.57,
            0.20654736634953352
        ],
        [
            0.58,
            0.19913674667551395
        ],
        [
            0.59,
            0.1622345063299727
        ],
        [
            0.6,
            0.2094558997212137
        ],
        [
            0.61,
            0.1997616871344118
        ],
        [
            0.62,
            0.1895159922714159
        ],
        [
            0.63,
            0.18435298389812738
        ],
        [
            0.64,
            0.16475082097766908
        ],
        [
            0.65,
            0.16566141137067475
        ],
        [
            0.66,
            0.16153907757224917
        ],
        [
            0.67,
            0.14870990383976662
        ],
        [
            0.68,
            0.14380444883327442
        ],
        [
            0.69,
            0.12416280394556944
        ],
        [
            0.7,
            0.11153648189414142
        ],
        [
            0.71,
            0.10976812153056326
        ],
        [
            0.72,
            0.10618784751124614
        ],
        [
            0.73,
            0.09811699467620633
        ],
        [
            0.74,
            0.07741494754623177
        ],
        [
            0.75,
            0.06605504449240011
        ],
        [
            0.76,
            0.06131505221972155
        ],
        [
            0.77,
            0.07531572081354873
        ],
        [
            0.78,
            0.07893757589449292
        ],
        [
            0.79,
            0.0641636002490604
        ],
        [
            0.8,
            0.08330790092936043
        ],
        [
            0.81,
            0.07313793681163772
        ],
        [
            0.82,
            0.07893143162139026
        ],
        [
            0.83,
            0.0762407173936716
        ],
        [
            0.84,
            0.08069785737470793
        ],
        [
            0.85,
            0.08575865601940931
        ],
        [
            0.86,
            0.07691113311523427
        ],
        [
            0.87,
            0.07207569206128087
        ],
        [
            0.88,
            0.06199844466165238
        ],
        [
            0.89,
            0.07223657934505852
        ],
        [
            0.9,
            0.06527330785549235
        ],
        [
            0.91,
            0.06503088468284601
        ],
        [
            0.92,
            0.0612348907189614
        ],
        [
            0.93,
            0.06499288805538478
        ],
        [
            0.94,
            0.05945630297545585
        ],
        [
            0.95,
            0.05236118662758396
        ],
        [
            0.96,
            0.051560789692077114
        ],
        [
            0.97,
            0.042741506709566904
        ],
        [
            0.98,
            0.03768945023292722
        ],
        [
            0.99,
            0.031139056529502877
        ],
        [
            1.0,
            0.015411651509219755
        ]
    ]
}