{
    "16": [
        [
            0.01,
            0.06583738812774186
        ],
        [
            0.02,
            0.028951608547449405
        ],
        [
            0.03,
            0.0210397591365871
        ],
        [
            0.04,
            0.01965577668125773
        ],
        [
            0.05,
            0.016988914372466066
        ],
        [
            0.06,
            0.01664191685228898
        ],
        [
            0.07,
            0.017156584622647856
        ],
        [
            0.08,
            0.01828540435582635
        ],
        [
            0.09,
            0.014392390627347599
        ],
        [
            0.1,
            0.015034137854532241
        ],
        [
            0.11,
            0.016284738898421323
        ],
        [
            0.12,
            0.014436446443169954
        ],
        [
            0.13,
            0.014484468520816945
        ],
        [
            0.14,
            0.014073790397990579
        ],
        [
            0.15,
            0.014307810504769234
        ],
        [
            0.16,
            0.014685624142204312
        ],
        [
            0.17,
            0.015249003149680987
        ],
        [
            0.18,
            0.01588353464183336
        ],
        [
            0.19,
            0.016548915758171186
        ],
        [
            0.2,
            0.014961336980013468
        ],
        [
            0.21,
            0.014747452395053404
        ],
        [
            0.22,
            0.015416752151929293
        ],
        [
            0.23,
            0.014756043303183601
        ],
        [
            0.24,
            0.015001924374778437
        ],
        [
            0.25,
            0.015080980541969278
        ],
        [
            0.26,
            0.014669693829928832
        ],
        [
            0.27,
            0.01430808728675074
        ],
        [
            0.28,
            0.013990146706952755
        ],
        [
            0.29,
            0.015021768160035845
        ],
        [
            0.3,
            0.014818365351884352
        ],
        [
            0.31,
            0.013707231784130384
        ],
        [
            0.32,
            0.01392178700963993
        ],
        [
            0.33,
            0.014981863273245065
        ],
        [
            0.34,
            0.014410883305590925
        ],
        [
            0.35,
            0.014273313055876006
        ],
        [
            0.36,
            0.014337423978189113
        ],
        [
            0.37,
            0.014165827835944358
        ],
        [
            0.38,
            0.014774643096551219
        ],
        [
            0.39,
            0.0142165115091892
        ],
        [
            0.4,
            0.014078769750151777
        ],
        [
            0.41,
            0.014284203569094952
        ],
        [
            0.42,
            0.014197157087050835
        ],
        [
            0.43,
            0.014118229731293766
        ],
        [
            0.44,
            0.01406019493691687
        ],
        [
            0.45,
            0.013770829795348119
        ],
        [
            0.46,
            0.01346421592256211
        ],
        [
            0.47,
            0.013482176422271792
        ],
        [
            0.48,
            0.013733762416320308
        ],
        [
            0.49,
            0.013303559790574751
        ],
        [
            0.5,
            0.013931346645307983
        ],
        [
            0.51,
            0.013789275716082442
        ],
        [
            0.52,
            0.014194787691077074
        ],
        [
            0.53,
            0.01325163190921711
        ],
        [
            0.54,
            0.0139483832926773
        ],
        [
            0.55,
            0.013300313926358534
        ],
        [
            0.56,
            0.013517334375005787
        ],
        [
            0.57,
            0.013423395179156852
        ],
        [
            0.58,
            0.01368115508431071
        ],
        [
            0.59,
            0.013416093852243328
        ],
        [
            0.6,
            0.013397578121984095
        ],
        [
            0.61,
            0.013621960405573478
        ],
        [
            0.62,
            0.013393098259837666
        ],
        [
            0.63,
            0.013550201150368035
        ],
        [
            0.64,
            0.01326293539394495
        ],
        [
            0.65,
            0.012903345176100976
        ],
        [
            0.66,
            0.01315314345475069
        ],
        [
            0.67,
            0.012902870507622
        ],
        [
            0.68,
            0.01270151311833013
        ],
        [
            0.69,
            0.012512190305638698
        ],
        [
            0.7,
            0.012543438615726892
        ],
        [
            0.71,
            0.012474053968900374
        ],
        [
            0.72,
            0.01240706567143497
        ],
        [
            0.73,
            0.012535310239707628
        ],
        [
            0.74,
            0.012205511338388715
        ],
        [
            0.75,
            0.012102083351255701
        ],
        [
            0.76,
            0.012062517847357616
        ],
        [
            0.77,
            0.01181063884800024
        ],
        [
            0.78,
            0.01182227638133611
        ],
        [
            0.79,
            0.011813565334738447
        ],
        [
            0.8,
            0.011707895278211235
        ],
        [
            0.81,
            0.011682969599812448
        ],
        [
            0.82,
            0.011468664852790755
        ],
        [
            0.83,
            0.011475460685408176
        ],
        [
            0.84,
            0.011418366977773917
        ],
        [
            0.85,
            0.011315743564663529
        ],
        [
            0.86,
            0.011290262400920273
        ],
        [
            0.87,
            0.011307006699851588
        ],
        [
            0.88,
            0.01116079522680956
        ],
        [
            0.89,
            0.011091688225291045
        ],
        [
            0.9,
            0.011074220913825171
        ],
        [
            0.91,
            0.0111109044228123
        ],
        [
            0.92,
            0.011143433865183837
        ],
        [
            0.93,
            0.011063332734495196
        ],
        [
            0.94,
            0.011073976726547722
        ],
        [
            0.95,
            0.010974701307835106
        ],
        [
            0.96,
            0.01098357850260673
        ],
        [
            0.97,
            0.010845027111642432
        ],
        [
            0.98,
            0.01074005832240799
        ],
        [
            0.99,
            0.010587424928090337
        ],
        [
            1.0,
            0.010301081295206427
        ]
    ],
    "64": [
        [
            0.01,
            0.08930062419982611
        ],
        [
            0.02,
            0.03474411778951609
        ],
        [
            0.03,
            0.025356580024461298
        ],
        [
            0.04,
            0.02288661795555452
        ],
        [
            0.05,
            0.021245836459227337
        ],
        [
            0.06,
            0.020248144043376704
        ],
        [
            0.07,
            0.01975084277503935
        ],
        [
            0.08,
            0.019421583506980793
        ],
        [
            0.09,
            0.01779425878838168
        ],
        [
            0.1,
            0.016847347427526332
        ],
        [
            0.11,
            0.016870254200807556
        ],
        [
            0.12,
            0.015500553666469127
        ],
        [
            0.13,
            0.01645161236386012
        ],
        [
            0.14,
            0.01891625569633769
        ],
        [
            0.15,
            0.018297941411947634
        ],
        [
            0.16,
            0.01706564106746659
        ],
        [
            0.17,
            0.01688099185550799
        ],
        [
            0.18,
            0.01672637600283164
        ],
        [
            0.19,
            0.017282676249256727
        ],
        [
            0.2,
            0.016635980460847417
        ],
        [
            0.21,
            0.016440826102740856
        ],
        [
            0.22,
            0.015778487039796577
        ],
        [
            0.23,
            0.016662820290511367
        ],
        [
            0.24,
            0.015774561479158036
        ],
        [
            0.25,
            0.015999912537673022
        ],
        [
            0.26,
            0.015714979841537663
        ],
        [
            0.27,
            0.0159946595740313
        ],
        [
            0.28,
            0.01577771024725967
        ],
        [
            0.29,
            0.01549048516188927
        ],
        [
            0.3,
            0.016399003250179008
        ],
        [
            0.31,
            0.01576637139409844
        ],
        [
            0.32,
            0.01567299872301056
        ],
        [
            0.33,
            0.015855820751938258
        ],
        [
            0.34,
            0.016316821103153984
        ],
        [
            0.35,
            0.015399918062433399
        ],
        [
            0.36,
            0.0153670055527019
        ],
        [
            0.37,
            0.015569244848193069
        ],
        [
            0.38,
            0.015686229048548488
        ],
        [
            0.39,
            0.015829412599466693
        ],
        [
            0.4,
            0.015594438708381713
        ],
        [
            0.41,
            0.01517133237019764
        ],
        [
            0.42,
            0.01513354328651703
        ],
        [
            0.43,
            0.01498415878407758
        ],
        [
            0.44,
            0.014646524777815778
        ],
        [
            0.45,
            0.014835398131984125
        ],
        [
            0.46,
            0.01404365225357195
        ],
        [
            0.47,
            0.014811993246881334
        ],
        [
            0.48,
            0.014223944140714585
        ],
        [
            0.49,
            0.015152396179439158
        ],
        [
            0.5,
            0.01495803917920588
        ],
        [
            0.51,
            0.014830427500254635
        ],
        [
            0.52,
            0.014861409761610208
        ],
        [
            0.53,
            0.01465621108131477
        ],
        [
            0.54,
            0.014250010079578594
        ],
        [
            0.55,
            0.014345487497753637
        ],
        [
            0.56,
            0.01415686560077241
        ],
        [
            0.57,
            0.01463488338246942
        ],
        [
            0.58,
            0.014132464888503388
        ],
        [
            0.59,
            0.014098804808817292
        ],
        [
            0.6,
            0.01433215889667716
        ],
        [
            0.61,
            0.013800185591949331
        ],
        [
            0.62,
            0.013776153833555026
        ],
        [
            0.63,
            0.013802596922676448
        ],
        [
            0.64,
            0.013675785504843881
        ],
        [
            0.65,
            0.01360272609761461
        ],
        [
            0.66,
            0.013259233395961691
        ],
        [
            0.67,
            0.013476615841239417
        ],
        [
            0.68,
            0.013156972141482074
        ],
        [
            0.69,
            0.013053781006932972
        ],
        [
            0.7,
            0.01300725532803646
        ],
        [
            0.71,
            0.013268103842741215
        ],
        [
            0.72,
            0.01311788945001871
        ],
        [
            0.73,
            0.012884668578306535
        ],
        [
            0.74,
            0.01276538220716818
        ],
        [
            0.75,
            0.012481267197688528
        ],
        [
            0.76,
            0.012473008876569228
        ],
        [
            0.77,
            0.01228987845688057
        ],
        [
            0.78,
            0.012311414066288395
        ],
        [
            0.79,
            0.01224383520916994
        ],
        [
            0.8,
            0.012045022333357455
        ],
        [
            0.81,
            0.011961306381314903
        ],
        [
            0.82,
            0.011870421620043701
        ],
        [
            0.83,
            0.011737739164734322
        ],
        [
            0.84,
            0.011718930945195702
        ],
        [
            0.85,
            0.01161438716276461
        ],
        [
            0.86,
            0.011568563265422528
        ],
        [
            0.87,
            0.01151675302498415
        ],
        [
            0.88,
            0.011336756464366427
        ],
        [
            0.89,
            0.01133604184768288
        ],
        [
            0.9,
            0.01130451303608386
        ],
        [
            0.91,
            0.011287009432296918
        ],
        [
            0.92,
            0.011265460232066813
        ],
        [
            0.93,
            0.011273405563051323
        ],
        [
            0.94,
            0.011282654358320644
        ],
        [
            0.95,
            0.011172899800121903
        ],
        [
            0.96,
            0.01111597270521892
        ],
        [
            0.97,
            0.011013051435336624
        ],
        [
            0.98,
            0.010927217394243934
        ],
        [
            0.99,
            0.010722047834005675
        ],
        [
            1.0,
            0.010332143000066185
        ]
    ],
    "256": [
        [
            0.01,
            0.08666455538285556
        ],
        [
            0.02,
            0.03817538927365658
        ],
        [
            0.03,
            0.027837598807821974
        ],
        [
            0.04,
            0.024970305485247205
        ],
        [
            0.05,
            0.02218641946322671
        ],
        [
            0.06,
            0.020053775795340626
        ],
        [
            0.07,
            0.01935088477167329
        ],
        [
            0.08,
            0.020672922207539912
        ],
        [
            0.09,
            0.019817890500348833
        ],
        [
            0.1,
            0.017800386287715835
        ],
        [
            0.11,
            0.01654526146425356
        ],
        [
            0.12,
            0.017306532215326763
        ],
        [
            0.13,
            0.020701511202136837
        ],
        [
            0.14,
            0.019422447234317675
        ],
        [
            0.15,
            0.018369966234825258
        ],
        [
            0.16,
            0.016906288709746788
        ],
        [
            0.17,
            0.01832541989976683
        ],
        [
            0.18,
            0.017607190013847543
        ],
        [
            0.19,
            0.017897245359198243
        ],
        [
            0.2,
            0.016133640165317535
        ],
        [
            0.21,
            0.016011455490241275
        ],
        [
            0.22,
            0.016670951482662358
        ],
        [
            0.23,
            0.017657243155459305
        ],
        [
            0.24,
            0.015813089957886526
        ],
        [
            0.25,
            0.016199377942604752
        ],
        [
            0.26,
            0.01718377149950159
        ],
        [
            0.27,
            0.015816439727683367
        ],
        [
            0.28,
            0.016155609849679987
        ],
        [
            0.29,
            0.016091597639715568
        ],
        [
            0.3,
            0.0160863798526512
        ],
        [
            0.31,
            0.016341279042192097
        ],
        [
            0.32,
            0.015986724171802733
        ],
        [
            0.33,
            0.01626400288679169
        ],
        [
            0.34,
            0.016537064182899495
        ],
        [
            0.35,
            0.015587915294425894
        ],
        [
            0.36,
            0.01587501845923278
        ],
        [
            0.37,
            0.015974183491994073
        ],
        [
            0.38,
            0.016336742118283874
        ],
        [
            0.39,
            0.016187278146467452
        ],
        [
            0.4,
            0.01566471953030745
        ],
        [
            0.41,
            0.015474082676319043
        ],
        [
            0.42,
            0.015571027682357592
        ],
        [
            0.43,
            0.014947007799048943
        ],
        [
            0.44,
            0.014985185469741981
        ],
        [
            0.45,
            0.014900697182962396
        ],
        [
            0.46,
            0.015040610088715718
        ],
        [
            0.47,
            0.014848422556208652
        ],
        [
            0.48,
            0.01491198665578562
        ],
        [
            0.49,
            0.01567535349608875
        ],
        [
            0.5,
            0.0151509439008048
        ],
        [
            0.51,
            0.014821183666037279
        ],
        [
            0.52,
            0.015013561195495798
        ],
        [
            0.53,
            0.014960034611682414
        ],
        [
            0.54,
            0.014368393397195737
        ],
        [
            0.55,
            0.014679474240398088
        ],
        [
            0.56,
            0.014574430615312963
        ],
        [
            0.57,
            0.015226885120613641
        ],
        [
            0.58,
            0.014360030496930026
        ],
        [
            0.59,
            0.014504856960308938
        ],
        [
            0.6,
            0.014487401941963705
        ],
        [
            0.61,
            0.014587265275817921
        ],
        [
            0.62,
            0.014147972170378017
        ],
        [
            0.63,
            0.014139188137537081
        ],
        [
            0.64,
            0.013956335478631614
        ],
        [
            0.65,
            0.013931363451888583
        ],
        [
            0.66,
            0.013718806043728528
        ],
        [
            0.67,
            0.013660031594276704
        ],
        [
            0.68,
            0.013271307755973506
        ],
        [
            0.69,
            0.013367636639597984
        ],
        [
            0.7,
            0.013398992491449574
        ],
        [
            0.71,
            0.01360002676196162
        ],
        [
            0.72,
            0.013521743188184986
        ],
        [
            0.73,
            0.013114624997304418
        ],
        [
            0.74,
            0.012985256122192911
        ],
        [
            0.75,
            0.012876482953661015
        ],
        [
            0.76,
            0.012890828468067099
        ],
        [
            0.77,
            0.012579172556955186
        ],
        [
            0.78,
            0.012690286352060097
        ],
        [
            0.79,
            0.012543842129817148
        ],
        [
            0.8,
            0.01236463826057193
        ],
        [
            0.81,
            0.01223195721877953
        ],
        [
            0.82,
            0.012088157300762572
        ],
        [
            0.83,
            0.01199315309607541
        ],
        [
            0.84,
            0.011964362940996624
        ],
        [
            0.85,
            0.01189704690541101
        ],
        [
            0.86,
            0.011763304201680876
        ],
        [
            0.87,
            0.011669622370295481
        ],
        [
            0.88,
            0.01155256120106917
        ],
        [
            0.89,
            0.011556880182842294
        ],
        [
            0.9,
            0.011542255099112204
        ],
        [
            0.91,
            0.011425259170233912
        ],
        [
            0.92,
            0.011400772791945311
        ],
        [
            0.93,
            0.01139616701676742
        ],
        [
            0.94,
            0.011362122845491715
        ],
        [
            0.95,
            0.01126732514476564
        ],
        [
            0.96,
            0.011207510130459754
        ],
        [
            0.97,
            0.011138709410249994
        ],
        [
            0.98,
            0.010919469203495964
        ],
        [
            0.99,
            0.010935117888330336
        ],
        [
            1.0,
            0.010433621961218203
        ]
    ]
}