{
    "2": [
        [
            0.01,
            0.03485075370302516
        ],
        [
            0.02,
            0.04307754027735574
        ],
        [
            0.03,
            0.01906506920618245
        ],
        [
            0.04,
            0.021382538910371247
        ],
        [
            0.05,
            0.026395256857083587
        ],
        [
            0.06,
            0.018478467853457435
        ],
        [
            0.07,
            0.023457950841463186
        ],
        [
            0.08,
            0.019762976750922687
        ],
        [
            0.09,
            0.018108971765483668
        ],
        [
            0.1,
            0.018959134544424175
        ],
        [
            0.11,
            0.021873123360025396
        ],
        [
            0.12,
            0.020382377539973576
        ],
        [
            0.13,
            0.019158590439203236
        ],
        [
            0.14,
            0.02104134815774408
        ],
        [
            0.15,
            0.02040256489966379
        ],
        [
            0.16,
            0.018833912393365432
        ],
        [
            0.17,
            0.020609486510369177
        ],
        [
            0.18,
            0.019033155054374935
        ],
        [
            0.19,
            0.01827056957277141
        ],
        [
            0.2,
            0.019340120907913625
        ],
        [
            0.21,
            0.01743398826977912
        ],
        [
            0.22,
            0.0187700723220352
        ],
        [
            0.23,
            0.015660894175644726
        ],
        [
            0.24,
            0.01545005575215502
        ],
        [
            0.25,
            0.014012306330795525
        ],
        [
            0.26,
            0.015471655952879903
        ],
        [
            0.27,
            0.014762616634011039
        ],
        [
            0.28,
            0.014184401071179197
        ],
        [
            0.29,
            0.01411435328326443
        ],
        [
            0.3,
            0.013765792711687583
        ],
        [
            0.31,
            0.013751461468249935
        ],
        [
            0.32,
            0.01292044329047268
        ],
        [
            0.33,
            0.013384782707424853
        ],
        [
            0.34,
            0.012446194590220087
        ],
        [
            0.35,
            0.013288722240162075
        ],
        [
            0.36,
            0.012898279538609395
        ],
        [
            0.37,
            0.012619749161725147
        ],
        [
            0.38,
            0.012237546410477966
        ],
        [
            0.39,
            0.012284269640011242
        ],
        [
            0.4,
            0.012642075239444791
        ],
        [
            0.41,
            0.01178216765856034
        ],
        [
            0.42,
            0.011701471512231467
        ],
        [
            0.43,
            0.011775738915322354
        ],
        [
            0.44,
            0.011195901484535847
        ],
        [
            0.45,
            0.011149837421974569
        ],
        [
            0.46,
            0.010430328790239234
        ],
        [
            0.47,
            0.010344068756435655
        ],
        [
            0.48,
            0.01036705988183603
        ],
        [
            0.49,
            0.010344899899918896
        ],
        [
            0.5,
            0.010297319738352056
        ],
        [
            0.51,
            0.010715372487423722
        ],
        [
            0.52,
            0.009973111023210295
        ],
        [
            0.53,
            0.009976629200863521
        ],
        [
            0.54,
            0.010548135666242946
        ],
        [
            0.55,
            0.01002659312809614
        ],
        [
            0.56,
            0.009924183444533437
        ],
        [
            0.57,
            0.009924952579840407
        ],
        [
            0.58,
            0.009837437238930772
        ],
        [
            0.59,
            0.009955702757093537
        ],
        [
            0.6,
            0.010074959499409989
        ],
        [
            0.61,
            0.010030836855909638
        ],
        [
            0.62,
            0.010129544880604578
        ],
        [
            0.63,
            0.010216017827803936
        ],
        [
            0.64,
            0.010007466796697595
        ],
        [
            0.65,
            0.009727902194812588
        ],
        [
            0.66,
            0.009746618296239584
        ],
        [
            0.67,
            0.009708025246512446
        ],
        [
            0.68,
            0.009947760696061896
        ],
        [
            0.69,
            0.009710712521291784
        ],
        [
            0.7,
            0.009830890444027348
        ],
        [
            0.71,
            0.009783561609360837
        ],
        [
            0.72,
            0.009755330103244217
        ],
        [
            0.73,
            0.009918007016193229
        ],
        [
            0.74,
            0.010114228189964769
        ],
        [
            0.75,
            0.009720575862314416
        ],
        [
            0.76,
            0.009645775404864838
        ],
        [
            0.77,
            0.009872946262659516
        ],
        [
            0.78,
            0.009758285421371657
        ],
        [
            0.79,
            0.00970711408363037
        ],
        [
            0.8,
            0.009903571450355675
        ],
        [
            0.81,
            0.00977958425773461
        ],
        [
            0.82,
            0.010014270761068603
        ],
        [
            0.83,
            0.00992460640439209
        ],
        [
            0.84,
            0.010214740566796152
        ],
        [
            0.85,
            0.009953820018046983
        ],
        [
            0.86,
            0.010097095449090415
        ],
        [
            0.87,
            0.010146183067063226
        ],
        [
            0.88,
            0.010171836825441134
        ],
        [
            0.89,
            0.01034029952561875
        ],
        [
            0.9,
            0.010417647446224055
        ],
        [
            0.91,
            0.0105203856051058
        ],
        [
            0.92,
            0.010180153517627135
        ],
        [
            0.93,
            0.010587993608344032
        ],
        [
            0.94,
            0.010412243786167813
        ],
        [
            0.95,
            0.01058389916627512
        ],
        [
            0.96,
            0.010439628507793907
        ],
        [
            0.97,
            0.010483368231769135
        ],
        [
            0.98,
            0.010224865967142673
        ],
        [
            0.99,
            0.010405393325299089
        ],
        [
            1.0,
            0.010252286066739502
        ]
    ],
    "4": [
        [
            0.01,
            0.050139833748870676
        ],
        [
            0.02,
            0.028714389310616064
        ],
        [
            0.03,
            0.023366523180010142
        ],
        [
            0.04,
            0.01737694052603612
        ],
        [
            0.05,
            0.02071011509585735
        ],
        [
            0.06,
            0.019428415794072864
        ],
        [
            0.07,
            0.017935555503942824
        ],
        [
            0.08,
            0.016641123679128192
        ],
        [
            0.09,
            0.020212115575664973
        ],
        [
            0.1,
            0.01870245214071329
        ],
        [
            0.11,
            0.015034929007866946
        ],
        [
            0.12,
            0.02162623525329453
        ],
        [
            0.13,
            0.019669217887213587
        ],
        [
            0.14,
            0.020744761749346394
        ],
        [
            0.15,
            0.022445937748839222
        ],
        [
            0.16,
            0.021930163858753113
        ],
        [
            0.17,
            0.017857257283611646
        ],
        [
            0.18,
            0.020420109091763557
        ],
        [
            0.19,
            0.019899268183953607
        ],
        [
            0.2,
            0.01766839070282222
        ],
        [
            0.21,
            0.01728989098152746
        ],
        [
            0.22,
            0.017847588121350767
        ],
        [
            0.23,
            0.01982634647169939
        ],
        [
            0.24,
            0.01705032900481199
        ],
        [
            0.25,
            0.0181152309210562
        ],
        [
            0.26,
            0.017897185146569062
        ],
        [
            0.27,
            0.016144105510939182
        ],
        [
            0.28,
            0.018424386327701735
        ],
        [
            0.29,
            0.013797656303347155
        ],
        [
            0.3,
            0.016958174133991054
        ],
        [
            0.31,
            0.016308144394712853
        ],
        [
            0.32,
            0.01597177473126447
        ],
        [
            0.33,
            0.014741072293856176
        ],
        [
            0.34,
            0.01361554095373299
        ],
        [
            0.35,
            0.014358260584933237
        ],
        [
            0.36,
            0.01489981409811209
        ],
        [
            0.37,
            0.015998487311598964
        ],
        [
            0.38,
            0.012505245896013636
        ],
        [
            0.39,
            0.014641594845302839
        ],
        [
            0.4,
            0.015366992503721482
        ],
        [
            0.41,
            0.013673554069286858
        ],
        [
            0.42,
            0.013655610374998123
        ],
        [
            0.43,
            0.013336914758639979
        ],
        [
            0.44,
            0.01173609633850704
        ],
        [
            0.45,
            0.012889222007977397
        ],
        [
            0.46,
            0.012264766530533473
        ],
        [
            0.47,
            0.012089921691118877
        ],
        [
            0.48,
            0.012617478967726583
        ],
        [
            0.49,
            0.011963011343646551
        ],
        [
            0.5,
            0.012084534560172389
        ],
        [
            0.51,
            0.012906515127580951
        ],
        [
            0.52,
            0.01192328274751673
        ],
        [
            0.53,
            0.014595810827700288
        ],
        [
            0.54,
            0.014856756819028772
        ],
        [
            0.55,
            0.012757884734880695
        ],
        [
            0.56,
            0.011559857031738233
        ],
        [
            0.57,
            0.012544015080875695
        ],
        [
            0.58,
            0.012275592676023937
        ],
        [
            0.59,
            0.012109002524753776
        ],
        [
            0.6,
            0.011769972484745662
        ],
        [
            0.61,
            0.012211109579314894
        ],
        [
            0.62,
            0.012345413261028403
        ],
        [
            0.63,
            0.011950102519040877
        ],
        [
            0.64,
            0.012036493297317014
        ],
        [
            0.65,
            0.0112163155809474
        ],
        [
            0.66,
            0.011016069508357417
        ],
        [
            0.67,
            0.011204034556531713
        ],
        [
            0.68,
            0.011922743815752302
        ],
        [
            0.69,
            0.011541712487834232
        ],
        [
            0.7,
            0.011458951069432694
        ],
        [
            0.71,
            0.011033869977894226
        ],
        [
            0.72,
            0.01223527456604559
        ],
        [
            0.73,
            0.01133159982814026
        ],
        [
            0.74,
            0.0112210730357131
        ],
        [
            0.75,
            0.011605259581294096
        ],
        [
            0.76,
            0.011476156375410095
        ],
        [
            0.77,
            0.011052824923282266
        ],
        [
            0.78,
            0.010788355447265849
        ],
        [
            0.79,
            0.010859810373466457
        ],
        [
            0.8,
            0.010726841553435255
        ],
        [
            0.81,
            0.010617580547312986
        ],
        [
            0.82,
            0.010971891313435607
        ],
        [
            0.83,
            0.010512155282126024
        ],
        [
            0.84,
            0.010702962797361241
        ],
        [
            0.85,
            0.010762221196569824
        ],
        [
            0.86,
            0.01064074701458863
        ],
        [
            0.87,
            0.010626453887490053
        ],
        [
            0.88,
            0.010775708944938714
        ],
        [
            0.89,
            0.010634469957928288
        ],
        [
            0.9,
            0.010735108170207666
        ],
        [
            0.91,
            0.01105336928640911
        ],
        [
            0.92,
            0.010676303046961435
        ],
        [
            0.93,
            0.010518101441489177
        ],
        [
            0.94,
            0.010633438943553033
        ],
        [
            0.95,
            0.010428704544498842
        ],
        [
            0.96,
            0.010448201669032316
        ],
        [
            0.97,
            0.010476471814140053
        ],
        [
            0.98,
            0.010342775011365346
        ],
        [
            0.99,
            0.010282278688617365
        ],
        [
            1.0,
            0.010196553378212845
        ]
    ],
    "6": [
        [
            0.01,
            0.044399656268269035
        ],
        [
            0.02,
            0.030689873261533822
        ],
        [
            0.03,
            0.03146151750169984
        ],
        [
            0.04,
            0.023080431723687185
        ],
        [
            0.05,
            0.02017681042480708
        ],
        [
            0.06,
            0.017405333710467735
        ],
        [
            0.07,
            0.01842419865876252
        ],
        [
            0.08,
            0.016792068717858957
        ],
        [
            0.09,
            0.017672976188992787
        ],
        [
            0.1,
            0.020302810896151397
        ],
        [
            0.11,
            0.0184965555117463
        ],
        [
            0.12,
            0.018586103809213085
        ],
        [
            0.13,
            0.017013414858353525
        ],
        [
            0.14,
            0.017092137030331654
        ],
        [
            0.15,
            0.023299149803532326
        ],
        [
            0.16,
            0.018888133265351322
        ],
        [
            0.17,
            0.0194771372613162
        ],
        [
            0.18,
            0.01821240576840551
        ],
        [
            0.19,
            0.021831186719854928
        ],
        [
            0.2,
            0.01826598619886508
        ],
        [
            0.21,
            0.01635566594556736
        ],
        [
            0.22,
            0.01715052239689168
        ],
        [
            0.23,
            0.015158680641361886
        ],
        [
            0.24,
            0.017987298903700818
        ],
        [
            0.25,
            0.014970584238166216
        ],
        [
            0.26,
            0.017946104175702172
        ],
        [
            0.27,
            0.01713298613560303
        ],
        [
            0.28,
            0.01563469429999903
        ],
        [
            0.29,
            0.013968634910403743
        ],
        [
            0.3,
            0.01366278226321763
        ],
        [
            0.31,
            0.01595660009166012
        ],
        [
            0.32,
            0.014952250181896307
        ],
        [
            0.33,
            0.013396101012143391
        ],
        [
            0.34,
            0.013938533081837432
        ],
        [
            0.35,
            0.014008421105935528
        ],
        [
            0.36,
            0.013143048127853522
        ],
        [
            0.37,
            0.013502483915656189
        ],
        [
            0.38,
            0.012269786755398086
        ],
        [
            0.39,
            0.01192475992991981
        ],
        [
            0.4,
            0.012158247906970468
        ],
        [
            0.41,
            0.012511273877528723
        ],
        [
            0.42,
            0.01265678048701249
        ],
        [
            0.43,
            0.013813959690018867
        ],
        [
            0.44,
            0.013239186067326434
        ],
        [
            0.45,
            0.013315444563496804
        ],
        [
            0.46,
            0.012930010551460308
        ],
        [
            0.47,
            0.013369269316705824
        ],
        [
            0.48,
            0.013579850766221929
        ],
        [
            0.49,
            0.012539338283660493
        ],
        [
            0.5,
            0.013773646053127475
        ],
        [
            0.51,
            0.012575425201756063
        ],
        [
            0.52,
            0.012432595037970515
        ],
        [
            0.53,
            0.01291863587334612
        ],
        [
            0.54,
            0.01239924508046249
        ],
        [
            0.55,
            0.011910086937260266
        ],
        [
            0.56,
            0.012401863712766624
        ],
        [
            0.57,
            0.011595654412709886
        ],
        [
            0.58,
            0.01171306083879074
        ],
        [
            0.59,
            0.012273567404386461
        ],
        [
            0.6,
            0.012016242654038068
        ],
        [
            0.61,
            0.012351011312319419
        ],
        [
            0.62,
            0.012198463204142187
        ],
        [
            0.63,
            0.011611710484439888
        ],
        [
            0.64,
            0.012224349816089315
        ],
        [
            0.65,
            0.011813831264527975
        ],
        [
            0.66,
            0.011142847751932954
        ],
        [
            0.67,
            0.011323492080173738
        ],
        [
            0.68,
            0.011470823547337923
        ],
        [
            0.69,
            0.01121908531958746
        ],
        [
            0.7,
            0.011263623787225186
        ],
        [
            0.71,
            0.011214251908153615
        ],
        [
            0.72,
            0.011625729539327695
        ],
        [
            0.73,
            0.011392380975260564
        ],
        [
            0.74,
            0.011299932166328476
        ],
        [
            0.75,
            0.011246114067084246
        ],
        [
            0.76,
            0.011188804800682062
        ],
        [
            0.77,
            0.011119214038147116
        ],
        [
            0.78,
            0.011396877642741608
        ],
        [
            0.79,
            0.01115916227570687
        ],
        [
            0.8,
            0.01100179473863543
        ],
        [
            0.81,
            0.010981450280067927
        ],
        [
            0.82,
            0.011090964543540345
        ],
        [
            0.83,
            0.011110069110973845
        ],
        [
            0.84,
            0.010869262277665675
        ],
        [
            0.85,
            0.010818145081894525
        ],
        [
            0.86,
            0.010888656919621494
        ],
        [
            0.87,
            0.01066070641518746
        ],
        [
            0.88,
            0.010650647499877257
        ],
        [
            0.89,
            0.01061954683679174
        ],
        [
            0.9,
            0.010637696604982873
        ],
        [
            0.91,
            0.010451868884974258
        ],
        [
            0.92,
            0.010630718362576699
        ],
        [
            0.93,
            0.01053418655512958
        ],
        [
            0.94,
            0.010491731648423605
        ],
        [
            0.95,
            0.010423262421170656
        ],
        [
            0.96,
            0.01027270419807359
        ],
        [
            0.97,
            0.010226865939627721
        ],
        [
            0.98,
            0.010151244975758837
        ],
        [
            0.99,
            0.010163567308013214
        ],
        [
            1.0,
            0.010139447138144986
        ]
    ]
}