{
    "16": [
        [
            0.01,
            0.03723468395431163
        ],
        [
            0.02,
            0.016656727892877473
        ],
        [
            0.03,
            0.02099812262914429
        ],
        [
            0.04,
            0.009238937591216216
        ],
        [
            0.05,
            0.008549982483855167
        ],
        [
            0.06,
            0.009265411716551231
        ],
        [
            0.07,
            0.008150536499023161
        ],
        [
            0.08,
            0.010425746368531021
        ],
        [
            0.09,
            0.006113130856195432
        ],
        [
            0.1,
            0.011202189903788469
        ],
        [
            0.11,
            0.007868040224106069
        ],
        [
            0.12,
            0.008642779911315256
        ],
        [
            0.13,
            0.01252821159832856
        ],
        [
            0.14,
            0.028077155344156512
        ],
        [
            0.15,
            0.021711598591363446
        ],
        [
            0.16,
            0.027234665970325388
        ],
        [
            0.17,
            0.0367403785031349
        ],
        [
            0.18,
            0.023160704605662077
        ],
        [
            0.19,
            0.06093968513427359
        ],
        [
            0.2,
            0.02813472599805275
        ],
        [
            0.21,
            0.03353686631481646
        ],
        [
            0.22,
            0.03193251574707347
        ],
        [
            0.23,
            0.023407665886395434
        ],
        [
            0.24,
            0.03894399860216555
        ],
        [
            0.25,
            0.08869488033959448
        ],
        [
            0.26,
            0.09563479843106637
        ],
        [
            0.27,
            0.1249230462928631
        ],
        [
            0.28,
            0.11240715760166804
        ],
        [
            0.29,
            0.14467390368157482
        ],
        [
            0.3,
            0.12578910454028921
        ],
        [
            0.31,
            0.10099041723141423
        ],
        [
            0.32,
            0.10113691538988866
        ],
        [
            0.33,
            0.18739434009389092
        ],
        [
            0.34,
            0.1572788673905148
        ],
        [
            0.35,
            0.12415829421069413
        ],
        [
            0.36,
            0.15128689763147252
        ],
        [
            0.37,
            0.1687452655493491
        ],
        [
            0.38,
            0.19229103462461417
        ],
        [
            0.39,
            0.18848124268738867
        ],
        [
            0.4,
            0.1388959452063332
        ],
        [
            0.41,
            0.152656144740328
        ],
        [
            0.42,
            0.1682563115567291
        ],
        [
            0.43,
            0.16339784436525626
        ],
        [
            0.44,
            0.1298153463128188
        ],
        [
            0.45,
            0.16631534154774183
        ],
        [
            0.46,
            0.18942957002694857
        ],
        [
            0.47,
            0.16353931514038922
        ],
        [
            0.48,
            0.14673089594270328
        ],
        [
            0.49,
            0.17025797977730608
        ],
        [
            0.5,
            0.16433745380405124
        ],
        [
            0.51,
            0.13142234448695883
        ],
        [
            0.52,
            0.2044360398163948
        ],
        [
            0.53,
            0.21093557680672695
        ],
        [
            0.54,
            0.21120557695966194
        ],
        [
            0.55,
            0.21995587693278362
        ],
        [
            0.56,
            0.12837057667012097
        ],
        [
            0.57,
            0.11976753277543445
        ],
        [
            0.58,
            0.19205962472928628
        ],
        [
            0.59,
            0.12382859133205704
        ],
        [
            0.6,
            0.15387486234275397
        ],
        [
            0.61,
            0.1845679754624214
        ],
        [
            0.62,
            0.20992215085938723
        ],
        [
            0.63,
            0.1822439907037559
        ],
        [
            0.64,
            0.147296210512539
        ],
        [
            0.65,
            0.2294015379889063
        ],
        [
            0.66,
            0.15870260229636465
        ],
        [
            0.67,
            0.17467782134527196
        ],
        [
            0.68,
            0.1743084131521792
        ],
        [
            0.69,
            0.18543210802333726
        ],
        [
            0.7,
            0.23058128065769865
        ],
        [
            0.71,
            0.17036918562618106
        ],
        [
            0.72,
            0.16133328099146238
        ],
        [
            0.73,
            0.1962291278361179
        ],
        [
            0.74,
            0.2145305753794893
        ],
        [
            0.75,
            0.18713254186103287
        ],
        [
            0.76,
            0.16366712769956862
        ],
        [
            0.77,
            0.17047071471506364
        ],
        [
            0.78,
            0.1386974538463245
        ],
        [
            0.79,
            0.11237062959189442
        ],
        [
            0.8,
            0.09255473923870541
        ],
        [
            0.81,
            0.040836143775522804
        ],
        [
            0.82,
            0.024276609232565347
        ],
        [
            0.83,
            0.02163129071493333
        ],
        [
            0.84,
            0.01821728618676738
        ],
        [
            0.85,
            0.01711625534717071
        ],
        [
            0.86,
            0.01577786302811894
        ],
        [
            0.87,
            0.016501192581836716
        ],
        [
            0.88,
            0.01533818763609983
        ],
        [
            0.89,
            0.014668689191032829
        ],
        [
            0.9,
            0.014494679005353606
        ],
        [
            0.91,
            0.014322645770845523
        ],
        [
            0.92,
            0.013287829820219536
        ],
        [
            0.93,
            0.012032631761371796
        ],
        [
            0.94,
            0.011137774071367304
        ],
        [
            0.95,
            0.011010252523078011
        ],
        [
            0.96,
            0.011082190894827492
        ],
        [
            0.97,
            0.01112297120570416
        ],
        [
            0.98,
            0.010974899644593627
        ],
        [
            0.99,
            0.010817888103234183
        ],
        [
            1.0,
            0.010411441806392493
        ]
    ],
    "64": [
        [
            0.01,
            0.030464717198305583
        ],
        [
            0.02,
            0.014328986787278874
        ],
        [
            0.03,
            0.015943128762453407
        ],
        [
            0.04,
            0.00850665050551725
        ],
        [
            0.05,
            0.009344448527150672
        ],
        [
            0.06,
            0.00809509987258538
        ],
        [
            0.07,
            0.006470752618239289
        ],
        [
            0.08,
            0.008719476283414771
        ],
        [
            0.09,
            0.006069500560837029
        ],
        [
            0.1,
            0.009774096090388346
        ],
        [
            0.11,
            0.0063264554961568855
        ],
        [
            0.12,
            0.008753474676260826
        ],
        [
            0.13,
            0.01080291755178761
        ],
        [
            0.14,
            0.016891177485878067
        ],
        [
            0.15,
            0.01743953412535198
        ],
        [
            0.16,
            0.023087708245360068
        ],
        [
            0.17,
            0.03303159497640945
        ],
        [
            0.18,
            0.017045786132230904
        ],
        [
            0.19,
            0.0274667793639114
        ],
        [
            0.2,
            0.02088258818766984
        ],
        [
            0.21,
            0.03039479315158992
        ],
        [
            0.22,
            0.025248771522000266
        ],
        [
            0.23,
            0.022379002337076462
        ],
        [
            0.24,
            0.015363026274740349
        ],
        [
            0.25,
            0.03196285269959206
        ],
        [
            0.26,
            0.03325574606955482
        ],
        [
            0.27,
            0.10048955065392672
        ],
        [
            0.28,
            0.06516722658392136
        ],
        [
            0.29,
            0.0600054339912697
        ],
        [
            0.3,
            0.06686086842101528
        ],
        [
            0.31,
            0.039855494168409784
        ],
        [
            0.32,
            0.05118445515443667
        ],
        [
            0.33,
            0.13119680893061153
        ],
        [
            0.34,
            0.12183510824341928
        ],
        [
            0.35,
            0.11300430779660009
        ],
        [
            0.36,
            0.09206972981535166
        ],
        [
            0.37,
            0.06732482564119667
        ],
        [
            0.38,
            0.14824750882457674
        ],
        [
            0.39,
            0.13309233028237052
        ],
        [
            0.4,
            0.08968412459615564
        ],
        [
            0.41,
            0.09032596915304436
        ],
        [
            0.42,
            0.14457438321533894
        ],
        [
            0.43,
            0.10318929303950826
        ],
        [
            0.44,
            0.10608621366179992
        ],
        [
            0.45,
            0.09659661741192517
        ],
        [
            0.46,
            0.06698172788005906
        ],
        [
            0.47,
            0.08803364576712523
        ],
        [
            0.48,
            0.1556325754750154
        ],
        [
            0.49,
            0.07985745862615805
        ],
        [
            0.5,
            0.16890148387762322
        ],
        [
            0.51,
            0.16333617151178265
        ],
        [
            0.52,
            0.13568385248323292
        ],
        [
            0.53,
            0.14879140302089258
        ],
        [
            0.54,
            0.12536630490073902
        ],
        [
            0.55,
            0.11732428039232136
        ],
        [
            0.56,
            0.12169211490445313
        ],
        [
            0.57,
            0.20042441417313336
        ],
        [
            0.58,
            0.2589799051672216
        ],
        [
            0.59,
            0.08011532309639224
        ],
        [
            0.6,
            0.07533941195914749
        ],
        [
            0.61,
            0.21596427243024746
        ],
        [
            0.62,
            0.12386883639857015
        ],
        [
            0.63,
            0.27046421896955297
        ],
        [
            0.64,
            0.1495403238981125
        ],
        [
            0.65,
            0.1378468508727209
        ],
        [
            0.66,
            0.2683433345805431
        ],
        [
            0.67,
            0.16143238668701473
        ],
        [
            0.68,
            0.20615792812692388
        ],
        [
            0.69,
            0.21495916694746803
        ],
        [
            0.7,
            0.23965167553179179
        ],
        [
            0.71,
            0.23539240359030297
        ],
        [
            0.72,
            0.17624106635854675
        ],
        [
            0.73,
            0.2613871078828117
        ],
        [
            0.74,
            0.21104052469166704
        ],
        [
            0.75,
            0.16892465094624706
        ],
        [
            0.76,
            0.12742074772926182
        ],
        [
            0.77,
            0.10395226496173265
        ],
        [
            0.78,
            0.06138057133045925
        ],
        [
            0.79,
            0.039893779780720534
        ],
        [
            0.8,
            0.03549983562823302
        ],
        [
            0.81,
            0.030293428538749712
        ],
        [
            0.82,
            0.028121748515964873
        ],
        [
            0.83,
            0.025023240913299008
        ],
        [
            0.84,
            0.022063586480501243
        ],
        [
            0.85,
            0.021184109994953557
        ],
        [
            0.86,
            0.019392856425902553
        ],
        [
            0.87,
            0.01869399806161925
        ],
        [
            0.88,
            0.016192995287551113
        ],
        [
            0.89,
            0.014128821617830897
        ],
        [
            0.9,
            0.01377821497304204
        ],
        [
            0.91,
            0.012703960847185319
        ],
        [
            0.92,
            0.012158789047738107
        ],
        [
            0.93,
            0.011954487497963302
        ],
        [
            0.94,
            0.01188618741907916
        ],
        [
            0.95,
            0.011698955736383593
        ],
        [
            0.96,
            0.011537005596675531
        ],
        [
            0.97,
            0.01137143212000943
        ],
        [
            0.98,
            0.0112623750821342
        ],
        [
            0.99,
            0.01075882872852073
        ],
        [
            1.0,
            0.010433429585074254
        ]
    ],
    "256": [
        [
            0.01,
            0.03132069069244064
        ],
        [
            0.02,
            0.013351861942752499
        ],
        [
            0.03,
            0.017361881723262272
        ],
        [
            0.04,
            0.010106529721487519
        ],
        [
            0.05,
            0.00958317217935702
        ],
        [
            0.06,
            0.009555353253271002
        ],
        [
            0.07,
            0.007449202747092397
        ],
        [
            0.08,
            0.01100969356583144
        ],
        [
            0.09,
            0.007385173774418175
        ],
        [
            0.1,
            0.011252524952350223
        ],
        [
            0.11,
            0.007124628145263189
        ],
        [
            0.12,
            0.011981300023518673
        ],
        [
            0.13,
            0.014292703794840444
        ],
        [
            0.14,
            0.01567671165254111
        ],
        [
            0.15,
            0.01998856769356374
        ],
        [
            0.16,
            0.015306925244676682
        ],
        [
            0.17,
            0.020493570646201276
        ],
        [
            0.18,
            0.015768645930015597
        ],
        [
            0.19,
            0.024971849168745574
        ],
        [
            0.2,
            0.044918285590616114
        ],
        [
            0.21,
            0.0256861558133002
        ],
        [
            0.22,
            0.018123202223584017
        ],
        [
            0.23,
            0.029091587806369692
        ],
        [
            0.24,
            0.012108497677876346
        ],
        [
            0.25,
            0.015343412099075086
        ],
        [
            0.26,
            0.018676117702002205
        ],
        [
            0.27,
            0.015060626311118458
        ],
        [
            0.28,
            0.014341503291095932
        ],
        [
            0.29,
            0.014549837618242304
        ],
        [
            0.3,
            0.017562444887101573
        ],
        [
            0.31,
            0.018268927259436508
        ],
        [
            0.32,
            0.013734661839322367
        ],
        [
            0.33,
            0.014950924981009243
        ],
        [
            0.34,
            0.012433705086709698
        ],
        [
            0.35,
            0.012777617494226085
        ],
        [
            0.36,
            0.016840798994656563
        ],
        [
            0.37,
            0.03150296360688342
        ],
        [
            0.38,
            0.020921423077579594
        ],
        [
            0.39,
            0.03279157927880651
        ],
        [
            0.4,
            0.019994287638723147
        ],
        [
            0.41,
            0.030777952853144667
        ],
        [
            0.42,
            0.0282277860157985
        ],
        [
            0.43,
            0.023932336900360337
        ],
        [
            0.44,
            0.010738376340806627
        ],
        [
            0.45,
            0.058905045667879644
        ],
        [
            0.46,
            0.025738135170542027
        ],
        [
            0.47,
            0.023806039402766273
        ],
        [
            0.48,
            0.06477974156600261
        ],
        [
            0.49,
            0.11477712821216637
        ],
        [
            0.5,
            0.12490933756488017
        ],
        [
            0.51,
            0.10967396374974263
        ],
        [
            0.52,
            0.09646405510825476
        ],
        [
            0.53,
            0.16421180516843892
        ],
        [
            0.54,
            0.13851560105944347
        ],
        [
            0.55,
            0.1053991374668974
        ],
        [
            0.56,
            0.17718242568937362
        ],
        [
            0.57,
            0.15510699505140577
        ],
        [
            0.58,
            0.07929816780338153
        ],
        [
            0.59,
            0.04559333219321791
        ],
        [
            0.6,
            0.03902290390717685
        ],
        [
            0.61,
            0.03689969439382717
        ],
        [
            0.62,
            0.03473645206240396
        ],
        [
            0.63,
            0.03190218949817037
        ],
        [
            0.64,
            0.027379680135337467
        ],
        [
            0.65,
            0.023960671378969293
        ],
        [
            0.66,
            0.024867057585656757
        ],
        [
            0.67,
            0.022544494209046376
        ],
        [
            0.68,
            0.018859534435154396
        ],
        [
            0.69,
            0.01699161174653529
        ],
        [
            0.7,
            0.016029500980472684
        ],
        [
            0.71,
            0.015142198180433835
        ],
        [
            0.72,
            0.013317921643147372
        ],
        [
            0.73,
            0.01217739683186416
        ],
        [
            0.74,
            0.011477568461625806
        ],
        [
            0.75,
            0.011124604287992999
        ],
        [
            0.76,
            0.010447261051018208
        ],
        [
            0.77,
            0.010142433807032699
        ],
        [
            0.78,
            0.010780492534689436
        ],
        [
            0.79,
            0.010218693246731744
        ],
        [
            0.8,
            0.009715742859425865
        ],
        [
            0.81,
            0.009587941110516253
        ],
        [
            0.82,
            0.009612248604753055
        ],
        [
            0.83,
            0.009133172078594848
        ],
        [
            0.84,
            0.008848976500675221
        ],
        [
            0.85,
            0.00933537515051474
        ],
        [
            0.86,
            0.00899562691192225
        ],
        [
            0.87,
            0.008891276913635768
        ],
        [
            0.88,
            0.009449688091038256
        ],
        [
            0.89,
            0.009521776785867592
        ],
        [
            0.9,
            0.009636299353084934
        ],
        [
            0.91,
            0.009441682305386029
        ],
        [
            0.92,
            0.009260584371826296
        ],
        [
            0.93,
            0.009342561051125348
        ],
        [
            0.94,
            0.009442568005761032
        ],
        [
            0.95,
            0.009535774011939896
        ],
        [
            0.96,
            0.009630460196538591
        ],
        [
            0.97,
            0.009725193730243855
        ],
        [
            0.98,
            0.009822125749845994
        ],
        [
            0.99,
            0.00991283998435498
        ],
        [
            1.0,
            0.010005791639704852
        ]
    ]
}