{
    "16": [
        [
            0.01,
            0.05662721548013472
        ],
        [
            0.02,
            0.03511016665653091
        ],
        [
            0.03,
            0.028874672479867733
        ],
        [
            0.04,
            0.02757097558470744
        ],
        [
            0.05,
            0.025273276161288674
        ],
        [
            0.06,
            0.022166387766829335
        ],
        [
            0.07,
            0.027624514681223126
        ],
        [
            0.08,
            0.023711566496061355
        ],
        [
            0.09,
            0.024085850594573795
        ],
        [
            0.1,
            0.024468206219681918
        ],
        [
            0.11,
            0.022346475486082238
        ],
        [
            0.12,
            0.02332626724987298
        ],
        [
            0.13,
            0.020871201766048626
        ],
        [
            0.14,
            0.02163980426082571
        ],
        [
            0.15,
            0.020428502585877754
        ],
        [
            0.16,
            0.020874655691003392
        ],
        [
            0.17,
            0.020752563460609264
        ],
        [
            0.18,
            0.019446265908183456
        ],
        [
            0.19,
            0.019313280512105818
        ],
        [
            0.2,
            0.018335032839859086
        ],
        [
            0.21,
            0.01863113060912036
        ],
        [
            0.22,
            0.01792033606500952
        ],
        [
            0.23,
            0.018733654277300955
        ],
        [
            0.24,
            0.017968111645784875
        ],
        [
            0.25,
            0.018804279455285514
        ],
        [
            0.26,
            0.018771724018929764
        ],
        [
            0.27,
            0.017744930837113444
        ],
        [
            0.28,
            0.01887855804101508
        ],
        [
            0.29,
            0.01789565932292551
        ],
        [
            0.3,
            0.018464745035573094
        ],
        [
            0.31,
            0.018257493852319045
        ],
        [
            0.32,
            0.017487126992233856
        ],
        [
            0.33,
            0.017377209932839692
        ],
        [
            0.34,
            0.017734048038418236
        ],
        [
            0.35,
            0.0178030966197088
        ],
        [
            0.36,
            0.016883748599057304
        ],
        [
            0.37,
            0.01687099767882885
        ],
        [
            0.38,
            0.0176303897942273
        ],
        [
            0.39,
            0.017196355658512127
        ],
        [
            0.4,
            0.0170549526506078
        ],
        [
            0.41,
            0.017001929159070787
        ],
        [
            0.42,
            0.017298871367825305
        ],
        [
            0.43,
            0.016964559595260442
        ],
        [
            0.44,
            0.016152111295441925
        ],
        [
            0.45,
            0.01659732885043695
        ],
        [
            0.46,
            0.0170513254665152
        ],
        [
            0.47,
            0.01632412396733786
        ],
        [
            0.48,
            0.016241988958178192
        ],
        [
            0.49,
            0.016564598212669812
        ],
        [
            0.5,
            0.01693734145241877
        ],
        [
            0.51,
            0.016631483542439054
        ],
        [
            0.52,
            0.016333916568254135
        ],
        [
            0.53,
            0.01585505979165948
        ],
        [
            0.54,
            0.01614500842530261
        ],
        [
            0.55,
            0.016431588883295857
        ],
        [
            0.56,
            0.016241638303224115
        ],
        [
            0.57,
            0.015755119076476115
        ],
        [
            0.58,
            0.016292032216825635
        ],
        [
            0.59,
            0.016591022094138944
        ],
        [
            0.6,
            0.015762115806732525
        ],
        [
            0.61,
            0.016108443846118987
        ],
        [
            0.62,
            0.015651902320400805
        ],
        [
            0.63,
            0.015921848823395132
        ],
        [
            0.64,
            0.016068194230678207
        ],
        [
            0.65,
            0.015854914812366446
        ],
        [
            0.66,
            0.015969186070884968
        ],
        [
            0.67,
            0.01569216168777889
        ],
        [
            0.68,
            0.015483568007371964
        ],
        [
            0.69,
            0.015388638150134422
        ],
        [
            0.7,
            0.01581061321125786
        ],
        [
            0.71,
            0.01548158599141585
        ],
        [
            0.72,
            0.015625956398034754
        ],
        [
            0.73,
            0.014998380192711998
        ],
        [
            0.74,
            0.015063026085928523
        ],
        [
            0.75,
            0.014594261374512951
        ],
        [
            0.76,
            0.01459329132044117
        ],
        [
            0.77,
            0.014463736529855177
        ],
        [
            0.78,
            0.014740498966270346
        ],
        [
            0.79,
            0.014637069555860343
        ],
        [
            0.8,
            0.01449257947070555
        ],
        [
            0.81,
            0.014341295247650012
        ],
        [
            0.82,
            0.014134255474230126
        ],
        [
            0.83,
            0.01430192005855894
        ],
        [
            0.84,
            0.01405216465299236
        ],
        [
            0.85,
            0.013980128649240127
        ],
        [
            0.86,
            0.01379899974607149
        ],
        [
            0.87,
            0.013655284934033137
        ],
        [
            0.88,
            0.013454996219537494
        ],
        [
            0.89,
            0.013287235288732194
        ],
        [
            0.9,
            0.013345128919462592
        ],
        [
            0.91,
            0.012931463549077333
        ],
        [
            0.92,
            0.012735413482968548
        ],
        [
            0.93,
            0.012476170523687833
        ],
        [
            0.94,
            0.012353968908065071
        ],
        [
            0.95,
            0.011989652726876663
        ],
        [
            0.96,
            0.011782113041430954
        ],
        [
            0.97,
            0.011416899167123098
        ],
        [
            0.98,
            0.011131125922902529
        ],
        [
            0.99,
            0.011011552339470008
        ],
        [
            1.0,
            0.010469410138396175
        ]
    ],
    "64": [
        [
            0.01,
            0.05706066209652315
        ],
        [
            0.02,
            0.03521783042155524
        ],
        [
            0.03,
            0.030036111035679082
        ],
        [
            0.04,
            0.029797500510651095
        ],
        [
            0.05,
            0.027309808144690084
        ],
        [
            0.06,
            0.026291761670344204
        ],
        [
            0.07,
            0.028356285905047126
        ],
        [
            0.08,
            0.02396844931377579
        ],
        [
            0.09,
            0.02456946137851108
        ],
        [
            0.1,
            0.02320670490281767
        ],
        [
            0.11,
            0.02550803984729038
        ],
        [
            0.12,
            0.023076774245107186
        ],
        [
            0.13,
            0.022666734407877823
        ],
        [
            0.14,
            0.024291948990278762
        ],
        [
            0.15,
            0.02090395096524305
        ],
        [
            0.16,
            0.021713465721777056
        ],
        [
            0.17,
            0.019847224847681262
        ],
        [
            0.18,
            0.02081058791192836
        ],
        [
            0.19,
            0.019506729585525816
        ],
        [
            0.2,
            0.01842151847479197
        ],
        [
            0.21,
            0.018938407264084228
        ],
        [
            0.22,
            0.019087106232850357
        ],
        [
            0.23,
            0.018509652811882913
        ],
        [
            0.24,
            0.0179287519322966
        ],
        [
            0.25,
            0.01790954814826913
        ],
        [
            0.26,
            0.018382198825632214
        ],
        [
            0.27,
            0.01787489045108845
        ],
        [
            0.28,
            0.01815769468640576
        ],
        [
            0.29,
            0.017844702890587885
        ],
        [
            0.3,
            0.0169248161888314
        ],
        [
            0.31,
            0.018261315607105866
        ],
        [
            0.32,
            0.01776827755179974
        ],
        [
            0.33,
            0.017935835447540304
        ],
        [
            0.34,
            0.016888251657808342
        ],
        [
            0.35,
            0.017184078027493215
        ],
        [
            0.36,
            0.0180866075271832
        ],
        [
            0.37,
            0.01743958939930572
        ],
        [
            0.38,
            0.01729660824677279
        ],
        [
            0.39,
            0.016727663019829937
        ],
        [
            0.4,
            0.016547992442226083
        ],
        [
            0.41,
            0.0171516091901316
        ],
        [
            0.42,
            0.016614540738716505
        ],
        [
            0.43,
            0.016672211847231097
        ],
        [
            0.44,
            0.016896242409627758
        ],
        [
            0.45,
            0.016098684360404496
        ],
        [
            0.46,
            0.016215101194304273
        ],
        [
            0.47,
            0.017113616554111866
        ],
        [
            0.48,
            0.01620266521681955
        ],
        [
            0.49,
            0.01605834257530426
        ],
        [
            0.5,
            0.01619647034653877
        ],
        [
            0.51,
            0.01624300669349969
        ],
        [
            0.52,
            0.016342892362315547
        ],
        [
            0.53,
            0.016102384357861144
        ],
        [
            0.54,
            0.01603554480848208
        ],
        [
            0.55,
            0.016260490014712206
        ],
        [
            0.56,
            0.014976178389227653
        ],
        [
            0.57,
            0.01568525797538361
        ],
        [
            0.58,
            0.015853052467150602
        ],
        [
            0.59,
            0.01576773181729764
        ],
        [
            0.6,
            0.015634066922010973
        ],
        [
            0.61,
            0.015944908970315648
        ],
        [
            0.62,
            0.015256377009725798
        ],
        [
            0.63,
            0.015546969384908599
        ],
        [
            0.64,
            0.015423019343620979
        ],
        [
            0.65,
            0.015154605589475309
        ],
        [
            0.66,
            0.015304374120020645
        ],
        [
            0.67,
            0.015371021157838368
        ],
        [
            0.68,
            0.015300039743815552
        ],
        [
            0.69,
            0.015045386258899908
        ],
        [
            0.7,
            0.015025584790773133
        ],
        [
            0.71,
            0.014630609557759298
        ],
        [
            0.72,
            0.014674583902774797
        ],
        [
            0.73,
            0.01466536948666235
        ],
        [
            0.74,
            0.014271038071442208
        ],
        [
            0.75,
            0.01424420423135719
        ],
        [
            0.76,
            0.01439755680583294
        ],
        [
            0.77,
            0.014198220107540691
        ],
        [
            0.78,
            0.01421509066671079
        ],
        [
            0.79,
            0.014158398687031223
        ],
        [
            0.8,
            0.014050368873466435
        ],
        [
            0.81,
            0.013658706447357153
        ],
        [
            0.82,
            0.013840780636447926
        ],
        [
            0.83,
            0.013665731374028958
        ],
        [
            0.84,
            0.013487438707309358
        ],
        [
            0.85,
            0.013422583812510104
        ],
        [
            0.86,
            0.013262320017354392
        ],
        [
            0.87,
            0.013265889661436348
        ],
        [
            0.88,
            0.012992538470191951
        ],
        [
            0.89,
            0.012868948264278356
        ],
        [
            0.9,
            0.012641981856103055
        ],
        [
            0.91,
            0.012449814001849678
        ],
        [
            0.92,
            0.01252101850898042
        ],
        [
            0.93,
            0.012376898701738944
        ],
        [
            0.94,
            0.012238717644112166
        ],
        [
            0.95,
            0.012152126804060885
        ],
        [
            0.96,
            0.011958334394825193
        ],
        [
            0.97,
            0.0117348425158746
        ],
        [
            0.98,
            0.011549623766584492
        ],
        [
            0.99,
            0.011547105417593807
        ],
        [
            1.0,
            0.010717883905420073
        ]
    ],
    "256": [
        [
            0.01,
            0.05789893904372997
        ],
        [
            0.02,
            0.038011169713718665
        ],
        [
            0.03,
            0.030232850822557507
        ],
        [
            0.04,
            0.031351276703048186
        ],
        [
            0.05,
            0.027104561061394573
        ],
        [
            0.06,
            0.02792466071223511
        ],
        [
            0.07,
            0.029865975797436526
        ],
        [
            0.08,
            0.024983091146109002
        ],
        [
            0.09,
            0.024702355228509162
        ],
        [
            0.1,
            0.026464644496751545
        ],
        [
            0.11,
            0.02463777884423946
        ],
        [
            0.12,
            0.02327563342779048
        ],
        [
            0.13,
            0.022007764508509876
        ],
        [
            0.14,
            0.024513590941611135
        ],
        [
            0.15,
            0.02105619164128825
        ],
        [
            0.16,
            0.022019197610239207
        ],
        [
            0.17,
            0.02057283649931153
        ],
        [
            0.18,
            0.020924115736343056
        ],
        [
            0.19,
            0.019111651494476575
        ],
        [
            0.2,
            0.018616782984632364
        ],
        [
            0.21,
            0.019854787303678057
        ],
        [
            0.22,
            0.01965684482781263
        ],
        [
            0.23,
            0.018362181666691155
        ],
        [
            0.24,
            0.017711616380389334
        ],
        [
            0.25,
            0.0182496333086191
        ],
        [
            0.26,
            0.018275176749171836
        ],
        [
            0.27,
            0.0175553850086427
        ],
        [
            0.28,
            0.017893541233173018
        ],
        [
            0.29,
            0.01776036370875833
        ],
        [
            0.3,
            0.018300974374552543
        ],
        [
            0.31,
            0.017979506205249945
        ],
        [
            0.32,
            0.01755674963108155
        ],
        [
            0.33,
            0.01797012416127657
        ],
        [
            0.34,
            0.017140115251582686
        ],
        [
            0.35,
            0.018235039370793207
        ],
        [
            0.36,
            0.017440122135670328
        ],
        [
            0.37,
            0.01744543691688793
        ],
        [
            0.38,
            0.017381549970882874
        ],
        [
            0.39,
            0.016629702030023254
        ],
        [
            0.4,
            0.017433781862231334
        ],
        [
            0.41,
            0.017149601920584776
        ],
        [
            0.42,
            0.01698953291668942
        ],
        [
            0.43,
            0.01671068493357846
        ],
        [
            0.44,
            0.01698332296194194
        ],
        [
            0.45,
            0.016838177759020245
        ],
        [
            0.46,
            0.01638514239574542
        ],
        [
            0.47,
            0.016496990555130247
        ],
        [
            0.48,
            0.016186048721434386
        ],
        [
            0.49,
            0.01648571936977416
        ],
        [
            0.5,
            0.016509419290764916
        ],
        [
            0.51,
            0.016404082396894303
        ],
        [
            0.52,
            0.016314075264822377
        ],
        [
            0.53,
            0.01588004904813924
        ],
        [
            0.54,
            0.016060098244882123
        ],
        [
            0.55,
            0.015988235918650034
        ],
        [
            0.56,
            0.015988827462322774
        ],
        [
            0.57,
            0.01595990527176359
        ],
        [
            0.58,
            0.01581549591976008
        ],
        [
            0.59,
            0.015557753341502079
        ],
        [
            0.6,
            0.015980182724787136
        ],
        [
            0.61,
            0.015541933060683803
        ],
        [
            0.62,
            0.015637740592861136
        ],
        [
            0.63,
            0.015466543355691365
        ],
        [
            0.64,
            0.01553654353195778
        ],
        [
            0.65,
            0.01527040155302185
        ],
        [
            0.66,
            0.015435995491998719
        ],
        [
            0.67,
            0.015065039283499086
        ],
        [
            0.68,
            0.01490609234171218
        ],
        [
            0.69,
            0.015000891891402565
        ],
        [
            0.7,
            0.014828668363102556
        ],
        [
            0.71,
            0.014594622086548267
        ],
        [
            0.72,
            0.014619122713527593
        ],
        [
            0.73,
            0.014487455227446936
        ],
        [
            0.74,
            0.014485669639656413
        ],
        [
            0.75,
            0.014392437759902404
        ],
        [
            0.76,
            0.014493035173887623
        ],
        [
            0.77,
            0.014251391623489203
        ],
        [
            0.78,
            0.01400403581568455
        ],
        [
            0.79,
            0.014165168417621523
        ],
        [
            0.8,
            0.014024852988961932
        ],
        [
            0.81,
            0.013605821866377741
        ],
        [
            0.82,
            0.013763766889036721
        ],
        [
            0.83,
            0.013644216120968031
        ],
        [
            0.84,
            0.013499308462855032
        ],
        [
            0.85,
            0.01350748027736749
        ],
        [
            0.86,
            0.013253546943876506
        ],
        [
            0.87,
            0.013257486280890827
        ],
        [
            0.88,
            0.012947921360262217
        ],
        [
            0.89,
            0.01286201973637082
        ],
        [
            0.9,
            0.012649090887531578
        ],
        [
            0.91,
            0.012530238882486427
        ],
        [
            0.92,
            0.012489812954372294
        ],
        [
            0.93,
            0.012394780827176455
        ],
        [
            0.94,
            0.012370682614002471
        ],
        [
            0.95,
            0.0123823555299546
        ],
        [
            0.96,
            0.012102911470270646
        ],
        [
            0.97,
            0.011971386916297797
        ],
        [
            0.98,
            0.011868645414354654
        ],
        [
            0.99,
            0.011823583932558623
        ],
        [
            1.0,
            0.01084754143817488
        ]
    ]
}