{
    "16": [
        [
            0.01,
            0.032484655488773065
        ],
        [
            0.02,
            0.020025287612633003
        ],
        [
            0.03,
            0.014840926717502612
        ],
        [
            0.04,
            0.014517888270996274
        ],
        [
            0.05,
            0.012097125983965047
        ],
        [
            0.06,
            0.012899413284742185
        ],
        [
            0.07,
            0.011772513125929314
        ],
        [
            0.08,
            0.012744965710953184
        ],
        [
            0.09,
            0.014951195442363023
        ],
        [
            0.1,
            0.012361554932223172
        ],
        [
            0.11,
            0.01231385869039692
        ],
        [
            0.12,
            0.011698397641595758
        ],
        [
            0.13,
            0.011001487983610224
        ],
        [
            0.14,
            0.011768580475532588
        ],
        [
            0.15,
            0.010426759007685282
        ],
        [
            0.16,
            0.01050330997235342
        ],
        [
            0.17,
            0.010674963017656518
        ],
        [
            0.18,
            0.010235431453137895
        ],
        [
            0.19,
            0.010365199399063416
        ],
        [
            0.2,
            0.009849938927017857
        ],
        [
            0.21,
            0.00958056309358369
        ],
        [
            0.22,
            0.009658431287061195
        ],
        [
            0.23,
            0.009462732463074162
        ],
        [
            0.24,
            0.009123142582051536
        ],
        [
            0.25,
            0.009147928603721565
        ],
        [
            0.26,
            0.009140217404901644
        ],
        [
            0.27,
            0.009838766870066915
        ],
        [
            0.28,
            0.009527265172265683
        ],
        [
            0.29,
            0.009374716592231876
        ],
        [
            0.3,
            0.009193770053071149
        ],
        [
            0.31,
            0.00916869571790308
        ],
        [
            0.32,
            0.00965984221195828
        ],
        [
            0.33,
            0.009455867496924718
        ],
        [
            0.34,
            0.00935312904523793
        ],
        [
            0.35,
            0.009917073690259962
        ],
        [
            0.36,
            0.009210770591387573
        ],
        [
            0.37,
            0.009426196062340105
        ],
        [
            0.38,
            0.009526912312259102
        ],
        [
            0.39,
            0.009367564060357117
        ],
        [
            0.4,
            0.009198516229389156
        ],
        [
            0.41,
            0.008990666225421398
        ],
        [
            0.42,
            0.009188521752190116
        ],
        [
            0.43,
            0.009012182970970242
        ],
        [
            0.44,
            0.00947513056383721
        ],
        [
            0.45,
            0.008929235069023848
        ],
        [
            0.46,
            0.009091587573859932
        ],
        [
            0.47,
            0.009228265602975875
        ],
        [
            0.48,
            0.009063720666891043
        ],
        [
            0.49,
            0.008904600205425252
        ],
        [
            0.5,
            0.009349183271346505
        ],
        [
            0.51,
            0.008914152452154538
        ],
        [
            0.52,
            0.009154650573478185
        ],
        [
            0.53,
            0.009175321281304613
        ],
        [
            0.54,
            0.00918703293881374
        ],
        [
            0.55,
            0.008914990811315027
        ],
        [
            0.56,
            0.008900883660741071
        ],
        [
            0.57,
            0.009242475259589432
        ],
        [
            0.58,
            0.009051557693038623
        ],
        [
            0.59,
            0.00898066189338765
        ],
        [
            0.6,
            0.009071043333086953
        ],
        [
            0.61,
            0.008957847953784915
        ],
        [
            0.62,
            0.009079648321404643
        ],
        [
            0.63,
            0.00910606223840584
        ],
        [
            0.64,
            0.009133032643995762
        ],
        [
            0.65,
            0.009174605940755327
        ],
        [
            0.66,
            0.009243975917065177
        ],
        [
            0.67,
            0.009256148228200279
        ],
        [
            0.68,
            0.009238322779751578
        ],
        [
            0.69,
            0.009213697464780804
        ],
        [
            0.7,
            0.00940093696559681
        ],
        [
            0.71,
            0.00940528643496798
        ],
        [
            0.72,
            0.00923974765211859
        ],
        [
            0.73,
            0.00935994715334078
        ],
        [
            0.74,
            0.009454106134675549
        ],
        [
            0.75,
            0.009524476694359841
        ],
        [
            0.76,
            0.00954397650043604
        ],
        [
            0.77,
            0.00958753169543527
        ],
        [
            0.78,
            0.009562840222650356
        ],
        [
            0.79,
            0.00964900100093985
        ],
        [
            0.8,
            0.009630112786721826
        ],
        [
            0.81,
            0.009715721398254024
        ],
        [
            0.82,
            0.009706445817053811
        ],
        [
            0.83,
            0.009677423780961057
        ],
        [
            0.84,
            0.009791057525582531
        ],
        [
            0.85,
            0.009748249148753852
        ],
        [
            0.86,
            0.009794041094901874
        ],
        [
            0.87,
            0.009823231234743612
        ],
        [
            0.88,
            0.009889489080757168
        ],
        [
            0.89,
            0.009880528817391822
        ],
        [
            0.9,
            0.009923502027562914
        ],
        [
            0.91,
            0.009969268384347736
        ],
        [
            0.92,
            0.009956429803236244
        ],
        [
            0.93,
            0.00996928846227222
        ],
        [
            0.94,
            0.009958288369199762
        ],
        [
            0.95,
            0.010076514909636828
        ],
        [
            0.96,
            0.010092094547478479
        ],
        [
            0.97,
            0.010080187763550677
        ],
        [
            0.98,
            0.010099378301267194
        ],
        [
            0.99,
            0.010079078799956656
        ],
        [
            1.0,
            0.010065498782819737
        ]
    ],
    "64": [
        [
            0.01,
            0.03274974041728474
        ],
        [
            0.02,
            0.02209284625885812
        ],
        [
            0.03,
            0.016156856730841922
        ],
        [
            0.04,
            0.01431464378489583
        ],
        [
            0.05,
            0.01272421192135388
        ],
        [
            0.06,
            0.013218533735504827
        ],
        [
            0.07,
            0.012874273210293895
        ],
        [
            0.08,
            0.012471810285104315
        ],
        [
            0.09,
            0.012318689312814565
        ],
        [
            0.1,
            0.010985016917409517
        ],
        [
            0.11,
            0.011680965298118746
        ],
        [
            0.12,
            0.011561628194657761
        ],
        [
            0.13,
            0.011702103892953772
        ],
        [
            0.14,
            0.010808675554635635
        ],
        [
            0.15,
            0.01153992313895148
        ],
        [
            0.16,
            0.011006376782428972
        ],
        [
            0.17,
            0.010410205440060072
        ],
        [
            0.18,
            0.011681893518922041
        ],
        [
            0.19,
            0.009732207839280499
        ],
        [
            0.2,
            0.009767733059887089
        ],
        [
            0.21,
            0.009990083832275636
        ],
        [
            0.22,
            0.009190716856848965
        ],
        [
            0.23,
            0.009243959685970814
        ],
        [
            0.24,
            0.00978464708538649
        ],
        [
            0.25,
            0.009689851773748362
        ],
        [
            0.26,
            0.009114157375931239
        ],
        [
            0.27,
            0.009256003125554094
        ],
        [
            0.28,
            0.009621844890265966
        ],
        [
            0.29,
            0.009262866772301995
        ],
        [
            0.3,
            0.009930835124061198
        ],
        [
            0.31,
            0.009157121047473986
        ],
        [
            0.32,
            0.009495379468907285
        ],
        [
            0.33,
            0.009424022364171064
        ],
        [
            0.34,
            0.009694437917706219
        ],
        [
            0.35,
            0.009551006676402766
        ],
        [
            0.36,
            0.008801232683395116
        ],
        [
            0.37,
            0.009552083490301184
        ],
        [
            0.38,
            0.009141812410010065
        ],
        [
            0.39,
            0.00899971606710885
        ],
        [
            0.4,
            0.009093943347235461
        ],
        [
            0.41,
            0.009060772769010225
        ],
        [
            0.42,
            0.008937308920038411
        ],
        [
            0.43,
            0.00889495135935223
        ],
        [
            0.44,
            0.009037506777151144
        ],
        [
            0.45,
            0.008765659081090681
        ],
        [
            0.46,
            0.008994092852016225
        ],
        [
            0.47,
            0.008659094929107587
        ],
        [
            0.48,
            0.008701246046014905
        ],
        [
            0.49,
            0.008533356650019235
        ],
        [
            0.5,
            0.008540721676770288
        ],
        [
            0.51,
            0.008599505664530094
        ],
        [
            0.52,
            0.00865255297337532
        ],
        [
            0.53,
            0.008606821740362336
        ],
        [
            0.54,
            0.008413540155301904
        ],
        [
            0.55,
            0.008561028511431893
        ],
        [
            0.56,
            0.008638520857895677
        ],
        [
            0.57,
            0.008349136950501048
        ],
        [
            0.58,
            0.008718628926063237
        ],
        [
            0.59,
            0.008523722344864634
        ],
        [
            0.6,
            0.008747593243915542
        ],
        [
            0.61,
            0.008561843950037855
        ],
        [
            0.62,
            0.008926969719726285
        ],
        [
            0.63,
            0.0086919718720651
        ],
        [
            0.64,
            0.008703994143873375
        ],
        [
            0.65,
            0.008773596392147358
        ],
        [
            0.66,
            0.009008071631748686
        ],
        [
            0.67,
            0.0090080177596953
        ],
        [
            0.68,
            0.008943543733166878
        ],
        [
            0.69,
            0.008859694959528002
        ],
        [
            0.7,
            0.008935285753840826
        ],
        [
            0.71,
            0.009168479863750573
        ],
        [
            0.72,
            0.009289479349556956
        ],
        [
            0.73,
            0.009224656332985427
        ],
        [
            0.74,
            0.00924136099246739
        ],
        [
            0.75,
            0.009352571725788874
        ],
        [
            0.76,
            0.009401940318355216
        ],
        [
            0.77,
            0.009348027270809014
        ],
        [
            0.78,
            0.009392404129979439
        ],
        [
            0.79,
            0.009466386381991564
        ],
        [
            0.8,
            0.009466554843972075
        ],
        [
            0.81,
            0.009468202618092891
        ],
        [
            0.82,
            0.009618521709965813
        ],
        [
            0.83,
            0.009616051577917234
        ],
        [
            0.84,
            0.009631687374775188
        ],
        [
            0.85,
            0.009665770768505257
        ],
        [
            0.86,
            0.009789598224265452
        ],
        [
            0.87,
            0.009765728852056342
        ],
        [
            0.88,
            0.009779100393162024
        ],
        [
            0.89,
            0.009839604831457521
        ],
        [
            0.9,
            0.009885453816072972
        ],
        [
            0.91,
            0.009914419166610117
        ],
        [
            0.92,
            0.009961794282293324
        ],
        [
            0.93,
            0.01001937509922016
        ],
        [
            0.94,
            0.010033888435549062
        ],
        [
            0.95,
            0.010103074143149105
        ],
        [
            0.96,
            0.01012308814099367
        ],
        [
            0.97,
            0.010116757510676429
        ],
        [
            0.98,
            0.010106901797574903
        ],
        [
            0.99,
            0.010138761132316735
        ],
        [
            1.0,
            0.010102564505762107
        ]
    ],
    "256": [
        [
            0.01,
            0.03491642105779726
        ],
        [
            0.02,
            0.021022986119087223
        ],
        [
            0.03,
            0.016438596554689867
        ],
        [
            0.04,
            0.013454210782550144
        ],
        [
            0.05,
            0.014176426460802078
        ],
        [
            0.06,
            0.012791963882483938
        ],
        [
            0.07,
            0.013419933145804927
        ],
        [
            0.08,
            0.012091526587476625
        ],
        [
            0.09,
            0.011980171836512017
        ],
        [
            0.1,
            0.01214750489949955
        ],
        [
            0.11,
            0.011653061786616424
        ],
        [
            0.12,
            0.01279295962057089
        ],
        [
            0.13,
            0.012413318524987858
        ],
        [
            0.14,
            0.010998252541155494
        ],
        [
            0.15,
            0.011062085625549684
        ],
        [
            0.16,
            0.012703366397838797
        ],
        [
            0.17,
            0.01127144369513126
        ],
        [
            0.18,
            0.009413134717636919
        ],
        [
            0.19,
            0.009829029231970474
        ],
        [
            0.2,
            0.009506576428263228
        ],
        [
            0.21,
            0.010466906186596072
        ],
        [
            0.22,
            0.009391075693169586
        ],
        [
            0.23,
            0.00928136244972996
        ],
        [
            0.24,
            0.009910576597092982
        ],
        [
            0.25,
            0.009074191529862156
        ],
        [
            0.26,
            0.00970357267418489
        ],
        [
            0.27,
            0.010149184841242456
        ],
        [
            0.28,
            0.009942837877466928
        ],
        [
            0.29,
            0.009236400437804495
        ],
        [
            0.3,
            0.010255981900777087
        ],
        [
            0.31,
            0.010238940023708088
        ],
        [
            0.32,
            0.00981020314668533
        ],
        [
            0.33,
            0.009723952564284218
        ],
        [
            0.34,
            0.009281224095222619
        ],
        [
            0.35,
            0.009164661670072335
        ],
        [
            0.36,
            0.008961662258394355
        ],
        [
            0.37,
            0.008869061730451423
        ],
        [
            0.38,
            0.009207315817872447
        ],
        [
            0.39,
            0.009719363241099566
        ],
        [
            0.4,
            0.009280339066021956
        ],
        [
            0.41,
            0.009045633689679814
        ],
        [
            0.42,
            0.009119465234200244
        ],
        [
            0.43,
            0.009327857764475077
        ],
        [
            0.44,
            0.00895572780738915
        ],
        [
            0.45,
            0.00884772835222784
        ],
        [
            0.46,
            0.008800102149408457
        ],
        [
            0.47,
            0.008425164669740226
        ],
        [
            0.48,
            0.008983387893496321
        ],
        [
            0.49,
            0.008593284078172838
        ],
        [
            0.5,
            0.008586236277231605
        ],
        [
            0.51,
            0.008851018526739814
        ],
        [
            0.52,
            0.00894384748962869
        ],
        [
            0.53,
            0.008564544088432666
        ],
        [
            0.54,
            0.008511388596119112
        ],
        [
            0.55,
            0.008648804728469408
        ],
        [
            0.56,
            0.00891879688120292
        ],
        [
            0.57,
            0.00873481389659514
        ],
        [
            0.58,
            0.008612902166558117
        ],
        [
            0.59,
            0.008714849074817095
        ],
        [
            0.6,
            0.008829972598373844
        ],
        [
            0.61,
            0.008936004554742508
        ],
        [
            0.62,
            0.008930468307019886
        ],
        [
            0.63,
            0.008849835870701369
        ],
        [
            0.64,
            0.00887841861364282
        ],
        [
            0.65,
            0.008885442658170359
        ],
        [
            0.66,
            0.009095630374435044
        ],
        [
            0.67,
            0.009047463241780145
        ],
        [
            0.68,
            0.009098257975804176
        ],
        [
            0.69,
            0.008974740791681358
        ],
        [
            0.7,
            0.009096930558970342
        ],
        [
            0.71,
            0.009288595709850439
        ],
        [
            0.72,
            0.00917423211614475
        ],
        [
            0.73,
            0.009326091419880434
        ],
        [
            0.74,
            0.009287041285787848
        ],
        [
            0.75,
            0.009303271908545055
        ],
        [
            0.76,
            0.009425443102131866
        ],
        [
            0.77,
            0.009383953871514134
        ],
        [
            0.78,
            0.009502986125105936
        ],
        [
            0.79,
            0.009522118723842777
        ],
        [
            0.8,
            0.009605724750053776
        ],
        [
            0.81,
            0.009634375284484463
        ],
        [
            0.82,
            0.009752172995236794
        ],
        [
            0.83,
            0.009866036813525306
        ],
        [
            0.84,
            0.009867319786703417
        ],
        [
            0.85,
            0.009757224664907242
        ],
        [
            0.86,
            0.009842308564694167
        ],
        [
            0.87,
            0.009846653922901589
        ],
        [
            0.88,
            0.009896104540938196
        ],
        [
            0.89,
            0.009915083488896342
        ],
        [
            0.9,
            0.009958467487715419
        ],
        [
            0.91,
            0.009998122562992023
        ],
        [
            0.92,
            0.010055557459624595
        ],
        [
            0.93,
            0.01010122099701376
        ],
        [
            0.94,
            0.010144353823979874
        ],
        [
            0.95,
            0.010196419858975314
        ],
        [
            0.96,
            0.01022742915157278
        ],
        [
            0.97,
            0.010234041365822252
        ],
        [
            0.98,
            0.010265919145558855
        ],
        [
            0.99,
            0.010277000441253679
        ],
        [
            1.0,
            0.01015155401250738
        ]
    ]
}