{
    "16": [
        [
            0.01,
            0.0393537057430715
        ],
        [
            0.02,
            0.029912379120840295
        ],
        [
            0.03,
            0.02155202030282911
        ],
        [
            0.04,
            0.020515795543618792
        ],
        [
            0.05,
            0.018671935999529956
        ],
        [
            0.06,
            0.016074430562392387
        ],
        [
            0.07,
            0.017553693447713778
        ],
        [
            0.08,
            0.01660056052516066
        ],
        [
            0.09,
            0.014845532671092638
        ],
        [
            0.1,
            0.014650051152247885
        ],
        [
            0.11,
            0.014186207057202098
        ],
        [
            0.12,
            0.013678148207461075
        ],
        [
            0.13,
            0.013664385441046385
        ],
        [
            0.14,
            0.015930275421460326
        ],
        [
            0.15,
            0.013967697075785343
        ],
        [
            0.16,
            0.015290154634465564
        ],
        [
            0.17,
            0.015429552196858034
        ],
        [
            0.18,
            0.01362542923749871
        ],
        [
            0.19,
            0.015341898903281295
        ],
        [
            0.2,
            0.013875012332084623
        ],
        [
            0.21,
            0.016046415179665582
        ],
        [
            0.22,
            0.014354015899815878
        ],
        [
            0.23,
            0.014168232166995906
        ],
        [
            0.24,
            0.014114053556479277
        ],
        [
            0.25,
            0.016097736705531475
        ],
        [
            0.26,
            0.016487621094438867
        ],
        [
            0.27,
            0.01521909202915919
        ],
        [
            0.28,
            0.014915918126724312
        ],
        [
            0.29,
            0.014961145581094279
        ],
        [
            0.3,
            0.014748900913804422
        ],
        [
            0.31,
            0.016495567726748542
        ],
        [
            0.32,
            0.017097746585924327
        ],
        [
            0.33,
            0.01663566076479385
        ],
        [
            0.34,
            0.017437668852270976
        ],
        [
            0.35,
            0.01632883476030813
        ],
        [
            0.36,
            0.015041079953526227
        ],
        [
            0.37,
            0.015549187183499666
        ],
        [
            0.38,
            0.01637574960142973
        ],
        [
            0.39,
            0.014919428972350848
        ],
        [
            0.4,
            0.015191899003867389
        ],
        [
            0.41,
            0.01646786517360536
        ],
        [
            0.42,
            0.015453708296388226
        ],
        [
            0.43,
            0.01757336831027368
        ],
        [
            0.44,
            0.017181481205501354
        ],
        [
            0.45,
            0.01617538258886419
        ],
        [
            0.46,
            0.01641468586823785
        ],
        [
            0.47,
            0.0139744026850737
        ],
        [
            0.48,
            0.016483765735579938
        ],
        [
            0.49,
            0.016318148913256576
        ],
        [
            0.5,
            0.015612783946823083
        ],
        [
            0.51,
            0.014939512061222305
        ],
        [
            0.52,
            0.014959183336829718
        ],
        [
            0.53,
            0.01506714009391839
        ],
        [
            0.54,
            0.014484168326753071
        ],
        [
            0.55,
            0.014202883955214901
        ],
        [
            0.56,
            0.015078190802681074
        ],
        [
            0.57,
            0.014574986572137022
        ],
        [
            0.58,
            0.013954677332009184
        ],
        [
            0.59,
            0.013503477189550942
        ],
        [
            0.6,
            0.01383468569284125
        ],
        [
            0.61,
            0.01411820749395483
        ],
        [
            0.62,
            0.013352593277769652
        ],
        [
            0.63,
            0.013180067442923186
        ],
        [
            0.64,
            0.01266327838131696
        ],
        [
            0.65,
            0.013114899200924218
        ],
        [
            0.66,
            0.013027841340332755
        ],
        [
            0.67,
            0.01256985595684534
        ],
        [
            0.68,
            0.012917289169154
        ],
        [
            0.69,
            0.012641582682474459
        ],
        [
            0.7,
            0.012760179724571764
        ],
        [
            0.71,
            0.012593557476445196
        ],
        [
            0.72,
            0.012472091825898509
        ],
        [
            0.73,
            0.012243531645992711
        ],
        [
            0.74,
            0.01240141532597269
        ],
        [
            0.75,
            0.012236611522150486
        ],
        [
            0.76,
            0.01214814842156075
        ],
        [
            0.77,
            0.012389191207194353
        ],
        [
            0.78,
            0.012108603216839818
        ],
        [
            0.79,
            0.012147410761395848
        ],
        [
            0.8,
            0.012030378822621184
        ],
        [
            0.81,
            0.012023082611713748
        ],
        [
            0.82,
            0.012158788252026022
        ],
        [
            0.83,
            0.012325867236066037
        ],
        [
            0.84,
            0.012097785883185577
        ],
        [
            0.85,
            0.012245281513699498
        ],
        [
            0.86,
            0.011946010587386886
        ],
        [
            0.87,
            0.011783140115039614
        ],
        [
            0.88,
            0.011831706144375877
        ],
        [
            0.89,
            0.011766072605555976
        ],
        [
            0.9,
            0.011488089572708478
        ],
        [
            0.91,
            0.011306105291520584
        ],
        [
            0.92,
            0.011312524123031171
        ],
        [
            0.93,
            0.011090766139665326
        ],
        [
            0.94,
            0.010912110365517985
        ],
        [
            0.95,
            0.010795780838508883
        ],
        [
            0.96,
            0.010682398393483866
        ],
        [
            0.97,
            0.01066003636426847
        ],
        [
            0.98,
            0.0105903342165649
        ],
        [
            0.99,
            0.010517884153772191
        ],
        [
            1.0,
            0.010285028138994765
        ]
    ],
    "64": [
        [
            0.01,
            0.041102598227038566
        ],
        [
            0.02,
            0.03324155967310104
        ],
        [
            0.03,
            0.02506308123398266
        ],
        [
            0.04,
            0.021671522760680025
        ],
        [
            0.05,
            0.019360039154578804
        ],
        [
            0.06,
            0.017502840147803525
        ],
        [
            0.07,
            0.01785182395052897
        ],
        [
            0.08,
            0.017039989584004565
        ],
        [
            0.09,
            0.017164829131233267
        ],
        [
            0.1,
            0.01631250880902798
        ],
        [
            0.11,
            0.014695968166786023
        ],
        [
            0.12,
            0.01574680160920154
        ],
        [
            0.13,
            0.01433470243874241
        ],
        [
            0.14,
            0.015739385147086442
        ],
        [
            0.15,
            0.014556005815854213
        ],
        [
            0.16,
            0.017652478632019394
        ],
        [
            0.17,
            0.01568196172875101
        ],
        [
            0.18,
            0.01614861017170725
        ],
        [
            0.19,
            0.014512007439827796
        ],
        [
            0.2,
            0.01411314410886366
        ],
        [
            0.21,
            0.017125931324026556
        ],
        [
            0.22,
            0.01498995056861304
        ],
        [
            0.23,
            0.01651314208084548
        ],
        [
            0.24,
            0.015786314901250598
        ],
        [
            0.25,
            0.016753108191247028
        ],
        [
            0.26,
            0.01528982315458373
        ],
        [
            0.27,
            0.01613838705181491
        ],
        [
            0.28,
            0.01578911410675532
        ],
        [
            0.29,
            0.015134907269906376
        ],
        [
            0.3,
            0.018063117982206008
        ],
        [
            0.31,
            0.01818663606485203
        ],
        [
            0.32,
            0.019375475000459125
        ],
        [
            0.33,
            0.01698779575822901
        ],
        [
            0.34,
            0.017143323572555238
        ],
        [
            0.35,
            0.017903278740155768
        ],
        [
            0.36,
            0.016278745828450396
        ],
        [
            0.37,
            0.0173010858305091
        ],
        [
            0.38,
            0.01568434761076964
        ],
        [
            0.39,
            0.01729674352593221
        ],
        [
            0.4,
            0.0157586166036746
        ],
        [
            0.41,
            0.018222258691533523
        ],
        [
            0.42,
            0.01684877125298328
        ],
        [
            0.43,
            0.019821467096253025
        ],
        [
            0.44,
            0.018051058095110862
        ],
        [
            0.45,
            0.017065204685677286
        ],
        [
            0.46,
            0.01710123469369316
        ],
        [
            0.47,
            0.01650343900671109
        ],
        [
            0.48,
            0.017338195768709725
        ],
        [
            0.49,
            0.017608950075991302
        ],
        [
            0.5,
            0.015876426730777275
        ],
        [
            0.51,
            0.01606704734423119
        ],
        [
            0.52,
            0.01611341925886347
        ],
        [
            0.53,
            0.0154744520998444
        ],
        [
            0.54,
            0.01600356380102664
        ],
        [
            0.55,
            0.015179472331396745
        ],
        [
            0.56,
            0.01572409956235168
        ],
        [
            0.57,
            0.014823714855433658
        ],
        [
            0.58,
            0.015110273375514365
        ],
        [
            0.59,
            0.014256022649120828
        ],
        [
            0.6,
            0.0144367840073262
        ],
        [
            0.61,
            0.014424458136999076
        ],
        [
            0.62,
            0.014194348894059163
        ],
        [
            0.63,
            0.014251183103721629
        ],
        [
            0.64,
            0.013398881794837836
        ],
        [
            0.65,
            0.014252500942160256
        ],
        [
            0.66,
            0.013633444049705483
        ],
        [
            0.67,
            0.013366096678790452
        ],
        [
            0.68,
            0.013579327118572074
        ],
        [
            0.69,
            0.013642722915757103
        ],
        [
            0.7,
            0.013468430890194182
        ],
        [
            0.71,
            0.013118650169847104
        ],
        [
            0.72,
            0.013105805224841881
        ],
        [
            0.73,
            0.013129573426015397
        ],
        [
            0.74,
            0.01295994253230005
        ],
        [
            0.75,
            0.013047701258700941
        ],
        [
            0.76,
            0.013050485898262926
        ],
        [
            0.77,
            0.01286606174319067
        ],
        [
            0.78,
            0.012888095615894718
        ],
        [
            0.79,
            0.012870251016324188
        ],
        [
            0.8,
            0.012797396479437546
        ],
        [
            0.81,
            0.0127733299129339
        ],
        [
            0.82,
            0.012650787773201388
        ],
        [
            0.83,
            0.012468815144491134
        ],
        [
            0.84,
            0.012371876528398152
        ],
        [
            0.85,
            0.012291157152684865
        ],
        [
            0.86,
            0.012339856488128614
        ],
        [
            0.87,
            0.012270373113967085
        ],
        [
            0.88,
            0.012075591236799256
        ],
        [
            0.89,
            0.011956159316751607
        ],
        [
            0.9,
            0.011769237013095487
        ],
        [
            0.91,
            0.011601731766922677
        ],
        [
            0.92,
            0.011542171570179782
        ],
        [
            0.93,
            0.011419882641759235
        ],
        [
            0.94,
            0.011230982931963833
        ],
        [
            0.95,
            0.01105140232527324
        ],
        [
            0.96,
            0.011134501930608092
        ],
        [
            0.97,
            0.011142165103466379
        ],
        [
            0.98,
            0.011118894407775243
        ],
        [
            0.99,
            0.010835441600503265
        ],
        [
            1.0,
            0.010412132434533055
        ]
    ],
    "256": [
        [
            0.01,
            0.04323106353222288
        ],
        [
            0.02,
            0.03452664936878669
        ],
        [
            0.03,
            0.025945778490092424
        ],
        [
            0.04,
            0.020353323914408892
        ],
        [
            0.05,
            0.02045640846346477
        ],
        [
            0.06,
            0.018761709273284913
        ],
        [
            0.07,
            0.017759891402918275
        ],
        [
            0.08,
            0.017682944879557037
        ],
        [
            0.09,
            0.017847311308253403
        ],
        [
            0.1,
            0.016683020359565925
        ],
        [
            0.11,
            0.014627815310689107
        ],
        [
            0.12,
            0.017153312291547294
        ],
        [
            0.13,
            0.015402431616360016
        ],
        [
            0.14,
            0.016888782530003744
        ],
        [
            0.15,
            0.014904076111059351
        ],
        [
            0.16,
            0.01647845478804954
        ],
        [
            0.17,
            0.01676064309231423
        ],
        [
            0.18,
            0.016178066854551715
        ],
        [
            0.19,
            0.015505328300041267
        ],
        [
            0.2,
            0.015302505129354315
        ],
        [
            0.21,
            0.017112169321104348
        ],
        [
            0.22,
            0.014739396961355336
        ],
        [
            0.23,
            0.017580157374124616
        ],
        [
            0.24,
            0.017829338904286833
        ],
        [
            0.25,
            0.016281280756005188
        ],
        [
            0.26,
            0.015123622447491672
        ],
        [
            0.27,
            0.016199360939092963
        ],
        [
            0.28,
            0.01694386496942058
        ],
        [
            0.29,
            0.016528908270246744
        ],
        [
            0.3,
            0.017608283323115898
        ],
        [
            0.31,
            0.019645340372509926
        ],
        [
            0.32,
            0.017788479570575454
        ],
        [
            0.33,
            0.018275161700500257
        ],
        [
            0.34,
            0.017505296398662485
        ],
        [
            0.35,
            0.01909259587117871
        ],
        [
            0.36,
            0.017065053294855456
        ],
        [
            0.37,
            0.016400720895823062
        ],
        [
            0.38,
            0.016254929564553426
        ],
        [
            0.39,
            0.01717693684353561
        ],
        [
            0.4,
            0.01777755057548744
        ],
        [
            0.41,
            0.018151570353882686
        ],
        [
            0.42,
            0.017594392505755396
        ],
        [
            0.43,
            0.019797391182242996
        ],
        [
            0.44,
            0.01831220606532228
        ],
        [
            0.45,
            0.01849815622032914
        ],
        [
            0.46,
            0.017139952264336494
        ],
        [
            0.47,
            0.017075084328001828
        ],
        [
            0.48,
            0.01840096281203395
        ],
        [
            0.49,
            0.017713857627362568
        ],
        [
            0.5,
            0.016351910806285192
        ],
        [
            0.51,
            0.016166910781400395
        ],
        [
            0.52,
            0.01643636634287063
        ],
        [
            0.53,
            0.01613563369348306
        ],
        [
            0.54,
            0.016367849850029332
        ],
        [
            0.55,
            0.015883084700316866
        ],
        [
            0.56,
            0.016075940756535585
        ],
        [
            0.57,
            0.01555892986499489
        ],
        [
            0.58,
            0.015282447468410634
        ],
        [
            0.59,
            0.014636299684949913
        ],
        [
            0.6,
            0.014996740532033861
        ],
        [
            0.61,
            0.01480044782505133
        ],
        [
            0.62,
            0.01460188766602976
        ],
        [
            0.63,
            0.014299238410517721
        ],
        [
            0.64,
            0.01424584649009805
        ],
        [
            0.65,
            0.014212134459145279
        ],
        [
            0.66,
            0.013833204095376186
        ],
        [
            0.67,
            0.013927918397743043
        ],
        [
            0.68,
            0.014127919567396065
        ],
        [
            0.69,
            0.013898005760120994
        ],
        [
            0.7,
            0.01373021674480929
        ],
        [
            0.71,
            0.013576421772690622
        ],
        [
            0.72,
            0.013436732744018194
        ],
        [
            0.73,
            0.013498027045718956
        ],
        [
            0.74,
            0.01335556938442067
        ],
        [
            0.75,
            0.013255702246402065
        ],
        [
            0.76,
            0.013508889924447173
        ],
        [
            0.77,
            0.013357766246701368
        ],
        [
            0.78,
            0.013181499430265968
        ],
        [
            0.79,
            0.013228812945726925
        ],
        [
            0.8,
            0.013032413538726726
        ],
        [
            0.81,
            0.013112974286527038
        ],
        [
            0.82,
            0.012760303245571267
        ],
        [
            0.83,
            0.012692637897157981
        ],
        [
            0.84,
            0.012654617669957794
        ],
        [
            0.85,
            0.012582796475787781
        ],
        [
            0.86,
            0.012597912772430052
        ],
        [
            0.87,
            0.012404612167837266
        ],
        [
            0.88,
            0.012337262692780961
        ],
        [
            0.89,
            0.01212174909274824
        ],
        [
            0.9,
            0.011906519181679162
        ],
        [
            0.91,
            0.011755395212883756
        ],
        [
            0.92,
            0.011742270769472176
        ],
        [
            0.93,
            0.011545981689147828
        ],
        [
            0.94,
            0.011302902529877729
        ],
        [
            0.95,
            0.011244025730879086
        ],
        [
            0.96,
            0.011253455184691138
        ],
        [
            0.97,
            0.011268654287974127
        ],
        [
            0.98,
            0.011210375138538037
        ],
        [
            0.99,
            0.011072730324486262
        ],
        [
            1.0,
            0.010541473316651343
        ]
    ]
}